image_processing/buffer.vcd
$date
	Mon Dec 12 23:58:18 2022
$end
$version
	Icarus Verilog
$end
$timescale
	1ps
$end
$scope module buffer_tb $end
$var wire 5 ! vcount_out [4:0] $end
$var wire 189 " line_buffer_out [188:0] $end
$var wire 5 # hcount_out [4:0] $end
$var wire 1 $ data_valid_out $end
$var reg 1 % clk $end
$var reg 1 & data_valid_in $end
$var reg 5 ' hcount_in [4:0] $end
$var reg 21 ( pixel_data_in [20:0] $end
$var reg 1 ) rst $end
$var reg 5 * vcount_in [4:0] $end
$scope module uut $end
$var wire 1 % clk_in $end
$var wire 1 & data_valid_in $end
$var wire 5 + hcount_in [4:0] $end
$var wire 21 , pixel_data_in [20:0] $end
$var wire 1 ) rst_in $end
$var wire 5 - vcount_in [4:0] $end
$var reg 4 . bram_count [3:0] $end
$var reg 1 $ data_valid_out $end
$var reg 1 / data_valid_pipe $end
$var reg 6 0 hcount_old [5:0] $end
$var reg 5 1 hcount_out [4:0] $end
$var reg 6 2 hcount_pipe [5:0] $end
$var reg 189 3 line_buffer_out [188:0] $end
$var reg 5 4 vcount_out [4:0] $end
$var reg 6 5 vcount_pipe [5:0] $end
$scope module bram_0 $end
$var wire 5 6 addra [4:0] $end
$var wire 5 7 addrb [4:0] $end
$var wire 1 % clka $end
$var wire 21 8 dina [20:0] $end
$var wire 21 9 dinb [20:0] $end
$var wire 1 : ena $end
$var wire 1 ; enb $end
$var wire 1 < regcea $end
$var wire 1 = regceb $end
$var wire 1 ) rsta $end
$var wire 1 > rstb $end
$var wire 1 ? wea $end
$var wire 1 @ web $end
$var wire 21 A doutb [20:0] $end
$var wire 21 B douta [20:0] $end
$var reg 21 C ram_data_a [20:0] $end
$var reg 21 D ram_data_b [20:0] $end
$scope function clogb2 $end
$var integer 32 E depth [31:0] $end
$upscope $end
$scope begin init_bram_to_zero $end
$var integer 32 F ram_index [31:0] $end
$upscope $end
$scope begin output_register $end
$var reg 21 G douta_reg [20:0] $end
$var reg 21 H doutb_reg [20:0] $end
$upscope $end
$upscope $end
$scope module bram_1 $end
$var wire 5 I addra [4:0] $end
$var wire 5 J addrb [4:0] $end
$var wire 1 % clka $end
$var wire 21 K dina [20:0] $end
$var wire 21 L dinb [20:0] $end
$var wire 1 M ena $end
$var wire 1 N enb $end
$var wire 1 O regcea $end
$var wire 1 P regceb $end
$var wire 1 ) rsta $end
$var wire 1 Q rstb $end
$var wire 1 R wea $end
$var wire 1 S web $end
$var wire 21 T doutb [20:0] $end
$var wire 21 U douta [20:0] $end
$var reg 21 V ram_data_a [20:0] $end
$var reg 21 W ram_data_b [20:0] $end
$scope function clogb2 $end
$var integer 32 X depth [31:0] $end
$upscope $end
$scope begin init_bram_to_zero $end
$var integer 32 Y ram_index [31:0] $end
$upscope $end
$scope begin output_register $end
$var reg 21 Z douta_reg [20:0] $end
$var reg 21 [ doutb_reg [20:0] $end
$upscope $end
$upscope $end
$scope module bram_2 $end
$var wire 5 \ addra [4:0] $end
$var wire 5 ] addrb [4:0] $end
$var wire 1 % clka $end
$var wire 21 ^ dina [20:0] $end
$var wire 21 _ dinb [20:0] $end
$var wire 1 ` ena $end
$var wire 1 a enb $end
$var wire 1 b regcea $end
$var wire 1 c regceb $end
$var wire 1 ) rsta $end
$var wire 1 d rstb $end
$var wire 1 e wea $end
$var wire 1 f web $end
$var wire 21 g doutb [20:0] $end
$var wire 21 h douta [20:0] $end
$var reg 21 i ram_data_a [20:0] $end
$var reg 21 j ram_data_b [20:0] $end
$scope function clogb2 $end
$var integer 32 k depth [31:0] $end
$upscope $end
$scope begin init_bram_to_zero $end
$var integer 32 l ram_index [31:0] $end
$upscope $end
$scope begin output_register $end
$var reg 21 m douta_reg [20:0] $end
$var reg 21 n doutb_reg [20:0] $end
$upscope $end
$upscope $end
$scope module bram_3 $end
$var wire 5 o addra [4:0] $end
$var wire 5 p addrb [4:0] $end
$var wire 1 % clka $end
$var wire 21 q dina [20:0] $end
$var wire 21 r dinb [20:0] $end
$var wire 1 s ena $end
$var wire 1 t enb $end
$var wire 1 u regcea $end
$var wire 1 v regceb $end
$var wire 1 ) rsta $end
$var wire 1 w rstb $end
$var wire 1 x wea $end
$var wire 1 y web $end
$var wire 21 z doutb [20:0] $end
$var wire 21 { douta [20:0] $end
$var reg 21 | ram_data_a [20:0] $end
$var reg 21 } ram_data_b [20:0] $end
$scope function clogb2 $end
$var integer 32 ~ depth [31:0] $end
$upscope $end
$scope begin init_bram_to_zero $end
$var integer 32 !" ram_index [31:0] $end
$upscope $end
$scope begin output_register $end
$var reg 21 "" douta_reg [20:0] $end
$var reg 21 #" doutb_reg [20:0] $end
$upscope $end
$upscope $end
$scope module bram_4 $end
$var wire 5 $" addra [4:0] $end
$var wire 5 %" addrb [4:0] $end
$var wire 1 % clka $end
$var wire 21 &" dina [20:0] $end
$var wire 21 '" dinb [20:0] $end
$var wire 1 (" ena $end
$var wire 1 )" enb $end
$var wire 1 *" regcea $end
$var wire 1 +" regceb $end
$var wire 1 ) rsta $end
$var wire 1 ," rstb $end
$var wire 1 -" wea $end
$var wire 1 ." web $end
$var wire 21 /" doutb [20:0] $end
$var wire 21 0" douta [20:0] $end
$var reg 21 1" ram_data_a [20:0] $end
$var reg 21 2" ram_data_b [20:0] $end
$scope function clogb2 $end
$var integer 32 3" depth [31:0] $end
$upscope $end
$scope begin init_bram_to_zero $end
$var integer 32 4" ram_index [31:0] $end
$upscope $end
$scope begin output_register $end
$var reg 21 5" douta_reg [20:0] $end
$var reg 21 6" doutb_reg [20:0] $end
$upscope $end
$upscope $end
$scope module bram_5 $end
$var wire 5 7" addra [4:0] $end
$var wire 5 8" addrb [4:0] $end
$var wire 1 % clka $end
$var wire 21 9" dina [20:0] $end
$var wire 21 :" dinb [20:0] $end
$var wire 1 ;" ena $end
$var wire 1 <" enb $end
$var wire 1 =" regcea $end
$var wire 1 >" regceb $end
$var wire 1 ) rsta $end
$var wire 1 ?" rstb $end
$var wire 1 @" wea $end
$var wire 1 A" web $end
$var wire 21 B" doutb [20:0] $end
$var wire 21 C" douta [20:0] $end
$var reg 21 D" ram_data_a [20:0] $end
$var reg 21 E" ram_data_b [20:0] $end
$scope function clogb2 $end
$var integer 32 F" depth [31:0] $end
$upscope $end
$scope begin init_bram_to_zero $end
$var integer 32 G" ram_index [31:0] $end
$upscope $end
$scope begin output_register $end
$var reg 21 H" douta_reg [20:0] $end
$var reg 21 I" doutb_reg [20:0] $end
$upscope $end
$upscope $end
$scope module bram_6 $end
$var wire 5 J" addra [4:0] $end
$var wire 5 K" addrb [4:0] $end
$var wire 1 % clka $end
$var wire 21 L" dina [20:0] $end
$var wire 21 M" dinb [20:0] $end
$var wire 1 N" ena $end
$var wire 1 O" enb $end
$var wire 1 P" regcea $end
$var wire 1 Q" regceb $end
$var wire 1 ) rsta $end
$var wire 1 R" rstb $end
$var wire 1 S" wea $end
$var wire 1 T" web $end
$var wire 21 U" doutb [20:0] $end
$var wire 21 V" douta [20:0] $end
$var reg 21 W" ram_data_a [20:0] $end
$var reg 21 X" ram_data_b [20:0] $end
$scope function clogb2 $end
$var integer 32 Y" depth [31:0] $end
$upscope $end
$scope begin init_bram_to_zero $end
$var integer 32 Z" ram_index [31:0] $end
$upscope $end
$scope begin output_register $end
$var reg 21 [" douta_reg [20:0] $end
$var reg 21 \" doutb_reg [20:0] $end
$upscope $end
$upscope $end
$scope module bram_7 $end
$var wire 5 ]" addra [4:0] $end
$var wire 5 ^" addrb [4:0] $end
$var wire 1 % clka $end
$var wire 21 _" dina [20:0] $end
$var wire 21 `" dinb [20:0] $end
$var wire 1 a" ena $end
$var wire 1 b" enb $end
$var wire 1 c" regcea $end
$var wire 1 d" regceb $end
$var wire 1 ) rsta $end
$var wire 1 e" rstb $end
$var wire 1 f" wea $end
$var wire 1 g" web $end
$var wire 21 h" doutb [20:0] $end
$var wire 21 i" douta [20:0] $end
$var reg 21 j" ram_data_a [20:0] $end
$var reg 21 k" ram_data_b [20:0] $end
$scope function clogb2 $end
$var integer 32 l" depth [31:0] $end
$upscope $end
$scope begin init_bram_to_zero $end
$var integer 32 m" ram_index [31:0] $end
$upscope $end
$scope begin output_register $end
$var reg 21 n" douta_reg [20:0] $end
$var reg 21 o" doutb_reg [20:0] $end
$upscope $end
$upscope $end
$scope module bram_8 $end
$var wire 5 p" addra [4:0] $end
$var wire 5 q" addrb [4:0] $end
$var wire 1 % clka $end
$var wire 21 r" dina [20:0] $end
$var wire 21 s" dinb [20:0] $end
$var wire 1 t" ena $end
$var wire 1 u" enb $end
$var wire 1 v" regcea $end
$var wire 1 w" regceb $end
$var wire 1 ) rsta $end
$var wire 1 x" rstb $end
$var wire 1 y" wea $end
$var wire 1 z" web $end
$var wire 21 {" doutb [20:0] $end
$var wire 21 |" douta [20:0] $end
$var reg 21 }" ram_data_a [20:0] $end
$var reg 21 ~" ram_data_b [20:0] $end
$scope function clogb2 $end
$var integer 32 !# depth [31:0] $end
$upscope $end
$scope begin init_bram_to_zero $end
$var integer 32 "# ram_index [31:0] $end
$upscope $end
$scope begin output_register $end
$var reg 21 ## douta_reg [20:0] $end
$var reg 21 $# doutb_reg [20:0] $end
$upscope $end
$upscope $end
$scope module bram_9 $end
$var wire 5 %# addra [4:0] $end
$var wire 5 &# addrb [4:0] $end
$var wire 1 % clka $end
$var wire 21 '# dina [20:0] $end
$var wire 21 (# dinb [20:0] $end
$var wire 1 )# ena $end
$var wire 1 *# enb $end
$var wire 1 +# regcea $end
$var wire 1 ,# regceb $end
$var wire 1 ) rsta $end
$var wire 1 -# rstb $end
$var wire 1 .# wea $end
$var wire 1 /# web $end
$var wire 21 0# doutb [20:0] $end
$var wire 21 1# douta [20:0] $end
$var reg 21 2# ram_data_a [20:0] $end
$var reg 21 3# ram_data_b [20:0] $end
$scope function clogb2 $end
$var integer 32 4# depth [31:0] $end
$upscope $end
$scope begin init_bram_to_zero $end
$var integer 32 5# ram_index [31:0] $end
$upscope $end
$scope begin output_register $end
$var reg 21 6# douta_reg [20:0] $end
$var reg 21 7# doutb_reg [20:0] $end
$upscope $end
$upscope $end
$upscope $end
$scope begin $ivl_for_loop0 $end
$var integer 32 8# i [31:0] $end
$scope begin $ivl_for_loop1 $end
$var integer 32 9# j [31:0] $end
$upscope $end
$upscope $end
$upscope $end
$enddefinitions $end
#0
$dumpvars
b0 9#
b0 8#
b0 7#
b0 6#
b11000 5#
bx 4#
b0 3#
b0 2#
b0 1#
b0 0#
x/#
0.#
z-#
0,#
1+#
1*#
1)#
bx (#
bz '#
bx &#
bx %#
b0 $#
b0 ##
b11000 "#
bx !#
b0 ~"
b0 }"
b0 |"
b0 {"
xz"
0y"
zx"
0w"
1v"
1u"
1t"
bx s"
bz r"
bx q"
bx p"
b0 o"
b0 n"
b11000 m"
bx l"
b0 k"
b0 j"
b0 i"
b0 h"
xg"
0f"
ze"
0d"
1c"
1b"
1a"
bx `"
bz _"
bx ^"
bx ]"
b0 \"
b0 ["
b11000 Z"
bx Y"
b0 X"
b0 W"
b0 V"
b0 U"
xT"
0S"
zR"
0Q"
1P"
1O"
1N"
bx M"
bz L"
bx K"
bx J"
b0 I"
b0 H"
b11000 G"
bx F"
b0 E"
b0 D"
b0 C"
b0 B"
xA"
0@"
z?"
0>"
1="
1<"
1;"
bx :"
bz 9"
bx 8"
bx 7"
b0 6"
b0 5"
b11000 4"
bx 3"
b0 2"
b0 1"
b0 0"
b0 /"
x."
0-"
z,"
0+"
1*"
1)"
1("
bx '"
bz &"
bx %"
bx $"
b0 #"
b0 ""
b11000 !"
bx ~
b0 }
b0 |
b0 {
b0 z
xy
0x
zw
0v
1u
1t
1s
bx r
bz q
bx p
bx o
b0 n
b0 m
b11000 l
bx k
b0 j
b0 i
b0 h
b0 g
xf
0e
zd
0c
1b
1a
1`
bx _
bz ^
bx ]
bx \
b0 [
b0 Z
b11000 Y
bx X
b0 W
b0 V
b0 U
b0 T
xS
0R
zQ
0P
1O
1N
1M
bx L
bz K
bx J
bx I
b0 H
b0 G
b11000 F
bx E
b0 D
b0 C
b0 B
b0 A
x@
0?
z>
0=
1<
1;
1:
bx 9
bz 8
bx 7
bx 6
bx 5
bx 4
bx 3
bx 2
bx 1
bx 0
x/
bx .
bx -
bx ,
bx +
bx *
0)
bx (
bx '
x&
0%
x$
bx #
bx "
bx !
$end
#5000
bx C
bx D
bx V
bx W
bx i
bx j
bx |
bx }
bx 1"
bx 2"
bx D"
bx E"
bx W"
bx X"
bx j"
bx k"
bx }"
bx ~"
bx 2#
bx 3#
b0xxxxx 5
b0xxxxx 2
b0xxxxx 0
1%
#10000
0%
1)
#15000
b0 "
b0 3
0S
0f
0y
0."
0A"
0T"
0g"
0z"
0/#
b0 .
1%
#20000
1@
0%
1&
b0 (
b0 ,
b0 9
b0 L
b0 _
b0 r
b0 '"
b0 :"
b0 M"
b0 `"
b0 s"
b0 (#
b0 *
b0 -
b0 '
b0 +
b0 6
b0 7
b0 I
b0 J
b0 \
b0 ]
b0 o
b0 p
b0 $"
b0 %"
b0 7"
b0 8"
b0 J"
b0 K"
b0 ]"
b0 ^"
b0 p"
b0 q"
b0 %#
b0 &#
0)
#25000
bx "
bx 3
bx B
bx G
b0 C
b0 D
bx U
bx Z
b0 V
b0 W
bx h
bx m
b0 i
b0 j
bx {
bx ""
b0 |
b0 }
bx 0"
bx 5"
b0 1"
b0 2"
bx C"
bx H"
b0 D"
b0 E"
bx V"
bx ["
b0 W"
b0 X"
bx i"
bx n"
b0 j"
b0 k"
bx |"
bx ##
b0 }"
b0 ~"
bx 1#
bx 6#
b0 2#
b0 3#
1/
b0 5
b0 2
b0 0
1%
#30000
0%
b1 (
b1 ,
b1 9
b1 L
b1 _
b1 r
b1 '"
b1 :"
b1 M"
b1 `"
b1 s"
b1 (#
b1 '
b1 +
b1 6
b1 7
b1 I
b1 J
b1 \
b1 ]
b1 o
b1 p
b1 $"
b1 %"
b1 7"
b1 8"
b1 J"
b1 K"
b1 ]"
b1 ^"
b1 p"
b1 q"
b1 %#
b1 &#
b1 9#
#35000
b0 "
b0 3
1$
b11110 !
b11110 4
b0 #
b0 1
b1 2
b1 0
b0 1#
b0 6#
b0 |"
b0 ##
b0 i"
b0 n"
b0 V"
b0 ["
b0 C"
b0 H"
b0 0"
b0 5"
b0 {
b0 ""
b0 h
b0 m
b0 U
b0 Z
b0 B
b0 G
1%
#40000
0%
b10 (
b10 ,
b10 9
b10 L
b10 _
b10 r
b10 '"
b10 :"
b10 M"
b10 `"
b10 s"
b10 (#
b10 '
b10 +
b10 6
b10 7
b10 I
b10 J
b10 \
b10 ]
b10 o
b10 p
b10 $"
b10 %"
b10 7"
b10 8"
b10 J"
b10 K"
b10 ]"
b10 ^"
b10 p"
b10 q"
b10 %#
b10 &#
b10 9#
#45000
b1 #
b1 1
b10 2
b10 0
1%
#50000
0%
b11 (
b11 ,
b11 9
b11 L
b11 _
b11 r
b11 '"
b11 :"
b11 M"
b11 `"
b11 s"
b11 (#
b11 '
b11 +
b11 6
b11 7
b11 I
b11 J
b11 \
b11 ]
b11 o
b11 p
b11 $"
b11 %"
b11 7"
b11 8"
b11 J"
b11 K"
b11 ]"
b11 ^"
b11 p"
b11 q"
b11 %#
b11 &#
b11 9#
#55000
b10 #
b10 1
b11 2
b11 0
1%
#60000
0%
b100 (
b100 ,
b100 9
b100 L
b100 _
b100 r
b100 '"
b100 :"
b100 M"
b100 `"
b100 s"
b100 (#
b100 '
b100 +
b100 6
b100 7
b100 I
b100 J
b100 \
b100 ]
b100 o
b100 p
b100 $"
b100 %"
b100 7"
b100 8"
b100 J"
b100 K"
b100 ]"
b100 ^"
b100 p"
b100 q"
b100 %#
b100 &#
b100 9#
#65000
b11 #
b11 1
b100 2
b100 0
1%
#70000
0%
b101 (
b101 ,
b101 9
b101 L
b101 _
b101 r
b101 '"
b101 :"
b101 M"
b101 `"
b101 s"
b101 (#
b101 '
b101 +
b101 6
b101 7
b101 I
b101 J
b101 \
b101 ]
b101 o
b101 p
b101 $"
b101 %"
b101 7"
b101 8"
b101 J"
b101 K"
b101 ]"
b101 ^"
b101 p"
b101 q"
b101 %#
b101 &#
b101 9#
#75000
b100 #
b100 1
b101 2
b101 0
1%
#80000
0%
b110 (
b110 ,
b110 9
b110 L
b110 _
b110 r
b110 '"
b110 :"
b110 M"
b110 `"
b110 s"
b110 (#
b110 '
b110 +
b110 6
b110 7
b110 I
b110 J
b110 \
b110 ]
b110 o
b110 p
b110 $"
b110 %"
b110 7"
b110 8"
b110 J"
b110 K"
b110 ]"
b110 ^"
b110 p"
b110 q"
b110 %#
b110 &#
b110 9#
#85000
b101 #
b101 1
b110 2
b110 0
1%
#90000
0%
b111 (
b111 ,
b111 9
b111 L
b111 _
b111 r
b111 '"
b111 :"
b111 M"
b111 `"
b111 s"
b111 (#
b111 '
b111 +
b111 6
b111 7
b111 I
b111 J
b111 \
b111 ]
b111 o
b111 p
b111 $"
b111 %"
b111 7"
b111 8"
b111 J"
b111 K"
b111 ]"
b111 ^"
b111 p"
b111 q"
b111 %#
b111 &#
b111 9#
#95000
b110 #
b110 1
b111 2
b111 0
1%
#100000
0%
b1000 (
b1000 ,
b1000 9
b1000 L
b1000 _
b1000 r
b1000 '"
b1000 :"
b1000 M"
b1000 `"
b1000 s"
b1000 (#
b1000 '
b1000 +
b1000 6
b1000 7
b1000 I
b1000 J
b1000 \
b1000 ]
b1000 o
b1000 p
b1000 $"
b1000 %"
b1000 7"
b1000 8"
b1000 J"
b1000 K"
b1000 ]"
b1000 ^"
b1000 p"
b1000 q"
b1000 %#
b1000 &#
b1000 9#
#105000
b111 #
b111 1
b1000 2
b1000 0
1%
#110000
0%
b1001 (
b1001 ,
b1001 9
b1001 L
b1001 _
b1001 r
b1001 '"
b1001 :"
b1001 M"
b1001 `"
b1001 s"
b1001 (#
b1001 '
b1001 +
b1001 6
b1001 7
b1001 I
b1001 J
b1001 \
b1001 ]
b1001 o
b1001 p
b1001 $"
b1001 %"
b1001 7"
b1001 8"
b1001 J"
b1001 K"
b1001 ]"
b1001 ^"
b1001 p"
b1001 q"
b1001 %#
b1001 &#
b1001 9#
#115000
b1000 #
b1000 1
b1001 2
b1001 0
1%
#120000
0%
b1010 (
b1010 ,
b1010 9
b1010 L
b1010 _
b1010 r
b1010 '"
b1010 :"
b1010 M"
b1010 `"
b1010 s"
b1010 (#
b1010 '
b1010 +
b1010 6
b1010 7
b1010 I
b1010 J
b1010 \
b1010 ]
b1010 o
b1010 p
b1010 $"
b1010 %"
b1010 7"
b1010 8"
b1010 J"
b1010 K"
b1010 ]"
b1010 ^"
b1010 p"
b1010 q"
b1010 %#
b1010 &#
b1010 9#
#125000
b1001 #
b1001 1
b1010 2
b1010 0
1%
#130000
0%
b1011 (
b1011 ,
b1011 9
b1011 L
b1011 _
b1011 r
b1011 '"
b1011 :"
b1011 M"
b1011 `"
b1011 s"
b1011 (#
b1011 '
b1011 +
b1011 6
b1011 7
b1011 I
b1011 J
b1011 \
b1011 ]
b1011 o
b1011 p
b1011 $"
b1011 %"
b1011 7"
b1011 8"
b1011 J"
b1011 K"
b1011 ]"
b1011 ^"
b1011 p"
b1011 q"
b1011 %#
b1011 &#
b1011 9#
#135000
b1010 #
b1010 1
b1011 2
b1011 0
1%
#140000
0%
b1100 (
b1100 ,
b1100 9
b1100 L
b1100 _
b1100 r
b1100 '"
b1100 :"
b1100 M"
b1100 `"
b1100 s"
b1100 (#
b1100 '
b1100 +
b1100 6
b1100 7
b1100 I
b1100 J
b1100 \
b1100 ]
b1100 o
b1100 p
b1100 $"
b1100 %"
b1100 7"
b1100 8"
b1100 J"
b1100 K"
b1100 ]"
b1100 ^"
b1100 p"
b1100 q"
b1100 %#
b1100 &#
b1100 9#
#145000
b1011 #
b1011 1
b1100 2
b1100 0
1%
#150000
0%
b1101 (
b1101 ,
b1101 9
b1101 L
b1101 _
b1101 r
b1101 '"
b1101 :"
b1101 M"
b1101 `"
b1101 s"
b1101 (#
b1101 '
b1101 +
b1101 6
b1101 7
b1101 I
b1101 J
b1101 \
b1101 ]
b1101 o
b1101 p
b1101 $"
b1101 %"
b1101 7"
b1101 8"
b1101 J"
b1101 K"
b1101 ]"
b1101 ^"
b1101 p"
b1101 q"
b1101 %#
b1101 &#
b1101 9#
#155000
b1100 #
b1100 1
b1101 2
b1101 0
1%
#160000
0%
b1110 (
b1110 ,
b1110 9
b1110 L
b1110 _
b1110 r
b1110 '"
b1110 :"
b1110 M"
b1110 `"
b1110 s"
b1110 (#
b1110 '
b1110 +
b1110 6
b1110 7
b1110 I
b1110 J
b1110 \
b1110 ]
b1110 o
b1110 p
b1110 $"
b1110 %"
b1110 7"
b1110 8"
b1110 J"
b1110 K"
b1110 ]"
b1110 ^"
b1110 p"
b1110 q"
b1110 %#
b1110 &#
b1110 9#
#165000
b1101 #
b1101 1
b1110 2
b1110 0
1%
#170000
0%
b1111 (
b1111 ,
b1111 9
b1111 L
b1111 _
b1111 r
b1111 '"
b1111 :"
b1111 M"
b1111 `"
b1111 s"
b1111 (#
b1111 '
b1111 +
b1111 6
b1111 7
b1111 I
b1111 J
b1111 \
b1111 ]
b1111 o
b1111 p
b1111 $"
b1111 %"
b1111 7"
b1111 8"
b1111 J"
b1111 K"
b1111 ]"
b1111 ^"
b1111 p"
b1111 q"
b1111 %#
b1111 &#
b1111 9#
#175000
b1110 #
b1110 1
b1111 2
b1111 0
1%
#180000
0%
b10000 (
b10000 ,
b10000 9
b10000 L
b10000 _
b10000 r
b10000 '"
b10000 :"
b10000 M"
b10000 `"
b10000 s"
b10000 (#
b10000 '
b10000 +
b10000 6
b10000 7
b10000 I
b10000 J
b10000 \
b10000 ]
b10000 o
b10000 p
b10000 $"
b10000 %"
b10000 7"
b10000 8"
b10000 J"
b10000 K"
b10000 ]"
b10000 ^"
b10000 p"
b10000 q"
b10000 %#
b10000 &#
b10000 9#
#185000
b1111 #
b1111 1
b10000 2
b10000 0
1%
#190000
0%
b10001 (
b10001 ,
b10001 9
b10001 L
b10001 _
b10001 r
b10001 '"
b10001 :"
b10001 M"
b10001 `"
b10001 s"
b10001 (#
b10001 '
b10001 +
b10001 6
b10001 7
b10001 I
b10001 J
b10001 \
b10001 ]
b10001 o
b10001 p
b10001 $"
b10001 %"
b10001 7"
b10001 8"
b10001 J"
b10001 K"
b10001 ]"
b10001 ^"
b10001 p"
b10001 q"
b10001 %#
b10001 &#
b10001 9#
#195000
b10000 #
b10000 1
b10001 2
b10001 0
1%
#200000
0%
b10010 (
b10010 ,
b10010 9
b10010 L
b10010 _
b10010 r
b10010 '"
b10010 :"
b10010 M"
b10010 `"
b10010 s"
b10010 (#
b10010 '
b10010 +
b10010 6
b10010 7
b10010 I
b10010 J
b10010 \
b10010 ]
b10010 o
b10010 p
b10010 $"
b10010 %"
b10010 7"
b10010 8"
b10010 J"
b10010 K"
b10010 ]"
b10010 ^"
b10010 p"
b10010 q"
b10010 %#
b10010 &#
b10010 9#
#205000
b10001 #
b10001 1
b10010 2
b10010 0
1%
#210000
0%
b10011 (
b10011 ,
b10011 9
b10011 L
b10011 _
b10011 r
b10011 '"
b10011 :"
b10011 M"
b10011 `"
b10011 s"
b10011 (#
b10011 '
b10011 +
b10011 6
b10011 7
b10011 I
b10011 J
b10011 \
b10011 ]
b10011 o
b10011 p
b10011 $"
b10011 %"
b10011 7"
b10011 8"
b10011 J"
b10011 K"
b10011 ]"
b10011 ^"
b10011 p"
b10011 q"
b10011 %#
b10011 &#
b10011 9#
#215000
b10010 #
b10010 1
b10011 2
b10011 0
1%
#220000
0%
b10100 (
b10100 ,
b10100 9
b10100 L
b10100 _
b10100 r
b10100 '"
b10100 :"
b10100 M"
b10100 `"
b10100 s"
b10100 (#
b10100 '
b10100 +
b10100 6
b10100 7
b10100 I
b10100 J
b10100 \
b10100 ]
b10100 o
b10100 p
b10100 $"
b10100 %"
b10100 7"
b10100 8"
b10100 J"
b10100 K"
b10100 ]"
b10100 ^"
b10100 p"
b10100 q"
b10100 %#
b10100 &#
b10100 9#
#225000
b10011 #
b10011 1
b10100 2
b10100 0
1%
#230000
0%
b10101 (
b10101 ,
b10101 9
b10101 L
b10101 _
b10101 r
b10101 '"
b10101 :"
b10101 M"
b10101 `"
b10101 s"
b10101 (#
b10101 '
b10101 +
b10101 6
b10101 7
b10101 I
b10101 J
b10101 \
b10101 ]
b10101 o
b10101 p
b10101 $"
b10101 %"
b10101 7"
b10101 8"
b10101 J"
b10101 K"
b10101 ]"
b10101 ^"
b10101 p"
b10101 q"
b10101 %#
b10101 &#
b10101 9#
#235000
b10100 #
b10100 1
b10101 2
b10101 0
1%
#240000
0%
b10110 (
b10110 ,
b10110 9
b10110 L
b10110 _
b10110 r
b10110 '"
b10110 :"
b10110 M"
b10110 `"
b10110 s"
b10110 (#
b10110 '
b10110 +
b10110 6
b10110 7
b10110 I
b10110 J
b10110 \
b10110 ]
b10110 o
b10110 p
b10110 $"
b10110 %"
b10110 7"
b10110 8"
b10110 J"
b10110 K"
b10110 ]"
b10110 ^"
b10110 p"
b10110 q"
b10110 %#
b10110 &#
b10110 9#
#245000
b10101 #
b10101 1
b10110 2
b10110 0
1%
#250000
0%
b10111 (
b10111 ,
b10111 9
b10111 L
b10111 _
b10111 r
b10111 '"
b10111 :"
b10111 M"
b10111 `"
b10111 s"
b10111 (#
b10111 '
b10111 +
b10111 6
b10111 7
b10111 I
b10111 J
b10111 \
b10111 ]
b10111 o
b10111 p
b10111 $"
b10111 %"
b10111 7"
b10111 8"
b10111 J"
b10111 K"
b10111 ]"
b10111 ^"
b10111 p"
b10111 q"
b10111 %#
b10111 &#
b10111 9#
#255000
b10110 #
b10110 1
b10111 2
b10111 0
1%
#260000
0%
b11000 (
b11000 ,
b11000 9
b11000 L
b11000 _
b11000 r
b11000 '"
b11000 :"
b11000 M"
b11000 `"
b11000 s"
b11000 (#
b1 *
b1 -
b0 '
b0 +
b0 6
b0 7
b0 I
b0 J
b0 \
b0 ]
b0 o
b0 p
b0 $"
b0 %"
b0 7"
b0 8"
b0 J"
b0 K"
b0 ]"
b0 ^"
b0 p"
b0 q"
b0 %#
b0 &#
b1 8#
b0 9#
#265000
0@
1S
b10111 #
b10111 1
b1 5
b0 2
b0 0
b1 .
1%
#270000
0%
b11001 (
b11001 ,
b11001 9
b11001 L
b11001 _
b11001 r
b11001 '"
b11001 :"
b11001 M"
b11001 `"
b11001 s"
b11001 (#
b1 '
b1 +
b1 6
b1 7
b1 I
b1 J
b1 \
b1 ]
b1 o
b1 p
b1 $"
b1 %"
b1 7"
b1 8"
b1 J"
b1 K"
b1 ]"
b1 ^"
b1 p"
b1 q"
b1 %#
b1 &#
b1 9#
#275000
b11111 !
b11111 4
b0 #
b0 1
b1 2
b1 0
b1 D
b1 C
1%
#280000
0%
b11010 (
b11010 ,
b11010 9
b11010 L
b11010 _
b11010 r
b11010 '"
b11010 :"
b11010 M"
b11010 `"
b11010 s"
b11010 (#
b10 '
b10 +
b10 6
b10 7
b10 I
b10 J
b10 \
b10 ]
b10 o
b10 p
b10 $"
b10 %"
b10 7"
b10 8"
b10 J"
b10 K"
b10 ]"
b10 ^"
b10 p"
b10 q"
b10 %#
b10 &#
b10 9#
#285000
b1 "
b1 3
b1 B
b1 G
b10 C
b10 D
b1 #
b1 1
b10 2
b10 0
1%
#290000
0%
b11011 (
b11011 ,
b11011 9
b11011 L
b11011 _
b11011 r
b11011 '"
b11011 :"
b11011 M"
b11011 `"
b11011 s"
b11011 (#
b11 '
b11 +
b11 6
b11 7
b11 I
b11 J
b11 \
b11 ]
b11 o
b11 p
b11 $"
b11 %"
b11 7"
b11 8"
b11 J"
b11 K"
b11 ]"
b11 ^"
b11 p"
b11 q"
b11 %#
b11 &#
b11 9#
#295000
b10 "
b10 3
b10 #
b10 1
b11 2
b11 0
b11 D
b11 C
b10 B
b10 G
1%
#300000
0%
b11100 (
b11100 ,
b11100 9
b11100 L
b11100 _
b11100 r
b11100 '"
b11100 :"
b11100 M"
b11100 `"
b11100 s"
b11100 (#
b100 '
b100 +
b100 6
b100 7
b100 I
b100 J
b100 \
b100 ]
b100 o
b100 p
b100 $"
b100 %"
b100 7"
b100 8"
b100 J"
b100 K"
b100 ]"
b100 ^"
b100 p"
b100 q"
b100 %#
b100 &#
b100 9#
#305000
b11 "
b11 3
b11 B
b11 G
b100 C
b100 D
b11 #
b11 1
b100 2
b100 0
1%
#310000
0%
b11101 (
b11101 ,
b11101 9
b11101 L
b11101 _
b11101 r
b11101 '"
b11101 :"
b11101 M"
b11101 `"
b11101 s"
b11101 (#
b101 '
b101 +
b101 6
b101 7
b101 I
b101 J
b101 \
b101 ]
b101 o
b101 p
b101 $"
b101 %"
b101 7"
b101 8"
b101 J"
b101 K"
b101 ]"
b101 ^"
b101 p"
b101 q"
b101 %#
b101 &#
b101 9#
#315000
b100 "
b100 3
b100 #
b100 1
b101 2
b101 0
b101 D
b101 C
b100 B
b100 G
1%
#320000
0%
b11110 (
b11110 ,
b11110 9
b11110 L
b11110 _
b11110 r
b11110 '"
b11110 :"
b11110 M"
b11110 `"
b11110 s"
b11110 (#
b110 '
b110 +
b110 6
b110 7
b110 I
b110 J
b110 \
b110 ]
b110 o
b110 p
b110 $"
b110 %"
b110 7"
b110 8"
b110 J"
b110 K"
b110 ]"
b110 ^"
b110 p"
b110 q"
b110 %#
b110 &#
b110 9#
#325000
b101 "
b101 3
b101 B
b101 G
b110 C
b110 D
b101 #
b101 1
b110 2
b110 0
1%
