image_processing/get_conv9_weights_tb.vcd
$date
	Tue Dec 13 16:31:51 2022
$end
$version
	Icarus Verilog
$end
$timescale
	1ps
$end
$scope module get_conv9_weights_tb $end
$var wire 1 ! data_valid_out $end
$var wire 162 " conv_9_weight_row [161:0] $end
$var reg 1 # clk $end
$var reg 1 $ data_valid_in $end
$var reg 1 % rst $end
$scope module get_conv9_weights_m $end
$var wire 1 # clk_in $end
$var wire 1 $ data_valid_in $end
$var wire 1 % rst_in $end
$var wire 162 & weight_output [161:0] $end
$var reg 162 ' conv_9_weight_row [161:0] $end
$var reg 4 ( count [3:0] $end
$var reg 1 ! data_valid_out $end
$var reg 2 ) data_valid_pipe [1:0] $end
$scope module image_brom $end
$var wire 4 * addra [3:0] $end
$var wire 1 # clka $end
$var wire 162 + dina [161:0] $end
$var wire 1 , ena $end
$var wire 1 - regcea $end
$var wire 1 % rsta $end
$var wire 1 . wea $end
$var wire 162 / douta [161:0] $end
$var reg 162 0 ram_data [161:0] $end
$scope function clogb2 $end
$var integer 32 1 depth [31:0] $end
$upscope $end
$scope begin output_register $end
$var reg 162 2 douta_reg [161:0] $end
$upscope $end
$scope begin use_init_file $end
$upscope $end
$upscope $end
$upscope $end
$scope begin $ivl_for_loop0 $end
$var integer 32 3 i [31:0] $end
$upscope $end
$upscope $end
$enddefinitions $end
#0
$dumpvars
b0 3
b0 2
bx 1
b0 0
b0 /
0.
1-
1,
bz +
bx *
bx )
bx (
bx '
b0 &
0%
x$
0#
bx "
x!
$end
#5000
bx 0
b0 "
b0 '
1#
#10000
0#
1%
#15000
b0 (
b0 *
1#
#20000
0#
0$
0%
#25000
bx &
bx /
bx 2
b101101010000110100101101101111001100001101000000010000100111011110100100000110100110101100000111110010001100010111100011110100001110011111111000100010100010010 0
bx0 )
1#
#30000
0#
1$
#35000
b1 (
b1 *
b1 )
b101101010000110100101101101111001100001101000000010000100111011110100100000110100110101100000111110010001100010111100011110100001110011111111000100010100010010 &
b101101010000110100101101101111001100001101000000010000100111011110100100000110100110101100000111110010001100010111100011110100001110011111111000100010100010010 /
b101101010000110100101101101111001100001101000000010000100111011110100100000110100110101100000111110010001100010111100011110100001110011111111000100010100010010 2
bx "
bx '
1#
#40000
0#
#45000
b111101001110000101000000000111100001010111010100100101000001100000000000100000110100100011011001110010100000001011100001100101001000101110000100001101001111 0
b10 (
b10 *
0!
b11 )
b100010100010010100001110011111111100010111100011110100000111110010001100000110100110101000100111011110100100001101000000010100101101101111001000101101010000110 "
b100010100010010100001110011111111100010111100011110100000111110010001100000110100110101000100111011110100100001101000000010100101101101111001000101101010000110 '
1#
#50000
0#
#55000
b11 (
b11 *
1!
b10100101110000100011110111000111100010111000001000000010001100011100100001001110011000000100001000111111100000010100101100100100001001101001100010100010100101 0
b111101001110000101000000000111100001010111010100100101000001100000000000100000110100100011011001110010100000001011100001100101001000101110000100001101001111 &
b111101001110000101000000000111100001010111010100100101000001100000000000100000110100100011011001110010100000001011100001100101001000101110000100001101001111 /
b111101001110000101000000000111100001010111010100100101000001100000000000100000110100100011011001110010100000001011100001100101001000101110000100001101001111 2
1#
#60000
0#
b1 3
1$
#65000
b10100101110000100011110111000111100010111000001000000010001100011100100001001110011000000100001000111111100000010100101100100100001001101001100010100010100101 &
b10100101110000100011110111000111100010111000001000000010001100011100100001001110011000000100001000111111100000010100101100100100001001101001100010100010100101 /
b10100101110000100011110111000111100010111000001000000010001100011100100001001110011000000100001000111111100000010100101100100100001001101001100010100010100101 2
b100011111010000101000010010000111011000100010011101111000011011110101101000001001101111000100011011111011001100100101000011101000101111000000101100011010000100010 0
b100 (
b100 *
b100001101001111100101001000101110100000001011100001100011011001110010000000100000110100100101000001100000100001010111010100000101000000000111000000111101001110 "
b100001101001111100101001000101110100000001011100001100011011001110010000000100000110100100101000001100000100001010111010100000101000000000111000000111101001110 '
1#
#70000
0#
b10 3
1$
#75000
b101 (
b101 *
b100100000101010011100101010100111010100011010100010011100101010110100010100001111000101110100010011001001010000101011100110010000000010001111111100000010010110001 0
b100011111010000101000010010000111011000100010011101111000011011110101101000001001101111000100011011111011001100100101000011101000101111000000101100011010000100010 &
b100011111010000101000010010000111011000100010011101111000011011110101101000001001101111000100011011111011001100100101000011101000101111000000101100011010000100010 /
b100011111010000101000010010000111011000100010011101111000011011110101101000001001101111000100011011111011001100100101000011101000101111000000101100011010000100010 2
b100010100010100101100100001001101001100000010100101100000100001000111111100001001110011000000010001100011100100010111000001000100011110111000111000010100101110000 "
b100010100010100101100100001001101001100000010100101100000100001000111111100001001110011000000010001100011100100010111000001000100011110111000111000010100101110000 '
1#
#80000
0#
b11 3
1$
#85000
b100100000101010011100101010100111010100011010100010011100101010110100010100001111000101110100010011001001010000101011100110010000000010001111111100000010010110001 &
b100100000101010011100101010100111010100011010100010011100101010110100010100001111000101110100010011001001010000101011100110010000000010001111111100000010010110001 /
b100100000101010011100101010100111010100011010100010011100101010110100010100001111000101110100010011001001010000101011100110010000000010001111111100000010010110001 2
b100010111100011000101111010001000100011110100100010100001101001110011100000011100110111100100100110100011100000111011110011000010110110000010100000001101101110 0
b110 (
b110 *
b100011010000100010000101111000000101100100101000011101100011011111011001000001001101111000000011011110101101000100010011101111000010010000111011100011111010000101 "
b100011010000100010000101111000000101100100101000011101100011011111011001000001001101111000000011011110101101000100010011101111000010010000111011100011111010000101 '
1#
#90000
0#
b100 3
1$
#95000
b111 (
b111 *
b100100010100000110100100000001001001100001101001111111100001000011111001000010010111010110000001100010001011000010100010100001100001000001101101000010111011001110 0
b100010111100011000101111010001000100011110100100010100001101001110011100000011100110111100100100110100011100000111011110011000010110110000010100000001101101110 &
b100010111100011000101111010001000100011110100100010100001101001110011100000011100110111100100100110100011100000111011110011000010110110000010100000001101101110 /
b100010111100011000101111010001000100011110100100010100001101001110011100000011100110111100100100110100011100000111011110011000010110110000010100000001101101110 2
b100000010010110001000000010001111111000101011100110010100010011001001010100001111000101110100101010110100010100011010100010011100101010100111010100100000101010011 "
b100000010010110001000000010001111111000101011100110010100010011001001010100001111000101110100101010110100010100011010100010011100101010100111010100100000101010011 '
1#
#100000
0#
b101 3
1$
#105000
b100100010100000110100100000001001001100001101001111111100001000011111001000010010111010110000001100010001011000010100010100001100001000001101101000010111011001110 &
b100100010100000110100100000001001001100001101001111111100001000011111001000010010111010110000001100010001011000010100010100001100001000001101101000010111011001110 /
b100100010100000110100100000001001001100001101001111111100001000011111001000010010111010110000001100010001011000010100010100001100001000001101101000010111011001110 2
b100000110011101010100001011110111100000100000011111010000011010011010010000100010101011001000000010100001010100101000110101001000101000001011000000001000011101010 0
b1000 (
b1000 *
b100000001101101110000010110110000010100000111011110011100100100110100011100000011100110111100001101001110011100011110100100010000101111010001000000100010111100011 "
b100000001101101110000010110110000010100000111011110011100100100110100011100000011100110111100001101001110011100011110100100010000101111010001000000100010111100011 '
1#
#110000
0#
b110 3
1$
#115000
b1001 (
b1001 *
b11011101101100011101111111101100100000110011001000100111101000110100011000000101111000010110111110111000001110111001001100101010011110110000100101010110001 0
b100000110011101010100001011110111100000100000011111010000011010011010010000100010101011001000000010100001010100101000110101001000101000001011000000001000011101010 &
b100000110011101010100001011110111100000100000011111010000011010011010010000100010101011001000000010100001010100101000110101001000101000001011000000001000011101010 /
b100000110011101010100001011110111100000100000011111010000011010011010010000100010101011001000000010100001010100101000110101001000101000001011000000001000011101010 2
b10111011001110100001000001101101000010100010100001000001100010001011000010010111010110100001000011111001100001101001111111100100000001001001100100010100000110 "
b10111011001110100001000001101101000010100010100001000001100010001011000010010111010110100001000011111001100001101001111111100100000001001001100100010100000110 '
1#
#120000
0#
b111 3
1$
#125000
b11011101101100011101111111101100100000110011001000100111101000110100011000000101111000010110111110111000001110111001001100101010011110110000100101010110001 &
b11011101101100011101111111101100100000110011001000100111101000110100011000000101111000010110111110111000001110111001001100101010011110110000100101010110001 /
b11011101101100011101111111101100100000110011001000100111101000110100011000000101111000010110111110111000001110111001001100101010011110110000100101010110001 2
bx 0
b0 (
b0 *
b1000011101010000101000001011000100101000110101001000000010100001010000100010101011001000011010011010010000100000011111010100001011110111100100000110011101010 "
b1000011101010000101000001011000100101000110101001000000010100001010000100010101011001000011010011010010000100000011111010100001011110111100100000110011101010 '
1#
#130000
0#
b1000 3
1$
#135000
b1 (
b1 *
b101101010000110100101101101111001100001101000000010000100111011110100100000110100110101100000111110010001100010111100011110100001110011111111000100010100010010 0
bx &
bx /
bx 2
b100101010110001100101010011110110000001110111001001000010110111110111100011000000101111000100111101000110100100000110011001100011101111111101000000011011101101 "
b100101010110001100101010011110110000001110111001001000010110111110111100011000000101111000100111101000110100100000110011001100011101111111101000000011011101101 '
1#
#140000
0#
b1001 3
0$
