image_processing/pixelate.vcd
$date
	Sat Dec 10 18:10:56 2022
$end
$version
	Icarus Verilog
$end
$timescale
	1ps
$end
$scope module pixelate_tb $end
$var wire 6 ! vcount_out [5:0] $end
$var wire 6 " vcount_normalize [5:0] $end
$var wire 21 # pixelate_normalize [20:0] $end
$var wire 1 $ pixel_out $end
$var wire 6 % hcount_out [5:0] $end
$var wire 6 & hcount_normalize [5:0] $end
$var wire 1 ' data_valid_out $end
$var wire 1 ( data_valid_normalize $end
$var reg 1 ) clk_in $end
$var reg 1 * data_valid_in $end
$var reg 11 + hcount_in [10:0] $end
$var reg 1 , pixel_in $end
$var reg 10 - vcount_in [9:0] $end
$scope module uut $end
$var wire 1 ) clk_in $end
$var wire 1 * data_valid_in $end
$var wire 11 . hcount_in [10:0] $end
$var wire 1 , pixel_in $end
$var wire 10 / vcount_in [9:0] $end
$var reg 1 ' data_valid_out $end
$var reg 6 0 hcount_out [5:0] $end
$var reg 1 $ pixel_out $end
$var reg 6 1 vcount_out [5:0] $end
$scope begin $ivl_for_loop2 $end
$var integer 32 2 v [31:0] $end
$scope begin $ivl_for_loop3 $end
$var integer 32 3 h [31:0] $end
$upscope $end
$upscope $end
$upscope $end
$scope module uut1 $end
$var wire 1 ) clk_in $end
$var wire 1 ' data_valid_in $end
$var wire 6 4 hcount_in [5:0] $end
$var wire 1 $ pixel_in $end
$var wire 6 5 vcount_in [5:0] $end
$var reg 1 ( data_valid_out $end
$var reg 6 6 hcount_out [5:0] $end
$var reg 21 7 pixel_out [20:0] $end
$var reg 6 8 vcount_out [5:0] $end
$upscope $end
$scope begin $ivl_for_loop0 $end
$var integer 32 9 h [31:0] $end
$scope begin $ivl_for_loop1 $end
$var integer 32 : v [31:0] $end
$upscope $end
$upscope $end
$upscope $end
$enddefinitions $end
#0
$dumpvars
b0 :
b0 9
bx 8
bx 7
bx 6
bx 5
bx 4
b0 3
b0 2
bx 1
bx 0
b0 /
b0 .
b0 -
0,
b0 +
1*
0)
x(
x'
bx &
bx %
x$
bx #
bx "
bx !
$end
#5000
b11000 2
b100000 3
1)
#10000
0)
#15000
b100000 3
b11000 2
1)
#20000
0)
b1 -
b1 /
b1 :
1*
#25000
b100000 3
b11000 2
1)
#30000
0)
#35000
b100000 3
b11000 2
1)
#40000
0)
b10 -
b10 /
b10 :
1*
#45000
b100000 3
b11000 2
1)
#50000
0)
#55000
b100000 3
b11000 2
1)
#60000
0)
b11 -
b11 /
b11 :
1*
#65000
b100000 3
b11000 2
1)
#70000
0)
#75000
b100000 3
b11000 2
1)
#80000
0)
b100 -
b100 /
b100 :
1*
#85000
b100000 3
b11000 2
1)
#90000
0)
#95000
b100000 3
b11000 2
1)
#100000
0)
1,
b101 -
b101 /
b101 :
1*
#105000
b100000 3
b11000 2
1)
#110000
0)
#115000
b100000 3
b11000 2
1)
#120000
0)
0,
b110 -
b110 /
b110 :
1*
#125000
b100000 3
b11000 2
1)
#130000
0)
#135000
b100000 3
b11000 2
1)
#140000
0)
b111 -
b111 /
b111 :
1*
#145000
b100000 3
b11000 2
1)
#150000
0)
#155000
b100000 3
b11000 2
1)
#160000
0)
b1000 -
b1000 /
b1000 :
1*
#165000
b100000 3
b11000 2
1)
#170000
0)
#175000
b100000 3
b11000 2
1)
#180000
0)
b1001 -
b1001 /
b1001 :
1*
#185000
b100000 3
b11000 2
1)
#190000
0)
#195000
b100000 3
b11000 2
1)
#200000
0)
b1010 -
b1010 /
b1010 :
1*
#205000
b100000 3
b11000 2
1)
#210000
0)
#215000
b100000 3
b11000 2
1)
#220000
0)
b1011 -
b1011 /
b1011 :
1*
#225000
b100000 3
b11000 2
1)
#230000
0)
#235000
b100000 3
b11000 2
1)
#240000
0)
b1100 -
b1100 /
b1100 :
1*
#245000
b100000 3
b11000 2
1)
#250000
0)
#255000
b100000 3
b11000 2
1)
#260000
0)
b1101 -
b1101 /
b1101 :
1*
#265000
b100000 3
b11000 2
1)
#270000
0)
#275000
b100000 3
b11000 2
1)
#280000
0)
b1110 -
b1110 /
b1110 :
1*
#285000
b100000 3
b11000 2
1)
#290000
0)
#295000
b100000 3
b11000 2
1)
#300000
0)
b1111 -
b1111 /
b1111 :
1*
#305000
b100000 3
b11000 2
1)
#310000
0)
#315000
b100000 3
b11000 2
1)
#320000
0)
b10000 -
b10000 /
b10000 :
1*
#325000
b100000 3
b11000 2
1)
#330000
0)
#335000
b100000 3
b11000 2
1)
#340000
0)
b10001 -
b10001 /
b10001 :
1*
#345000
b100000 3
b11000 2
1)
#350000
0)
#355000
b100000 3
b11000 2
1)
#360000
0)
b10010 -
b10010 /
b10010 :
1*
#365000
b100000 3
b11000 2
1)
#370000
0)
#375000
b100000 3
b11000 2
1)
#380000
0)
b10011 -
b10011 /
b10011 :
1*
#385000
b100000 3
b11000 2
1)
#390000
0)
#395000
b100000 3
b11000 2
1)
#400000
0)
b10100 -
b10100 /
b10100 :
1*
#405000
b100000 3
b11000 2
1)
#410000
0)
#415000
b100000 3
b11000 2
1)
#420000
0)
b10101 -
b10101 /
b10101 :
1*
#425000
b100000 3
b11000 2
1)
#430000
0)
#435000
b100000 3
b11000 2
1)
#440000
0)
b10110 -
b10110 /
b10110 :
1*
#445000
b100000 3
b11000 2
1)
#450000
0)
#455000
b100000 3
b11000 2
1)
#460000
0)
b10111 -
b10111 /
b10111 :
1*
#465000
b100000 3
b11000 2
1)
#470000
0)
#475000
b100000 3
b11000 2
1)
#480000
0)
b11000 -
b11000 /
b11000 :
1*
#485000
b100000 3
b11000 2
1)
#490000
0)
#495000
b100000 3
b11000 2
1)
#500000
0)
1,
b11001 -
b11001 /
b11001 :
1*
#505000
b100000 3
b11000 2
1)
#510000
0)
#515000
b100000 3
b11000 2
1)
#520000
0)
0,
b11010 -
b11010 /
b11010 :
1*
#525000
b100000 3
b11000 2
1)
#530000
0)
#535000
b100000 3
b11000 2
1)
#540000
0)
b11011 -
b11011 /
b11011 :
1*
#545000
b100000 3
b11000 2
1)
#550000
0)
#555000
b100000 3
b11000 2
1)
#560000
0)
b11100 -
b11100 /
b11100 :
1*
#565000
b100000 3
b11000 2
1)
#570000
0)
#575000
b100000 3
b11000 2
1)
#580000
0)
b11101 -
b11101 /
b11101 :
1*
#585000
b100000 3
b11000 2
1)
#590000
0)
#595000
b100000 3
b11000 2
1)
#600000
0)
b0 -
b0 /
b1 +
b1 .
b1 9
b0 :
1*
#605000
b100000 3
b11000 2
1)
#610000
0)
#615000
b100000 3
b11000 2
1)
#620000
0)
b1 -
b1 /
b1 :
1*
#625000
b100000 3
b11000 2
1)
#630000
0)
#635000
b100000 3
b11000 2
1)
#640000
0)
b10 -
b10 /
b10 :
1*
#645000
b100000 3
b11000 2
1)
#650000
0)
#655000
b100000 3
b11000 2
1)
#660000
0)
b11 -
b11 /
b11 :
1*
#665000
b100000 3
b11000 2
1)
#670000
0)
#675000
b100000 3
b11000 2
1)
#680000
0)
b100 -
b100 /
b100 :
1*
#685000
b100000 3
b11000 2
1)
#690000
0)
#695000
b100000 3
b11000 2
1)
#700000
0)
1,
b101 -
b101 /
b101 :
1*
#705000
b100000 3
b11000 2
1)
#710000
0)
#715000
b100000 3
b11000 2
1)
#720000
0)
0,
b110 -
b110 /
b110 :
1*
#725000
b100000 3
b11000 2
1)
#730000
0)
#735000
b100000 3
b11000 2
1)
#740000
0)
b111 -
b111 /
b111 :
1*
#745000
b100000 3
b11000 2
1)
#750000
0)
#755000
b100000 3
b11000 2
1)
#760000
0)
b1000 -
b1000 /
b1000 :
1*
#765000
b100000 3
b11000 2
1)
#770000
0)
#775000
b100000 3
b11000 2
1)
#780000
0)
b1001 -
b1001 /
b1001 :
1*
#785000
b100000 3
b11000 2
1)
#790000
0)
#795000
b100000 3
b11000 2
1)
#800000
0)
b1010 -
b1010 /
b1010 :
1*
#805000
b100000 3
b11000 2
1)
#810000
0)
#815000
b100000 3
b11000 2
1)
#820000
0)
b1011 -
b1011 /
b1011 :
1*
#825000
b100000 3
b11000 2
1)
#830000
0)
#835000
b100000 3
b11000 2
1)
#840000
0)
b1100 -
b1100 /
b1100 :
1*
#845000
b100000 3
b11000 2
1)
#850000
0)
#855000
b100000 3
b11000 2
1)
#860000
0)
b1101 -
b1101 /
b1101 :
1*
#865000
b100000 3
b11000 2
1)
#870000
0)
#875000
b100000 3
b11000 2
1)
#880000
0)
b1110 -
b1110 /
b1110 :
1*
#885000
b100000 3
b11000 2
1)
#890000
0)
#895000
b100000 3
b11000 2
1)
#900000
0)
b1111 -
b1111 /
b1111 :
1*
#905000
b100000 3
b11000 2
1)
#910000
0)
#915000
b100000 3
b11000 2
1)
#920000
0)
b10000 -
b10000 /
b10000 :
1*
#925000
b100000 3
b11000 2
1)
#930000
0)
#935000
b100000 3
b11000 2
1)
#940000
0)
b10001 -
b10001 /
b10001 :
1*
#945000
b100000 3
b11000 2
1)
#950000
0)
#955000
b100000 3
b11000 2
1)
#960000
0)
b10010 -
b10010 /
b10010 :
1*
#965000
b100000 3
b11000 2
1)
#970000
0)
#975000
b100000 3
b11000 2
1)
#980000
0)
b10011 -
b10011 /
b10011 :
1*
#985000
b100000 3
b11000 2
1)
#990000
0)
#995000
b100000 3
b11000 2
1)
#1000000
0)
b10100 -
b10100 /
b10100 :
1*
#1005000
b100000 3
b11000 2
1)
#1010000
0)
#1015000
b100000 3
b11000 2
1)
#1020000
0)
b10101 -
b10101 /
b10101 :
1*
#1025000
b100000 3
b11000 2
1)
#1030000
0)
#1035000
b100000 3
b11000 2
1)
#1040000
0)
b10110 -
b10110 /
b10110 :
1*
#1045000
b100000 3
b11000 2
1)
#1050000
0)
#1055000
b100000 3
b11000 2
1)
#1060000
0)
b10111 -
b10111 /
b10111 :
1*
#1065000
b100000 3
b11000 2
1)
#1070000
0)
#1075000
b100000 3
b11000 2
1)
#1080000
0)
b11000 -
b11000 /
b11000 :
1*
#1085000
b100000 3
b11000 2
1)
#1090000
0)
#1095000
b100000 3
b11000 2
1)
#1100000
0)
1,
b11001 -
b11001 /
b11001 :
1*
#1105000
b100000 3
b11000 2
1)
#1110000
0)
#1115000
b100000 3
b11000 2
1)
#1120000
0)
0,
b11010 -
b11010 /
b11010 :
1*
#1125000
b100000 3
b11000 2
1)
#1130000
0)
#1135000
b100000 3
b11000 2
1)
#1140000
0)
b11011 -
b11011 /
b11011 :
1*
#1145000
b100000 3
b11000 2
1)
#1150000
0)
#1155000
b100000 3
b11000 2
1)
#1160000
0)
b11100 -
b11100 /
b11100 :
1*
#1165000
b100000 3
b11000 2
1)
#1170000
0)
#1175000
b100000 3
b11000 2
1)
#1180000
0)
b11101 -
b11101 /
b11101 :
1*
#1185000
b100000 3
b11000 2
1)
#1190000
0)
#1195000
b100000 3
b11000 2
1)
#1200000
0)
b0 -
b0 /
b10 +
b10 .
b10 9
b0 :
1*
#1205000
b100000 3
b11000 2
1)
#1210000
0)
#1215000
b100000 3
b11000 2
1)
#1220000
0)
b1 -
b1 /
b1 :
1*
#1225000
b100000 3
b11000 2
1)
#1230000
0)
#1235000
b100000 3
b11000 2
1)
#1240000
0)
b10 -
b10 /
b10 :
1*
#1245000
b100000 3
b11000 2
1)
#1250000
0)
#1255000
b100000 3
b11000 2
1)
#1260000
0)
b11 -
b11 /
b11 :
1*
#1265000
b100000 3
b11000 2
1)
#1270000
0)
#1275000
b100000 3
b11000 2
1)
#1280000
0)
b100 -
b100 /
b100 :
1*
#1285000
b100000 3
b11000 2
1)
#1290000
0)
#1295000
b100000 3
b11000 2
1)
#1300000
0)
1,
b101 -
b101 /
b101 :
1*
#1305000
b100000 3
b11000 2
1)
#1310000
0)
#1315000
b100000 3
b11000 2
1)
#1320000
0)
0,
b110 -
b110 /
b110 :
1*
#1325000
b100000 3
b11000 2
1)
#1330000
0)
#1335000
b100000 3
b11000 2
1)
#1340000
0)
b111 -
b111 /
b111 :
1*
#1345000
b100000 3
b11000 2
1)
#1350000
0)
#1355000
b100000 3
b11000 2
1)
#1360000
0)
b1000 -
b1000 /
b1000 :
1*
#1365000
b100000 3
b11000 2
1)
#1370000
0)
#1375000
b100000 3
b11000 2
1)
#1380000
0)
b1001 -
b1001 /
b1001 :
1*
#1385000
b100000 3
b11000 2
1)
#1390000
0)
#1395000
b100000 3
b11000 2
1)
#1400000
0)
b1010 -
b1010 /
b1010 :
1*
#1405000
b100000 3
b11000 2
1)
#1410000
0)
#1415000
b100000 3
b11000 2
1)
#1420000
0)
b1011 -
b1011 /
b1011 :
1*
#1425000
b100000 3
b11000 2
1)
#1430000
0)
#1435000
b100000 3
b11000 2
1)
#1440000
0)
b1100 -
b1100 /
b1100 :
1*
#1445000
b100000 3
b11000 2
1)
#1450000
0)
#1455000
b100000 3
b11000 2
1)
#1460000
0)
b1101 -
b1101 /
b1101 :
1*
#1465000
b100000 3
b11000 2
1)
#1470000
0)
#1475000
b100000 3
b11000 2
1)
#1480000
0)
b1110 -
b1110 /
b1110 :
1*
#1485000
b100000 3
b11000 2
1)
#1490000
0)
#1495000
b100000 3
b11000 2
1)
#1500000
0)
b1111 -
b1111 /
b1111 :
1*
#1505000
b100000 3
b11000 2
1)
#1510000
0)
#1515000
b100000 3
b11000 2
1)
#1520000
0)
b10000 -
b10000 /
b10000 :
1*
#1525000
b100000 3
b11000 2
1)
#1530000
0)
#1535000
b100000 3
b11000 2
1)
#1540000
0)
b10001 -
b10001 /
b10001 :
1*
#1545000
b100000 3
b11000 2
1)
#1550000
0)
#1555000
b100000 3
b11000 2
1)
#1560000
0)
b10010 -
b10010 /
b10010 :
1*
#1565000
b100000 3
b11000 2
1)
#1570000
0)
#1575000
b100000 3
b11000 2
1)
#1580000
0)
b10011 -
b10011 /
b10011 :
1*
#1585000
b100000 3
b11000 2
1)
#1590000
0)
#1595000
b100000 3
b11000 2
1)
#1600000
0)
b10100 -
b10100 /
b10100 :
1*
#1605000
b100000 3
b11000 2
1)
#1610000
0)
#1615000
b100000 3
b11000 2
1)
#1620000
0)
b10101 -
b10101 /
b10101 :
1*
#1625000
b100000 3
b11000 2
1)
#1630000
0)
#1635000
b100000 3
b11000 2
1)
#1640000
0)
b10110 -
b10110 /
b10110 :
1*
#1645000
b100000 3
b11000 2
1)
#1650000
0)
#1655000
b100000 3
b11000 2
1)
#1660000
0)
b10111 -
b10111 /
b10111 :
1*
#1665000
b100000 3
b11000 2
1)
#1670000
0)
#1675000
b100000 3
b11000 2
1)
#1680000
0)
b11000 -
b11000 /
b11000 :
1*
#1685000
b100000 3
b11000 2
1)
#1690000
0)
#1695000
b100000 3
b11000 2
1)
#1700000
0)
1,
b11001 -
b11001 /
b11001 :
1*
#1705000
b100000 3
b11000 2
1)
#1710000
0)
#1715000
b100000 3
b11000 2
1)
#1720000
0)
0,
b11010 -
b11010 /
b11010 :
1*
#1725000
b100000 3
b11000 2
1)
#1730000
0)
#1735000
b100000 3
b11000 2
1)
#1740000
0)
b11011 -
b11011 /
b11011 :
1*
#1745000
b100000 3
b11000 2
1)
#1750000
0)
#1755000
b100000 3
b11000 2
1)
#1760000
0)
b11100 -
b11100 /
b11100 :
1*
#1765000
b100000 3
b11000 2
1)
#1770000
0)
#1775000
b100000 3
b11000 2
1)
#1780000
0)
b11101 -
b11101 /
b11101 :
1*
#1785000
b100000 3
b11000 2
1)
#1790000
0)
#1795000
b100000 3
b11000 2
1)
#1800000
0)
b0 -
b0 /
b11 +
b11 .
b11 9
b0 :
1*
#1805000
b100000 3
b11000 2
1)
#1810000
0)
#1815000
b100000 3
b11000 2
1)
#1820000
0)
b1 -
b1 /
b1 :
1*
#1825000
b100000 3
b11000 2
1)
#1830000
0)
#1835000
b100000 3
b11000 2
1)
#1840000
0)
b10 -
b10 /
b10 :
1*
#1845000
b100000 3
b11000 2
1)
#1850000
0)
#1855000
b100000 3
b11000 2
1)
#1860000
0)
b11 -
b11 /
b11 :
1*
#1865000
b100000 3
b11000 2
1)
#1870000
0)
#1875000
b100000 3
b11000 2
1)
#1880000
0)
b100 -
b100 /
b100 :
1*
#1885000
b100000 3
b11000 2
1)
#1890000
0)
#1895000
b100000 3
b11000 2
1)
#1900000
0)
1,
b101 -
b101 /
b101 :
1*
#1905000
b100000 3
b11000 2
1)
#1910000
0)
#1915000
b100000 3
b11000 2
1)
#1920000
0)
0,
b110 -
b110 /
b110 :
1*
#1925000
b100000 3
b11000 2
1)
#1930000
0)
#1935000
b100000 3
b11000 2
1)
#1940000
0)
b111 -
b111 /
b111 :
1*
#1945000
b100000 3
b11000 2
1)
#1950000
0)
#1955000
b100000 3
b11000 2
1)
#1960000
0)
b1000 -
b1000 /
b1000 :
1*
#1965000
b100000 3
b11000 2
1)
#1970000
0)
#1975000
b100000 3
b11000 2
1)
#1980000
0)
b1001 -
b1001 /
b1001 :
1*
#1985000
b100000 3
b11000 2
1)
#1990000
0)
#1995000
b100000 3
b11000 2
1)
#2000000
0)
b1010 -
b1010 /
b1010 :
1*
#2005000
b100000 3
b11000 2
1)
#2010000
0)
#2015000
b100000 3
b11000 2
1)
#2020000
0)
b1011 -
b1011 /
b1011 :
1*
#2025000
b100000 3
b11000 2
1)
#2030000
0)
#2035000
b100000 3
b11000 2
1)
#2040000
0)
b1100 -
b1100 /
b1100 :
1*
#2045000
b100000 3
b11000 2
1)
#2050000
0)
#2055000
b100000 3
b11000 2
1)
#2060000
0)
b1101 -
b1101 /
b1101 :
1*
#2065000
b100000 3
b11000 2
1)
#2070000
0)
#2075000
b100000 3
b11000 2
1)
#2080000
0)
b1110 -
b1110 /
b1110 :
1*
#2085000
b100000 3
b11000 2
1)
#2090000
0)
#2095000
b100000 3
b11000 2
1)
#2100000
0)
b1111 -
b1111 /
b1111 :
1*
#2105000
b100000 3
b11000 2
1)
#2110000
0)
#2115000
b100000 3
b11000 2
1)
#2120000
0)
b10000 -
b10000 /
b10000 :
1*
#2125000
b100000 3
b11000 2
1)
#2130000
0)
#2135000
b100000 3
b11000 2
1)
#2140000
0)
b10001 -
b10001 /
b10001 :
1*
#2145000
b100000 3
b11000 2
1)
#2150000
0)
#2155000
b100000 3
b11000 2
1)
#2160000
0)
b10010 -
b10010 /
b10010 :
1*
#2165000
b100000 3
b11000 2
1)
#2170000
0)
#2175000
b100000 3
b11000 2
1)
#2180000
0)
b10011 -
b10011 /
b10011 :
1*
#2185000
b100000 3
b11000 2
1)
#2190000
0)
#2195000
b100000 3
b11000 2
1)
#2200000
0)
b10100 -
b10100 /
b10100 :
1*
#2205000
b100000 3
b11000 2
1)
#2210000
0)
#2215000
b100000 3
b11000 2
1)
#2220000
0)
b10101 -
b10101 /
b10101 :
1*
#2225000
b100000 3
b11000 2
1)
#2230000
0)
#2235000
b100000 3
b11000 2
1)
#2240000
0)
b10110 -
b10110 /
b10110 :
1*
#2245000
b100000 3
b11000 2
1)
#2250000
0)
#2255000
b100000 3
b11000 2
1)
#2260000
0)
b10111 -
b10111 /
b10111 :
1*
#2265000
b100000 3
b11000 2
1)
#2270000
0)
#2275000
b100000 3
b11000 2
1)
#2280000
0)
b11000 -
b11000 /
b11000 :
1*
#2285000
b100000 3
b11000 2
1)
#2290000
0)
#2295000
b100000 3
b11000 2
1)
#2300000
0)
1,
b11001 -
b11001 /
b11001 :
1*
#2305000
b100000 3
b11000 2
1)
#2310000
0)
#2315000
b100000 3
b11000 2
1)
#2320000
0)
0,
b11010 -
b11010 /
b11010 :
1*
#2325000
b100000 3
b11000 2
1)
#2330000
0)
#2335000
b100000 3
b11000 2
1)
#2340000
0)
b11011 -
b11011 /
b11011 :
1*
#2345000
b100000 3
b11000 2
1)
#2350000
0)
#2355000
b100000 3
b11000 2
1)
#2360000
0)
b11100 -
b11100 /
b11100 :
1*
#2365000
b100000 3
b11000 2
1)
#2370000
0)
#2375000
b100000 3
b11000 2
1)
#2380000
0)
b11101 -
b11101 /
b11101 :
1*
#2385000
b100000 3
b11000 2
1)
#2390000
0)
#2395000
b100000 3
b11000 2
1)
#2400000
0)
b0 -
b0 /
b100 +
b100 .
b100 9
b0 :
1*
#2405000
b100000 3
b11000 2
1)
#2410000
0)
#2415000
b100000 3
b11000 2
1)
#2420000
0)
b1 -
b1 /
b1 :
1*
#2425000
b100000 3
b11000 2
1)
#2430000
0)
#2435000
b100000 3
b11000 2
1)
#2440000
0)
b10 -
b10 /
b10 :
1*
#2445000
b100000 3
b11000 2
1)
#2450000
0)
#2455000
b100000 3
b11000 2
1)
#2460000
0)
b11 -
b11 /
b11 :
1*
#2465000
b100000 3
b11000 2
1)
#2470000
0)
#2475000
b100000 3
b11000 2
1)
#2480000
0)
b100 -
b100 /
b100 :
1*
#2485000
b100000 3
b11000 2
1)
#2490000
0)
#2495000
b100000 3
b11000 2
1)
#2500000
0)
1,
b101 -
b101 /
b101 :
1*
#2505000
b100000 3
b11000 2
1)
#2510000
0)
#2515000
b100000 3
b11000 2
1)
#2520000
0)
0,
b110 -
b110 /
b110 :
1*
#2525000
b100000 3
b11000 2
1)
#2530000
0)
#2535000
b100000 3
b11000 2
1)
#2540000
0)
b111 -
b111 /
b111 :
1*
#2545000
b100000 3
b11000 2
1)
#2550000
0)
#2555000
b100000 3
b11000 2
1)
#2560000
0)
b1000 -
b1000 /
b1000 :
1*
#2565000
b100000 3
b11000 2
1)
#2570000
0)
#2575000
b100000 3
b11000 2
1)
#2580000
0)
b1001 -
b1001 /
b1001 :
1*
#2585000
b100000 3
b11000 2
1)
#2590000
0)
#2595000
b100000 3
b11000 2
1)
#2600000
0)
b1010 -
b1010 /
b1010 :
1*
#2605000
b100000 3
b11000 2
1)
#2610000
0)
#2615000
b100000 3
b11000 2
1)
#2620000
0)
b1011 -
b1011 /
b1011 :
1*
#2625000
b100000 3
b11000 2
1)
#2630000
0)
#2635000
b100000 3
b11000 2
1)
#2640000
0)
b1100 -
b1100 /
b1100 :
1*
#2645000
b100000 3
b11000 2
1)
#2650000
0)
#2655000
b100000 3
b11000 2
1)
#2660000
0)
b1101 -
b1101 /
b1101 :
1*
#2665000
b100000 3
b11000 2
1)
#2670000
0)
#2675000
b100000 3
b11000 2
1)
#2680000
0)
b1110 -
b1110 /
b1110 :
1*
#2685000
b100000 3
b11000 2
1)
#2690000
0)
#2695000
b100000 3
b11000 2
1)
#2700000
0)
b1111 -
b1111 /
b1111 :
1*
#2705000
b100000 3
b11000 2
1)
#2710000
0)
#2715000
b100000 3
b11000 2
1)
#2720000
0)
b10000 -
b10000 /
b10000 :
1*
#2725000
b100000 3
b11000 2
1)
#2730000
0)
#2735000
b100000 3
b11000 2
1)
#2740000
0)
b10001 -
b10001 /
b10001 :
1*
#2745000
b100000 3
b11000 2
1)
#2750000
0)
#2755000
b100000 3
b11000 2
1)
#2760000
0)
b10010 -
b10010 /
b10010 :
1*
#2765000
b100000 3
b11000 2
1)
#2770000
0)
#2775000
b100000 3
b11000 2
1)
#2780000
0)
b10011 -
b10011 /
b10011 :
1*
#2785000
b100000 3
b11000 2
1)
#2790000
0)
#2795000
b100000 3
b11000 2
1)
#2800000
0)
b10100 -
b10100 /
b10100 :
1*
#2805000
b100000 3
b11000 2
1)
#2810000
0)
#2815000
b100000 3
b11000 2
1)
#2820000
0)
b10101 -
b10101 /
b10101 :
1*
#2825000
b100000 3
b11000 2
1)
#2830000
0)
#2835000
b100000 3
b11000 2
1)
#2840000
0)
b10110 -
b10110 /
b10110 :
1*
#2845000
b100000 3
b11000 2
1)
#2850000
0)
#2855000
b100000 3
b11000 2
1)
#2860000
0)
b10111 -
b10111 /
b10111 :
1*
#2865000
b100000 3
b11000 2
1)
#2870000
0)
#2875000
b100000 3
b11000 2
1)
#2880000
0)
b11000 -
b11000 /
b11000 :
1*
#2885000
b100000 3
b11000 2
1)
#2890000
0)
#2895000
b100000 3
b11000 2
1)
#2900000
0)
1,
b11001 -
b11001 /
b11001 :
1*
#2905000
b100000 3
b11000 2
1)
#2910000
0)
#2915000
b100000 3
b11000 2
1)
#2920000
0)
0,
b11010 -
b11010 /
b11010 :
1*
#2925000
b100000 3
b11000 2
1)
#2930000
0)
#2935000
b100000 3
b11000 2
1)
#2940000
0)
b11011 -
b11011 /
b11011 :
1*
#2945000
b100000 3
b11000 2
1)
#2950000
0)
#2955000
b100000 3
b11000 2
1)
#2960000
0)
b11100 -
b11100 /
b11100 :
1*
#2965000
b100000 3
b11000 2
1)
#2970000
0)
#2975000
b100000 3
b11000 2
1)
#2980000
0)
b11101 -
b11101 /
b11101 :
1*
#2985000
b100000 3
b11000 2
1)
#2990000
0)
#2995000
b100000 3
b11000 2
1)
#3000000
0)
b0 -
b0 /
b101 +
b101 .
b101 9
b0 :
1*
#3005000
b100000 3
b11000 2
1)
#3010000
0)
#3015000
b100000 3
b11000 2
1)
#3020000
0)
b1 -
b1 /
b1 :
1*
#3025000
b100000 3
b11000 2
1)
#3030000
0)
#3035000
b100000 3
b11000 2
1)
#3040000
0)
b10 -
b10 /
b10 :
1*
#3045000
b100000 3
b11000 2
1)
#3050000
0)
#3055000
b100000 3
b11000 2
1)
#3060000
0)
b11 -
b11 /
b11 :
1*
#3065000
b100000 3
b11000 2
1)
#3070000
0)
#3075000
b100000 3
b11000 2
1)
#3080000
0)
b100 -
b100 /
b100 :
1*
#3085000
b100000 3
b11000 2
1)
#3090000
0)
#3095000
b100000 3
b11000 2
1)
#3100000
0)
1,
b101 -
b101 /
b101 :
1*
#3105000
1'
1$
b0 !
b0 1
b0 5
b0 %
b0 0
b0 4
b100000 3
b11000 2
1)
#3110000
0)
#3115000
b0 "
b0 8
b0 &
b0 6
0(
b10011101010111011101 #
b10011101010111011101 7
1'
b100000 3
b11000 2
1)
#3120000
0)
0,
b110 -
b110 /
b110 :
1*
#3125000
0'
b100000 3
b11000 2
1)
#3130000
0)
#3135000
1(
b100000 3
b11000 2
1)
#3140000
0)
b111 -
b111 /
b111 :
1*
#3145000
b100000 3
b11000 2
1)
#3150000
0)
#3155000
b100000 3
b11000 2
1)
#3160000
0)
b1000 -
b1000 /
b1000 :
1*
#3165000
b100000 3
b11000 2
1)
#3170000
0)
#3175000
b100000 3
b11000 2
1)
#3180000
0)
b1001 -
b1001 /
b1001 :
1*
#3185000
b100000 3
b11000 2
1)
#3190000
0)
#3195000
b100000 3
b11000 2
1)
#3200000
0)
b1010 -
b1010 /
b1010 :
1*
#3205000
b100000 3
b11000 2
1)
#3210000
0)
#3215000
b100000 3
b11000 2
1)
#3220000
0)
b1011 -
b1011 /
b1011 :
1*
#3225000
b100000 3
b11000 2
1)
#3230000
0)
#3235000
b100000 3
b11000 2
1)
#3240000
0)
b1100 -
b1100 /
b1100 :
1*
#3245000
b100000 3
b11000 2
1)
#3250000
0)
#3255000
b100000 3
b11000 2
1)
#3260000
0)
b1101 -
b1101 /
b1101 :
1*
#3265000
b100000 3
b11000 2
1)
#3270000
0)
#3275000
b100000 3
b11000 2
1)
#3280000
0)
b1110 -
b1110 /
b1110 :
1*
#3285000
b100000 3
b11000 2
1)
#3290000
0)
#3295000
b100000 3
b11000 2
1)
#3300000
0)
b1111 -
b1111 /
b1111 :
1*
#3305000
1'
0$
b1 !
b1 1
b1 5
b100000 3
b11000 2
1)
#3310000
0)
#3315000
b1 "
b1 8
0(
b111111001011111100011 #
b111111001011111100011 7
1'
b100000 3
b11000 2
1)
#3320000
0)
b10000 -
b10000 /
b10000 :
1*
#3325000
0'
b100000 3
b11000 2
1)
#3330000
0)
#3335000
1(
b100000 3
b11000 2
1)
#3340000
0)
b10001 -
b10001 /
b10001 :
1*
#3345000
b100000 3
b11000 2
1)
#3350000
0)
#3355000
b100000 3
b11000 2
1)
#3360000
0)
b10010 -
b10010 /
b10010 :
1*
#3365000
b100000 3
b11000 2
1)
#3370000
0)
#3375000
b100000 3
b11000 2
1)
#3380000
0)
b10011 -
b10011 /
b10011 :
1*
#3385000
b100000 3
b11000 2
1)
#3390000
0)
#3395000
b100000 3
b11000 2
1)
#3400000
0)
b10100 -
b10100 /
b10100 :
1*
#3405000
b100000 3
b11000 2
1)
#3410000
0)
#3415000
b100000 3
b11000 2
1)
#3420000
0)
b10101 -
b10101 /
b10101 :
1*
#3425000
b100000 3
b11000 2
1)
#3430000
0)
#3435000
b100000 3
b11000 2
1)
#3440000
0)
b10110 -
b10110 /
b10110 :
1*
#3445000
b100000 3
b11000 2
1)
#3450000
0)
#3455000
b100000 3
b11000 2
1)
#3460000
0)
b10111 -
b10111 /
b10111 :
1*
#3465000
b100000 3
b11000 2
1)
#3470000
0)
#3475000
b100000 3
b11000 2
1)
#3480000
0)
b11000 -
b11000 /
b11000 :
1*
#3485000
b100000 3
b11000 2
1)
#3490000
0)
#3495000
b100000 3
b11000 2
1)
#3500000
0)
1,
b11001 -
b11001 /
b11001 :
1*
#3505000
1'
1$
b10 !
b10 1
b10 5
b100000 3
b11000 2
1)
#3510000
0)
#3515000
b10 "
b10 8
0(
b10011101010111011101 #
b10011101010111011101 7
1'
b100000 3
b11000 2
1)
#3520000
0)
0,
b11010 -
b11010 /
b11010 :
1*
#3525000
0'
b100000 3
b11000 2
1)
#3530000
0)
#3535000
1(
b100000 3
b11000 2
1)
#3540000
0)
b11011 -
b11011 /
b11011 :
1*
#3545000
b100000 3
b11000 2
1)
#3550000
0)
#3555000
b100000 3
b11000 2
1)
#3560000
0)
b11100 -
b11100 /
b11100 :
1*
#3565000
b100000 3
b11000 2
1)
#3570000
0)
#3575000
b100000 3
b11000 2
1)
#3580000
0)
b11101 -
b11101 /
b11101 :
1*
#3585000
b100000 3
b11000 2
1)
#3590000
0)
#3595000
b100000 3
b11000 2
1)
#3600000
0)
b0 -
b0 /
b110 +
b110 .
b110 9
b0 :
1*
#3605000
b100000 3
b11000 2
1)
#3610000
0)
#3615000
b100000 3
b11000 2
1)
