networking/r_top_level.vcd
$date
	Fri Dec  9 15:04:34 2022
$end
$version
	Icarus Verilog
$end
$timescale
	1ps
$end
$scope module top_level_tb $end
$var wire 1 ! rstn_out $end
$var wire 1 " refclk_out $end
$var wire 16 # led_out [15:0] $end
$var reg 32 $ checksum [31:0] $end
$var reg 1 % clk_in $end
$var reg 1 & crsdv_in $end
$var reg 32 ' data [31:0] $end
$var reg 48 ( destination [47:0] $end
$var reg 16 ) ethertype [15:0] $end
$var reg 56 * preamble [55:0] $end
$var reg 1 + rst_in $end
$var reg 2 , rxd_in [1:0] $end
$var reg 8 - sfd [7:0] $end
$var reg 48 . source [47:0] $end
$scope module uut $end
$var wire 1 + btnc $end
$var wire 1 % clk $end
$var wire 1 & eth_crsdv $end
$var wire 1 ! eth_rstn $end
$var wire 2 / eth_rxd [1:0] $end
$var wire 1 0 sys_rst $end
$var wire 1 1 kill $end
$var wire 1 2 firewall_axiov $end
$var wire 2 3 firewall_axiod [1:0] $end
$var wire 1 4 eth_axiov $end
$var wire 2 5 eth_axiod [1:0] $end
$var wire 1 6 done $end
$var wire 1 7 cg $end
$var wire 1 8 cf $end
$var wire 1 9 ce $end
$var wire 1 : cd $end
$var wire 1 ; cc $end
$var wire 1 < cb $end
$var wire 1 = ca $end
$var wire 1 > bitorder_axiov $end
$var wire 2 ? bitorder_axiod [1:0] $end
$var wire 8 @ an [7:0] $end
$var wire 1 A aggregate_axiov $end
$var wire 32 B aggregate_axiod [31:0] $end
$var reg 1 " eth_refclk $end
$var reg 16 C led [15:0] $end
$var reg 1 D past_done $end
$scope module bitorder_in $end
$var wire 1 % clk $end
$var wire 1 0 rst $end
$var wire 1 4 axiiv $end
$var wire 2 E axiid [1:0] $end
$var reg 2 F axiod [1:0] $end
$var reg 1 > axiov $end
$var reg 8 G buf_a [7:0] $end
$var reg 8 H buf_b [7:0] $end
$var reg 2 I buf_counter [1:0] $end
$var reg 1 J read_buf $end
$var reg 2 K state [1:0] $end
$upscope $end
$scope module check_dest $end
$var wire 2 L axiid [1:0] $end
$var wire 1 > axiiv $end
$var wire 1 % clk $end
$var wire 1 0 rst $end
$var reg 2 M axiod [1:0] $end
$var reg 1 2 axiov $end
$var reg 48 N broadcast_addr [47:0] $end
$var reg 6 O counter [5:0] $end
$var reg 48 P device_addr [47:0] $end
$var reg 48 Q read_addr [47:0] $end
$var reg 3 R state [2:0] $end
$upscope $end
$scope module checksum $end
$var wire 1 % clk $end
$var wire 1 S crc_axiov $end
$var wire 1 T crc_rst $end
$var wire 1 0 rst $end
$var wire 32 U crc_axiod [31:0] $end
$var wire 1 4 axiiv $end
$var wire 2 V axiid [1:0] $end
$var reg 32 W checksum [31:0] $end
$var reg 1 6 done $end
$var reg 1 1 kill $end
$var reg 1 X manual_rst $end
$var reg 1 Y state $end
$scope module mycrc $end
$var wire 32 Z axiod [31:0] $end
$var wire 1 S axiov $end
$var wire 1 % clk $end
$var wire 1 T rst $end
$var wire 1 4 axiiv $end
$var wire 2 [ axiid [1:0] $end
$var reg 32 \ caxiod [31:0] $end
$var reg 32 ] saxiod [31:0] $end
$var integer 32 ^ i [31:0] $end
$upscope $end
$upscope $end
$scope module ethernet_in $end
$var wire 1 % clk $end
$var wire 1 & crsdv $end
$var wire 1 0 rst $end
$var wire 2 _ rxd [1:0] $end
$var reg 2 ` axiod [1:0] $end
$var reg 1 4 axiov $end
$var reg 5 a preamble_count [4:0] $end
$var reg 2 b sfd_count [1:0] $end
$var reg 3 c state [2:0] $end
$upscope $end
$scope module get_data $end
$var wire 2 d axiid [1:0] $end
$var wire 1 2 axiiv $end
$var wire 1 % clk $end
$var wire 1 0 rst $end
$var reg 32 e axiod [31:0] $end
$var reg 1 A axiov $end
$var reg 5 f counter [4:0] $end
$var reg 2 g state [1:0] $end
$upscope $end
$scope module led_display $end
$var wire 8 h an_out [7:0] $end
$var wire 7 i cat_out [6:0] $end
$var wire 1 % clk_in $end
$var wire 1 0 rst_in $end
$var wire 32 j val_in [31:0] $end
$var wire 7 k led_out [6:0] $end
$var reg 4 l routed_vals [3:0] $end
$var reg 32 m segment_counter [31:0] $end
$var reg 8 n segment_state [7:0] $end
$scope module mbto7s $end
$var wire 4 o x_in [3:0] $end
$var wire 7 p s_out [6:0] $end
$var wire 16 q num [15:0] $end
$upscope $end
$upscope $end
$upscope $end
$scope begin $ivl_for_loop0 $end
$var integer 32 r i [31:0] $end
$upscope $end
$scope begin $ivl_for_loop1 $end
$var integer 32 s i [31:0] $end
$upscope $end
$scope begin $ivl_for_loop2 $end
$var integer 32 t i [31:0] $end
$upscope $end
$scope begin $ivl_for_loop3 $end
$var integer 32 u i [31:0] $end
$upscope $end
$scope begin $ivl_for_loop4 $end
$var integer 32 v i [31:0] $end
$upscope $end
$scope begin $ivl_for_loop5 $end
$var integer 32 w i [31:0] $end
$upscope $end
$scope begin $ivl_for_loop6 $end
$var integer 32 x i [31:0] $end
$upscope $end
$upscope $end
$enddefinitions $end
#0
$dumpvars
b0 x
b0 w
b0 v
b0 u
b0 t
b0 s
b0 r
bx q
bx p
bx o
bx n
bx m
bx l
bx k
bx j
bx i
bx h
bx g
bx f
bx e
bx d
bx c
bx b
bx a
bx `
bx _
bx ^
bx ]
bx \
bx [
bx Z
xY
xX
b111000111110110010001010000100 W
bx V
bx U
xT
1S
bx R
bx Q
b11010010110100101011010000001100101010010010001 P
bx O
b111111111111111111111111111111111111111111111111 N
bx M
bx L
bx K
xJ
bx I
bx H
bx G
bx F
bx E
xD
bx C
bx B
0A
bx @
bx ?
x>
x=
x<
x;
x:
x9
x8
x7
x6
bx 5
x4
bx 3
x2
x1
x0
bx /
b11010010110100110100101100100000001010100000110 .
b11101010 -
bx ,
x+
b1010101010101010101010101010101010101010101010101010101 *
b100000001 )
b11010010110100110100101100100000001010101000110 (
b10111111011110111011111011111011 '
x&
0%
b1010111101000111010100101010010 $
bx #
x"
x!
$end
#10000
1!
00
0+
1%
#20000
0%
#30000
17
09
0:
08
0=
0<
0;
b1000000 i
b111111 k
b111111 p
b11111110 @
b11111110 h
b1 q
b0 l
b0 o
b1111xx1xxx1111xx11xxxxxxxxxxxxxx ]
b100000 ^
b0 U
b0 Z
b0 m
b1 n
b0 g
b0 f
b0 B
b0 e
b0 j
0Y
01
06
b11111111111111111111111111111111 \
b0 R
b0 O
b0 Q
b0 K
0>
b0 H
b0 G
b0 I
0J
04
b0 b
b0 a
b0 c
1T
02
b0 3
b0 M
b0 d
0!
1%
10
1+
#40000
0%
#50000
b0 ?
b0 F
b0 L
0X
b1 m
0T
1!
1%
1&
00
0+
#60000
0%
#70000
b10 m
b1 a
b1 c
1%
b1 ,
b1 /
b1 _
#80000
0%
#90000
b10 a
b11 m
1%
b1 r
#100000
0%
#110000
b100 m
b11 a
1%
b10 r
#120000
0%
#130000
b100 a
b101 m
1%
b11 r
#140000
0%
#150000
b110 m
b101 a
1%
b100 r
#160000
0%
#170000
b110 a
b111 m
1%
b101 r
#180000
0%
#190000
b1000 m
b111 a
1%
b110 r
#200000
0%
#210000
b1000 a
b1001 m
1%
b111 r
#220000
0%
#230000
b1010 m
b1001 a
1%
b1000 r
#240000
0%
#250000
b1010 a
b1011 m
1%
b1001 r
#260000
0%
#270000
b1100 m
b1011 a
1%
b1010 r
#280000
0%
#290000
b1100 a
b1101 m
1%
b1011 r
#300000
0%
#310000
b1110 m
b1101 a
1%
b1100 r
#320000
0%
#330000
b1110 a
b1111 m
1%
b1101 r
#340000
0%
#350000
b10000 m
b1111 a
1%
b1110 r
#360000
0%
#370000
b10000 a
b10001 m
1%
b1111 r
#380000
0%
#390000
b10010 m
b10001 a
1%
b10000 r
#400000
0%
#410000
b10010 a
b10011 m
1%
b10001 r
#420000
0%
#430000
b10100 m
b10011 a
1%
b10010 r
#440000
0%
#450000
b10100 a
b10101 m
1%
b10011 r
#460000
0%
#470000
b10110 m
b10101 a
1%
b10100 r
#480000
0%
#490000
b10110 a
b10111 m
1%
b10101 r
#500000
0%
#510000
b11000 m
b10111 a
1%
b10110 r
#520000
0%
#530000
b11000 a
b11001 m
1%
b10111 r
#540000
0%
#550000
b11010 m
b11001 a
1%
b11000 r
#560000
0%
#570000
b11010 a
b11011 m
1%
b11001 r
#580000
0%
#590000
b11100 m
b11011 a
1%
b11010 r
#600000
0%
#610000
b11100 a
b11101 m
1%
b11011 r
#620000
0%
#630000
b11110 m
b1 b
1%
b11100 r
#640000
0%
#650000
b10 b
b11111 m
1%
b1 s
#660000
0%
#670000
b100000 m
b11 b
1%
b10 s
#680000
0%
#690000
b10 c
b100001 m
1%
b11 ,
b11 /
b11 _
b11 s
#700000
0%
#710000
b11111011001111101110001001001011 ]
b100000 ^
b100010 m
b1 5
b1 E
b1 V
b1 [
b1 `
14
1%
b101001011010011010010110010000000101010100011001 (
b1 ,
b1 /
b1 _
b100 s
#720000
0%
#730000
b11100101011110011011001001000010 ]
b100000 ^
b100110000010001110110110100 U
b100110000010001110110110100 Z
b10 5
b10 E
b10 V
b10 [
b10 `
b1 K
b1000000 G
b11111011001111101110001001001011 \
1Y
b100011 m
1%
b100101101001101001011001000000010101010001100110 (
b10 ,
b10 /
b10 _
b1 t
#740000
0%
#750000
b10011100011001001111001001100110 ]
b100000 ^
b11010100001100100110110111101 U
b11010100001100100110110111101 Z
b100100 m
b11100101011110011011001001000010 \
b1 I
b10010000 G
1%
b10110100110100101100100000001010101000110011010 (
b10 t
#760000
0%
#770000
b1110001100100111100100110011000 ]
b100000 ^
b1100011100110110000110110011001 U
b1100011100110110000110110011001 Z
b1 5
b1 E
b1 V
b1 [
b1 `
b10 I
b10100100 G
b10011100011001001111001001100110 \
b100101 m
1%
b11010011010010110010000000101010100011001101001 (
b1 ,
b1 /
b1 _
b11 t
#780000
0%
#790000
b11001011000011000000000010111001 ]
b100000 ^
b10001110011011000011011001100111 U
b10001110011011000011011001100111 Z
b100110 m
b1110001100100111100100110011000 \
b11 I
b1101001 G
1%
b101001101001011001000000010101010001100110100101 (
b100 t
#800000
0%
#810000
b100101101100100011100110001010 ]
b100000 ^
b110100111100111111111101000110 U
b110100111100111111111101000110 Z
b10 5
b10 E
b10 V
b10 [
b10 `
b10 K
b0 I
1J
1>
b1 ?
b1 F
b1 L
b1000000 H
b11001011000011000000000010111001 \
b100111 m
1%
b100110100101100100000001010101000110011010010110 (
b10 ,
b10 /
b10 _
b101 t
#820000
0%
#830000
b10010010000010011111101110011111 ]
b100000 ^
b11011010010011011100011001110101 U
b11011010010011011100011001110101 Z
b101000 m
b100101101100100011100110001010 \
b1 R
b1 Q
b1 I
b10 ?
b10 F
b10 L
b10010000 H
1%
b11010010110010000000101010100011001101001011010 (
b110 t
#840000
0%
#850000
b1001000001001111110111001111100 ]
b100000 ^
b1101101111101100000010001100000 U
b1101101111101100000010001100000 Z
b1 5
b1 E
b1 V
b1 [
b1 `
b10 I
b10100100 H
b1 O
b110 Q
b10010010000010011111101110011111 \
b101001 m
1%
b101001011001000000010101010001100110100101101001 (
b1 ,
b1 /
b1 _
b111 t
#860000
0%
#870000
b10110111110110000001000110000011 U
b10110111110110000001000110000011 Z
b100000100111111011100111110000 ]
b100000 ^
b101010 m
b1001000001001111110111001111100 \
b10 O
b11010 Q
b11 I
b1 ?
b1 F
b1 L
b1101001 H
b10 5
b10 E
b10 V
b10 [
b10 `
1%
b100101100100000001010101000110011010010110100110 (
b10 ,
b10 /
b10 _
b1000 t
#880000
0%
#890000
b10000110101111111111101001110111 ]
b100000 ^
b11011111011000000100011000001111 U
b11011111011000000100011000001111 Z
b0 I
0J
b10011010 G
b11 O
b1101001 Q
b100000100111111011100111110000 \
b101011 m
1%
b10110010000000101010100011001101001011010011010 (
b1001 t
#900000
0%
#910000
b1111001010000000000010110001000 U
b1111001010000000000010110001000 Z
b11010111111111110100111011100 ]
b100000 ^
b101100 m
b10000110101111111111101001110111 \
b100 O
b110100101 Q
b1 I
b10 ?
b10 F
b10 L
b10100110 G
b1 5
b1 E
b1 V
b1 [
b1 `
1%
b11001000000010101010001100110100101101001101001 (
b1 ,
b1 /
b1 _
b1010 t
#920000
0%
#930000
b1100010011111011001110000011110 ]
b100000 ^
b11100101000000000001011000100011 U
b11100101000000000001011000100011 Z
b10 I
b1101001 G
b101 O
b11010010110 Q
b11010111111111110100111011100 \
b101101 m
1%
b100100000001010101000110011010010110100110100101 (
b1011 t
#940000
0%
#950000
b10011101100000100110001111100001 U
b10011101100000100110001111100001 Z
b10001001111101100111000001111000 ]
b100000 ^
b101110 m
b1100010011111011001110000011110 \
b110 O
b1101001011010 Q
b11 I
b1 ?
b1 F
b1 L
b1011010 G
b10 5
b10 E
b10 V
b10 [
b10 `
1%
b10000000101010100011001101001011010011010010110 (
b10 ,
b10 /
b10 _
b1100 t
#960000
0%
#970000
b100111110110011100000111100000 ]
b100000 ^
b1110110000010011000111110000111 U
b1110110000010011000111110000111 Z
b1 5
b1 E
b1 V
b1 [
b1 `
b0 I
1J
b10011010 H
b111 O
b110100101101001 Q
b10001001111101100111000001111000 \
b101111 m
1%
b10101010001100110100101101001101001011001 (
b1 ,
b1 /
b1 _
b1101 t
#980000
0%
#990000
b11011000001001100011111000011111 U
b11011000001001100011111000011111 Z
b10011111011001110000011110000000 ]
b100000 ^
b110000 m
b100111110110011100000111100000 \
b1000 O
b11010010110100101 Q
b1 I
b1100110 H
b0 5
b0 E
b0 V
b0 [
b0 `
1%
b1010101000110011010010110100110100101100100 (
b0 ,
b0 /
b0 _
b1110 t
#1000000
0%
#1010000
b1110100000111100010010101101110 ]
b100000 ^
b1100000100110001111100001111111 U
b1100000100110001111100001111111 Z
b10 I
b10 ?
b10 F
b10 L
b11001 H
b1001 O
b1101001011010010101 Q
b10011111011001110000011110000000 \
b110001 m
1%
b101010100011001101001011010011010010110010000 (
b1111 t
#1020000
0%
#1030000
b11010100101110011000100000001111 ]
b100000 ^
b10001011111000011101101010010001 U
b10001011111000011101101010010001 Z
b110010 m
b1110100000111100010010101101110 \
b1010 O
b110100101101001010110 Q
b11 I
b110 H
1%
b10101010001100110100101101001101001011001000000 (
b10000 t
#1040000
0%
#1050000
b1010110001001110011110110001011 ]
b100000 ^
b101011010001100111011111110000 U
b101011010001100111011111110000 Z
b1 5
b1 E
b1 V
b1 [
b1 `
b0 I
0J
b0 ?
b0 F
b0 L
b10110 G
b1011 O
b11010010110100101011010 Q
b11010100101110011000100000001111 \
b110011 m
1%
b10101000110011010010110100110100101100100000001 (
b1 ,
b1 /
b1 _
b10001 t
#1060000
0%
#1070000
b1010101110111111101000011110101 ]
b100000 ^
b10101001110110001100001001110100 U
b10101001110110001100001001110100 Z
b110100 m
b1010110001001110011110110001011 \
b1100 O
b1101001011010010101101000 Q
b1 I
b1000101 G
1%
b10100011001101001011010011010010110010000000101 (
b10010 t
#1080000
0%
#1090000
b1011010001111000110010100001101 ]
b100000 ^
b10101010001000000010111100001010 U
b10101010001000000010111100001010 Z
b10 I
b1 ?
b1 F
b1 L
b1010001 G
b1101 O
b110100101101001010110100000 Q
b1010101110111111101000011110101 \
b110101 m
1%
b10001100110100101101001101001011001000000010101 (
b10011 t
#1100000
0%
#1110000
b1100101101100101011001011101101 ]
b100000 ^
b10100101110000111001101011110010 U
b10100101110000111001101011110010 Z
b110110 m
b1011010001111000110010100001101 \
b1110 O
b11010010110100101011010000001 Q
b11 I
b10 ?
b10 F
b10 L
b1010100 G
1%
b110011010010110100110100101100100000001010101 (
b10100 t
#1120000
0%
#1130000
b10010010000010111101011000000011 ]
b100000 ^
b10011010010011010100110100010010 U
b10011010010011010100110100010010 Z
b0 5
b0 E
b0 V
b0 [
b0 `
b0 I
1J
b1 ?
b1 F
b1 L
b1000001 H
b1111 O
b1101001011010010101101000000110 Q
b1100101101100101011001011101101 \
b110111 m
1%
b11001101001011010011010010110010000000101010100 (
b0 ,
b0 /
b0 _
b10101 t
#1140000
0%
#1150000
b1101101111101000010100111111100 U
b1101101111101000010100111111100 Z
b1001000001011110101100000001100 ]
b100000 ^
b111000 m
b10010010000010111101011000000011 \
b10000 O
b110100101101001010110100000011001 Q
b1 I
b10000 H
b1 5
b1 E
b1 V
b1 [
b1 `
1%
b100110100101101001101001011001000000010101010001 (
b1 ,
b1 /
b1 _
b10110 t
#1160000
0%
#1170000
b100000101111010110000000110000 ]
b100000 ^
b10110111110100001010011111110011 U
b10110111110100001010011111110011 Z
b10 5
b10 E
b10 V
b10 [
b10 `
b10 I
b1000100 H
b10001 O
b11010010110100101011010000001100101 Q
b1001000001011110101100000001100 \
b111001 m
1%
b11010010110100110100101100100000001010101000110 (
b10 ,
b10 /
b10 _
b10111 t
#1180000
0%
#1190000
b11011111010000101001111111001111 U
b11011111010000101001111111001111 Z
b10001011011101111011101110101110 ]
b100000 ^
b111010 m
b100000101111010110000000110000 \
b10010 O
b1101001011010010101101000000110010101 Q
b11 I
b0 ?
b0 F
b0 L
b10010001 H
b1 5
b1 E
b1 V
b1 [
b1 `
1%
b101001011010011010010110010000000101010000011001 .
b1 ,
b1 /
b1 _
b11000 t
#1200000
0%
#1210000
b100000100111011100100001100001 ]
b100000 ^
b1110100100010000100010001010001 U
b1110100100010000100010001010001 Z
b10 5
b10 E
b10 V
b10 [
b10 `
b0 I
0J
b10 ?
b10 F
b10 L
b1010101 G
b10011 O
b110100101101001010110100000011001010100 Q
b10001011011101111011101110101110 \
b111011 m
1%
b100101101001101001011001000000010101000001100110 .
b10 ,
b10 /
b10 _
b1 u
#1220000
0%
#1230000
b10000110101101100011110000110011 ]
b100000 ^
b11011111011000100011011110011110 U
b11011111011000100011011110011110 Z
b111100 m
b100000100111011100100001100001 \
b10100 O
b11010010110100101011010000001100101010010 Q
b1 I
b1 ?
b1 F
b1 L
b10010101 G
1%
b10110100110100101100100000001010100000110011010 .
b10 u
#1240000
0%
#1250000
b11010110110001111000011001100 ]
b100000 ^
b1111001010010011100001111001100 U
b1111001010010011100001111001100 Z
b1 5
b1 E
b1 V
b1 [
b1 `
b10 I
b0 ?
b0 F
b0 L
b10100101 G
b10101 O
b1101001011010010101101000000110010101001001 Q
b10000110101101100011110000110011 \
b111101 m
1%
b11010011010010110010000000101010000011001101001 .
b1 ,
b1 /
b1 _
b11 u
#1260000
0%
#1270000
b1100010111000011111100001011110 ]
b100000 ^
b11100101001001110000111100110011 U
b11100101001001110000111100110011 Z
b111110 m
b11010110110001111000011001100 \
b10110 O
b110100101101001010110100000011001010100100100 Q
b11 I
b1 ?
b1 F
b1 L
b1101001 G
1%
b101001101001011001000000010101000001100110100101 .
b100 u
#1280000
0%
#1290000
b10001011100001111110000101111000 ]
b100000 ^
b10011101000111100000011110100001 U
b10011101000111100000011110100001 Z
b10 5
b10 E
b10 V
b10 [
b10 `
b0 I
1J
b1100100 H
b10111 O
b11010010110100101011010000001100101010010010001 Q
b1100010111000011111100001011110 \
b111111 m
1%
b100110100101100100000001010100000110011010010110 .
b10 ,
b10 /
b10 _
b101 u
#1300000
0%
#1310000
b100011010111001010001100111001 ]
b100000 ^
b1110100011110000001111010000111 U
b1110100011110000001111010000111 Z
b1000000 m
b10001011100001111110000101111000 \
b10 R
b11000 O
b1 I
b10 ?
b10 F
b10 L
b10011001 H
1%
b11010010110010000000101010000011001101001011010 .
b110 u
#1320000
0%
#1330000
b10000100111100001011011110001010 ]
b100000 ^
b11011100101000110101110011000110 U
b11011100101000110101110011000110 Z
b1 5
b1 E
b1 V
b1 [
b1 `
b10 I
b10100110 H
b11001 O
b100011010111001010001100111001 \
b1000001 m
1%
b101001011001000000010101000001100110100101101001 .
b1 ,
b1 /
b1 _
b111 u
#1340000
0%
#1350000
b1111011000011110100100001110101 U
b1111011000011110100100001110101 Z
b11110100000011111100011110001 ]
b100000 ^
b1000010 m
b10000100111100001011011110001010 \
b11010 O
b11 I
b1 ?
b1 F
b1 L
b1101001 H
b10 5
b10 E
b10 V
b10 [
b10 `
1%
b100101100100000001010100000110011010010110100110 .
b10 ,
b10 /
b10 _
b1000 u
#1360000
0%
#1370000
b1111110110001101111111001110011 ]
b100000 ^
b11100001011111100000011100001110 U
b11100001011111100000011100001110 Z
b0 I
0J
b10011010 G
b11011 O
b11110100000011111100011110001 \
b1000011 m
1%
b10110010000000101010000011001101001011010011010 .
b1001 u
#1380000
0%
#1390000
b10000001001110010000000110001100 U
b10000001001110010000000110001100 Z
b11110110010110001101111100010101 ]
b100000 ^
b1000100 m
b1111110110001101111111001110011 \
b11100 O
b1 I
b10 ?
b10 F
b10 L
b10100110 G
b1 5
b1 E
b1 V
b1 [
b1 `
1%
b11001000000010101000001100110100101101001101001 .
b1 ,
b1 /
b1 _
b1010 u
#1400000
0%
#1410000
b11011101101000100110000111100011 ]
b100000 ^
b1001101001110010000011101010 U
b1001101001110010000011101010 Z
b10 I
b1101001 G
b11101 O
b11110110010110001101111100010101 \
b1000101 m
1%
b100100000001010100000110011010010110100110100101 .
b1011 u
#1420000
0%
#1430000
b100010010111011001111000011100 U
b100010010111011001111000011100 Z
b1111111000010111011110011100010 ]
b100000 ^
b1000110 m
b11011101101000100110000111100011 \
b11110 O
b11 I
b1 ?
b1 F
b1 L
b1011010 G
b10 5
b10 E
b10 V
b10 [
b10 `
1%
b10000000101010000011001101001011010011010010110 .
b10 ,
b10 /
b10 _
b1100 u
#1440000
0%
#1450000
b11110001011011011101010101010001 ]
b100000 ^
b10000000111101000100001100011101 U
b10000000111101000100001100011101 Z
b1 5
b1 E
b1 V
b1 [
b1 `
b0 I
1J
b10011010 H
b11111 O
b1111111000010111011110011100010 \
b1000111 m
1%
b10101000001100110100101101001101001011001 .
b1 ,
b1 /
b1 _
b1101 u
#1460000
0%
#1470000
b1110100100100010101010101110 U
b1110100100100010101010101110 Z
b11001000111101000111001110011101 ]
b100000 ^
b1001000 m
b11110001011011011101010101010001 \
b100000 O
b1 I
b1100110 H
b0 5
b0 E
b0 V
b0 [
b0 `
1%
b1010100000110011010010110100110100101100100 .
b0 ,
b0 /
b0 _
b1110 u
#1480000
0%
#1490000
b101110100100101110100010101101 ]
b100000 ^
b110111000010111000110001100010 U
b110111000010111000110001100010 Z
b10 I
b10 ?
b10 F
b10 L
b11001 H
b100001 O
b11001000111101000111001110011101 \
b1001001 m
1%
b101010000011001101001011010011010010110010000 .
b1111 u
#1500000
0%
#1510000
b10111010010010111010001010110100 ]
b100000 ^
b11010001011011010001011101010010 U
b11010001011011010001011101010010 Z
b1001010 m
b101110100100101110100010101101 \
b100010 O
b11 I
b110 H
1%
b10101000001100110100101101001101001011001000000 .
b10000 u
#1520000
0%
#1530000
b11101001001011101000101011010000 ]
b100000 ^
b1000101101101000101110101001011 U
b1000101101101000101110101001011 Z
b1 5
b1 E
b1 V
b1 [
b1 `
b0 I
0J
b0 ?
b0 F
b0 L
b10110 G
b100011 O
b10111010010010111010001010110100 \
b1001011 m
1%
b10100000110011010010110100110100101100100000001 .
b1 ,
b1 /
b1 _
b10001 u
#1540000
0%
#1550000
b10100000011110110011011011110111 ]
b100000 ^
b10110110100010111010100101111 U
b10110110100010111010100101111 Z
b1001100 m
b11101001001011101000101011010000 \
b100100 O
b1 I
b1000101 G
1%
b10000011001101001011010011010010110010000000101 .
b10010 u
#1560000
0%
#1570000
b10000001111011001101101111011100 ]
b100000 ^
b1011111100001001100100100001000 U
b1011111100001001100100100001000 Z
b10 I
b1 ?
b1 F
b1 L
b1010001 G
b100101 O
b10100000011110110011011011110111 \
b1001101 m
1%
b1100110100101101001101001011001000000010101 .
b10011 u
#1580000
0%
#1590000
b1111110000100110010010000100011 U
b1111110000100110010010000100011 Z
b1110001100010101010000011110 ]
b100000 ^
b1001110 m
b10000001111011001101101111011100 \
b100110 O
b11 I
b10 ?
b10 F
b10 L
b1010100 G
b0 5
b0 E
b0 V
b0 [
b0 `
1%
b110011010010110100110100101100100000001010100 .
b0 ,
b0 /
b0 _
b10100 u
#1600000
0%
#1610000
b111000110001010101000001111000 ]
b100000 ^
b11110001110011101010101111100001 U
b11110001110011101010101111100001 Z
b0 I
1J
b1 ?
b1 F
b1 L
b1 H
b100111 O
b1110001100010101010000011110 \
b1001111 m
1%
b11001101001011010011010010110010000000101010000 .
b10101 u
#1620000
0%
#1630000
b11000111001110101010111110000111 U
b11000111001110101010111110000111 Z
b11101010100101110111101010001110 ]
b100000 ^
b1010000 m
b111000110001010101000001111000 \
b101000 O
b1 I
b0 H
b1 5
b1 E
b1 V
b1 [
b1 `
1%
b100110100101101001101001011001000000010101000001 .
b1 ,
b1 /
b1 _
b10110 u
#1640000
0%
#1650000
b10100011110111111101000101010110 ]
b100000 ^
b10101011010001000010101110001 U
b10101011010001000010101110001 Z
b10 5
b10 E
b10 V
b10 [
b10 `
b10 I
b1000000 H
b101001 O
b11101010100101110111101010001110 \
b1010001 m
1%
b11010010110100110100101100100000001010100000110 .
b10 ,
b10 /
b10 _
b10111 u
#1660000
0%
#1670000
b1011100001000000010111010101001 U
b1011100001000000010111010101001 Z
b10001111011111110100010101011000 ]
b100000 ^
b1010010 m
b10100011110111111101000101010110 \
b101010 O
b11 I
b0 ?
b0 F
b0 L
b10010000 H
b1 5
b1 E
b1 V
b1 [
b1 `
1%
b1 ,
b1 /
b1 _
b11000 u
#1680000
0%
#1690000
b110100011111110010111000001110 ]
b100000 ^
b1110000100000001011101010100111 U
b1110000100000001011101010100111 Z
b0 5
b0 E
b0 V
b0 [
b0 `
b0 I
0J
b10 ?
b10 F
b10 L
b1010101 G
b101011 O
b10001111011111110100010101011000 \
b1010011 m
1%
b0 ,
b0 /
b0 _
b1 v
#1700000
0%
#1710000
b11010001111111001011100000111000 ]
b100000 ^
b11001011100000001101000111110001 U
b11001011100000001101000111110001 Z
b1010100 m
b110100011111110010111000001110 \
b101100 O
b1 I
b1 ?
b1 F
b1 L
b10101 G
1%
b10 v
#1720000
0%
#1730000
b1001010101100011100011000111001 ]
b100000 ^
b101110000000110100011111000111 U
b101110000000110100011111000111 Z
b10 I
b0 ?
b0 F
b0 L
b101 G
b101101 O
b11010001111111001011100000111000 \
b1010101 m
1%
b11 v
#1740000
0%
#1750000
b10110101010011100011100111000110 U
b10110101010011100011100111000110 Z
b100111100001000011111000111101 ]
b100000 ^
b1010110 m
b1001010101100011100011000111001 \
b101110 O
b11 I
b1 G
b1 5
b1 E
b1 V
b1 [
b1 `
1%
b1 ,
b1 /
b1 _
b100 v
#1760000
0%
#1770000
b10011110000100001111100011110100 ]
b100000 ^
b11011000011110111100000111000010 U
b11011000011110111100000111000010 Z
b0 5
b0 E
b0 V
b0 [
b0 `
b0 I
1J
b1100100 H
b101111 O
b100111100001000011111000111101 \
b1010111 m
1%
b0 ,
b0 /
b0 _
b101 v
#1780000
0%
#1790000
b1110001110000011101100010111110 ]
b100000 ^
b1100001111011110000011100001011 U
b1100001111011110000011100001011 Z
b1011000 m
b10011110000100001111100011110100 \
b110000 O
b1 I
b11001 H
1%
b110 v
#1800000
0%
#1810000
b11000011110001100111111101001111 ]
b100000 ^
b10001110001111100010011101000001 U
b10001110001111100010011101000001 Z
b10 I
b110 H
b110001 O
b1110001110000011101100010111110 \
b1011001 m
1%
b111 v
#1820000
0%
#1830000
b111100001110011000000010110000 U
b111100001110011000000010110000 Z
b110100110111100011001010010 ]
b100000 ^
b1011010 m
b11000011110001100111111101001111 \
b110010 O
b11 I
b1 ?
b1 F
b1 L
b1 H
b10 5
b10 E
b10 V
b10 [
b10 `
1%
b10 ,
b10 /
b10 _
b100000 w
b1000 v
#1840000
0%
#1850000
b10111001011000011111110010001 ]
b100000 ^
b11111001011001000011100110101101 U
b11111001011001000011100110101101 Z
b11 5
b11 E
b11 V
b11 [
b11 `
b0 I
0J
b0 ?
b0 F
b0 L
b10000000 G
b110011 O
b110100110111100011001010010 \
b1011011 m
1%
b11 ,
b11 /
b11 _
b11110 w
#1860000
0%
#1870000
b1010001111100111101100010011101 ]
b100000 ^
b11101000110100111100000001101110 U
b11101000110100111100000001101110 Z
b1011100 m
b10111001011000011111110010001 \
b110100 O
b1 I
b11100000 G
1%
b11100 w
#1880000
0%
#1890000
b1001110010011010101100100011010 ]
b100000 ^
b10101110000011000010011101100010 U
b10101110000011000010011101100010 Z
b10 I
b11111000 G
b110101 O
b1010001111100111101100010011101 \
b1011101 m
1%
b11010 w
#1900000
0%
#1910000
b10110001101100101010011011100101 U
b10110001101100101010011011100101 Z
b110100011101100100001010110001 ]
b100000 ^
b1011110 m
b1001110010011010101100100011010 \
b110110 O
b11 I
b1 ?
b1 F
b1 L
b11111110 G
b1 5
b1 E
b1 V
b1 [
b1 `
1%
b1 ,
b1 /
b1 _
b11000 w
#1920000
0%
#1930000
12
b11 3
b11 M
b11 d
b11011100100110100010110000011101 ]
b100000 ^
b11001011100010011011110101001110 U
b11001011100010011011110101001110 Z
b11 5
b11 E
b11 V
b11 [
b11 `
b0 I
1J
b11 ?
b11 F
b11 L
b1000000 H
b110111 O
b110100011101100100001010110001 \
b1011111 m
1%
b11 ,
b11 /
b11 _
b10110 w
#1940000
0%
#1950000
0:
07
0=
19
18
b110000 i
b1001111 k
b1001111 p
b1000 q
b11 l
b11 o
b100011011001011101001111100010 U
b100011011001011101001111100010 Z
b1111011111010101000101100011010 ]
b100000 ^
b1100000 m
b1 g
b11 B
b11 e
b11 j
b11011100100110100010110000011101 \
b11 R
b1 I
b11010000 H
b10 5
b10 E
b10 V
b10 [
b10 `
1%
b10 ,
b10 /
b10 _
b10100 w
#1960000
0%
