networking/obj/cksum.vcd
$date
	Tue Dec  6 18:14:51 2022
$end
$version
	Icarus Verilog
$end
$timescale
	1ps
$end
$scope module cksum_tb $end
$var wire 1 ! kill $end
$var wire 1 " done $end
$var reg 2 # axiid [1:0] $end
$var reg 1 $ axiiv $end
$var reg 200 % both [199:0] $end
$var reg 32 & checksum [31:0] $end
$var reg 1 ' clk_in $end
$var reg 168 ( message [167:0] $end
$var reg 1 ) rst_in $end
$scope module uut $end
$var wire 2 * axiid [1:0] $end
$var wire 1 $ axiiv $end
$var wire 1 ' clk $end
$var wire 1 + crc_axiov $end
$var wire 1 , crc_rst $end
$var wire 1 ) rst $end
$var wire 32 - crc_axiod [31:0] $end
$var reg 32 . checksum [31:0] $end
$var reg 1 " done $end
$var reg 1 ! kill $end
$var reg 1 / manual_rst $end
$var reg 1 0 state $end
$scope module mycrc $end
$var wire 2 1 axiid [1:0] $end
$var wire 1 $ axiiv $end
$var wire 32 2 axiod [31:0] $end
$var wire 1 + axiov $end
$var wire 1 ' clk $end
$var wire 1 , rst $end
$var reg 32 3 caxiod [31:0] $end
$var reg 32 4 saxiod [31:0] $end
$var integer 32 5 i [31:0] $end
$upscope $end
$upscope $end
$scope begin $ivl_for_loop0 $end
$var integer 32 6 i [31:0] $end
$upscope $end
$scope begin $ivl_for_loop1 $end
$var integer 32 7 i [31:0] $end
$upscope $end
$upscope $end
$enddefinitions $end
#0
$dumpvars
b0 7
b0 6
bx 5
bx 4
bx 3
bx 2
bx 1
x0
x/
b111000111110110010001010000100 .
bx -
x,
1+
bx *
x)
b10000100110000101110010011100100111100100100001001000000100001001110010011001010110000101101011011001100110000101110011011101000010000001110100011010010110110101100101 (
0'
b11010001110101100110010110010 &
b1000010011000010111001001110010011110010010000100100000010000100111001001100101011000010110101101100110011000010111001101110100001000000111010001101001011011010110010100011010001110101100110010110010 %
x$
bx #
x"
x!
$end
#10000
0)
1'
#20000
0'
#30000
b1111xx1xxx1111xx11xxxxxxxxxxxxxx 4
b100000 5
b0 -
b0 2
00
0!
0"
b11111111111111111111111111111111 3
1,
1'
1)
#40000
0'
#50000
0/
b11110010101111001101100100100101 4
b100000 5
0,
1'
b0 #
b0 *
b0 1
0$
0)
#60000
0'
#70000
1'
#80000
0'
#90000
1'
#100000
0'
#110000
1'
#120000
0'
#130000
1'
#140000
0'
#150000
b1001100000100011101101101101 -
b1001100000100011101101101101 2
10
b11110110011111011100010010010010 3
b11010000011101010010100100100110 4
b100000 5
1'
b10 #
b10 *
b10 1
b10101000 6
1$
#160000
0'
#170000
b101011010010111100101101101110 -
b101011010010111100101101101110 2
b11010100101101000011010010010001 3
b1011111100100111111010010011101 4
b100000 5
1'
b0 #
b0 *
b0 1
b10100110 6
#180000
0'
#190000
b1111010100011101100111111000011 4
b100000 5
b10100000011011000000101101100010 -
b10100000011011000000101101100010 2
b1011111100100111111010010011101 3
1'
b10100100 6
#200000
0'
#210000
b10001100111100110000101101010010 -
b10001100111100110000101101010010 2
b1110011000011001111010010101101 3
b11000001011100001111010001101101 4
b100000 5
1'
b1 #
b1 *
b1 1
b10100010 6
#220000
0'
#230000
b110011110011000010110101001011 -
b110011110011000010110101001011 2
b11001100001100111101001010110100 3
b111001010011010111000110111110 4
b100000 5
1'
b10 #
b10 *
b10 1
b10100000 6
#240000
0'
#250000
b11001011111100011010100010011000 -
b11001011111100011010100010011000 2
b110100000011100101011101100111 3
b11011001101110110110011011110010 4
b100000 5
1'
b1 #
b1 *
b1 1
b10011110 6
#260000
0'
#270000
b101111110001101010001001100011 -
b101111110001101010001001100011 2
b11010000001110010101110110011100 3
b1001101101001100101000010101001 4
b100000 5
1'
b0 #
b0 *
b0 1
b10011100 6
#280000
0'
#290000
b10110110100110001011001011100001 -
b10110110100110001011001011100001 2
b1001001011001110100110100011110 3
b100101100111010011010001111000 4
b100000 5
1'
b10 #
b10 *
b10 1
b10011010 6
#300000
0'
#310000
b10010010101101011100110001010111 4
b100000 5
b11011010011000101100101110000111 -
b11011010011000101100101110000111 2
b100101100111010011010001111000 3
1'
b10011000 6
#320000
0'
#330000
b1100100110010000000100011000110 -
b1100100110010000000100011000110 2
b10011011001101111111011100111001 3
b1101000000111101100000101010011 4
b100000 5
1'
b11 #
b11 *
b11 1
b10010110 6
#340000
0'
#350000
b10011010101000100001100001110101 -
b10011010101000100001100001110101 2
b1100101010111011110011110001010 3
b10010001101101101000001110011111 4
b100000 5
1'
b0 #
b0 *
b0 1
b10010100 6
#360000
0'
#370000
b1100111110010110100011100001110 -
b1100111110010110100011100001110 2
b10011000001101001011100011110001 3
b1100000110100101110001111000100 4
b100000 5
1'
b1 #
b1 *
b1 1
b10010010 6
#380000
0'
#390000
b10010010011011100011101011100010 -
b10010010011011100011101011100010 2
b1101101100100011100010100011101 3
b10110110010001110001010001110100 4
b100000 5
1'
b10 #
b10 *
b10 1
b10010000 6
#400000
0'
#410000
b1000000001110101101000011100101 -
b1000000001110101101000011100101 2
b10111111110001010010111100011010 3
b11111011110101011010000111011111 4
b100000 5
1'
b11 #
b11 *
b11 1
b10001110 6
#420000
0'
#430000
b1001011010010111100011111001 -
b1001011010010111100011111001 2
b11110110100101101000011100000110 3
b11010111000110010011101011000001 4
b100000 5
1'
b0 #
b0 *
b0 1
b10001100 6
#440000
0'
#450000
b100001011001001111111001010000 -
b100001011001001111111001010000 2
b11011110100110110000000110101111 3
b1111110101011010001101100001011 4
b100000 5
1'
b1 #
b1 *
b1 1
b10001010 6
#460000
0'
#470000
b10001100000100011100001000101101 -
b10001100000100011100001000101101 2
b1110011111011100011110111010010 3
b11001111101110001111011101001000 4
b100000 5
1'
b10 #
b10 *
b10 1
b10001000 6
#480000
0'
#490000
b111001110001010011001111011001 -
b111001110001010011001111011001 2
b11000110001110101100110000100110 3
b11000111010110011000010011000 4
b100000 5
1'
b11 #
b11 *
b11 1
b10000110 6
#500000
0'
#510000
b11100011110101011101001011010000 -
b11100011110101011101001011010000 2
b11100001010100010110100101111 3
b1111001001010101000111111010010 4
b100000 5
1'
b1 #
b1 *
b1 1
b10000100 6
#520000
0'
#530000
b10001011100101100101011011110100 -
b10001011100101100101011011110100 2
b1110100011010011010100100001011 3
b11010001101001101010010000101100 4
b100000 5
1'
b10 #
b10 *
b10 1
b10000010 6
#540000
0'
#550000
b101010100110000100011001100100 -
b101010100110000100011001100100 2
b11010101011001111011100110011011 3
b1011000110111011100000010110101 4
b100000 5
1'
b0 #
b0 *
b0 1
b10000000 6
#560000
0'
#570000
b10101110101000000000010000100100 -
b10101110101000000000010000100100 2
b1010001010111111111101111011011 3
b1001000001111001100100110110101 4
b100000 5
1'
b1 #
b1 *
b1 1
b1111110 6
#580000
0'
#590000
b10111110010000010000110100100100 -
b10111110010000010000110100100100 2
b1000001101111101111001011011011 3
b10001110101101011011011011 4
b100000 5
1'
b0 #
b0 *
b0 1
b1111100 6
#600000
0'
#610000
b11111001000001000011010010010011 -
b11111001000001000011010010010011 2
b110111110111100101101101100 3
b11111001011100011000000000111 4
b100000 5
1'
b10 #
b10 *
b10 1
b1111010 6
#620000
0'
#630000
b11100100000100001101001001001111 -
b11100100000100001101001001001111 2
b11011111011110010110110110000 3
b1101111101111001011011011000000 4
b100000 5
1'
b0 #
b0 *
b0 1
b1111000 6
#640000
0'
#650000
b10011001110000010111001001010001 -
b10011001110000010111001001010001 2
b1100110001111101000110110101110 3
b10010101101110010001000001100001 4
b100000 5
1'
b1 #
b1 *
b1 1
b1110110 6
#660000
0'
#670000
b1100011110001001101010011110000 -
b1100011110001001101010011110000 2
b10011100001110110010101100001111 3
b1111001011011101001011101010010 4
b100000 5
1'
b0 #
b0 *
b0 1
b1110100 6
#680000
0'
#690000
b11100001011110110100000011111111 4
b100000 5
b10000110100100010110100010101101 -
b10000110100100010110100010101101 2
b1111001011011101001011101010010 3
1'
b1110010 6
#700000
0'
#710000
b11010010001011010001010110111 -
b11010010001011010001010110111 2
b11100101101110100101110101001000 3
b10011111011010110100111001001110 4
b100000 5
1'
b10 #
b10 *
b10 1
b1110000 6
#720000
0'
#730000
b1100100010101011010110000000110 -
b1100100010101011010110000000110 2
b10011011101010100101001111111001 3
b1100111001010110111010010001010 4
b100000 5
1'
b0 #
b0 *
b0 1
b1101110 6
#740000
0'
#750000
b10011000011011001100111110011111 4
b100000 5
b10011000110101001000101101110101 -
b10011000110101001000101101110101 2
b1100111001010110111010010001010 3
1'
b1101100 6
#760000
0'
#770000
b1101110000100010000101100001110 -
b1101110000100010000101100001110 2
b10010001111011101111010011110001 3
b1000111101110111101001111000100 4
b100000 5
1'
b1 #
b1 *
b1 1
b1101010 6
#780000
0'
#790000
b10110101000001110000101011100010 -
b10110101000001110000101011100010 2
b1001010111110001111010100011101 3
b101011111000111101010001110100 4
b100000 5
1'
b10 #
b10 *
b10 1
b1101000 6
#800000
0'
#810000
b11011101100111100001000011100101 -
b11011101100111100001000011100101 2
b100010011000011110111100011010 3
b10000100110001001001101010110001 4
b100000 5
1'
b11 #
b11 *
b11 1
b1100110 6
#820000
0'
#830000
b1110110011110000100001110010111 -
b1110110011110000100001110010111 2
b10001001100001111011110001101000 3
b101111100111001100101011001110 4
b100000 5
1'
b0 #
b0 *
b0 1
b1100100 6
#840000
0'
#850000
b11011001111000010000111001011111 -
b11011001111000010000111001011111 2
b100110000111101111000110100000 3
b10010001111110011111110111101110 4
b100000 5
1'
b1 #
b1 *
b1 1
b1100010 6
#860000
0'
#870000
b1100011010001010010010011001000 -
b1100011010001010010010011001000 2
b10011100101110101101101100110111 3
b1111111101010000100101000000101 4
b100000 5
1'
b10 #
b10 *
b10 1
b1100000 6
#880000
0'
#890000
b10001101000101001001001100100011 -
b10001101000101001001001100100011 2
b1110010111010110110110011011100 3
b11000110111011101001010110101001 4
b100000 5
1'
b1 #
b1 *
b1 1
b1011110 6
#900000
0'
#910000
b110100010100100100110010001111 -
b110100010100100100110010001111 2
b11001011101011011011001101110000 3
b100111001101001111011010101110 4
b100000 5
1'
b10 #
b10 *
b10 1
b1011100 6
#920000
0'
#930000
b10011000000100101100011100001111 4
b100000 5
b11011000110010110000100101010001 -
b11011000110010110000100101010001 2
b100111001101001111011010101110 3
1'
b1011010 6
#940000
0'
#950000
b1101101000010000011101011100101 4
b100000 5
b1100111111011010011100011110000 -
b1100111111011010011100011110000 2
b10011000000100101100011100001111 3
1'
b1011000 6
#960000
0'
#970000
b10011111101101001110001111000011 -
b10011111101101001110001111000011 2
b1100000010010110001110000111100 3
b10001100011011110101011000101001 4
b100000 5
1'
b1 #
b1 *
b1 1
b1010110 6
#980000
0'
#990000
b1111010000100101001001010111000 -
b1111010000100101001001010111000 2
b10000101111011010110110101000111 3
b11110001101111000111001110010 4
b100000 5
1'
b0 #
b0 *
b0 1
b1010100 6
#1000000
0'
#1010000
b11100101000010010110110000111010 -
b11100101000010010110110000111010 2
b11010111101101001001111000101 3
b1101111000110110101001010100011 4
b100000 5
1'
b10 #
b10 *
b10 1
b1010010 6
#1020000
0'
#1030000
b10111100011011010100101010001100 4
b100000 5
b10010000111001001010110101011100 -
b10010000111001001010110101011100 2
b1101111000110110101001010100011 3
1'
b1010000 6
#1040000
0'
#1050000
b1001110110100011001001110101010 -
b1001110110100011001001110101010 2
b10110001001011100110110001010101 3
b11000100101110011011000101010100 4
b100000 5
1'
b1 #
b1 *
b1 1
b1001110 6
#1060000
0'
#1070000
b10110001001111101100011100111 4
b100000 5
b111011010001100100111010101011 -
b111011010001100100111010101011 2
b11000100101110011011000101010100 3
1'
b1001100 6
#1080000
0'
#1090000
b11101101000110010011101010101111 -
b11101101000110010011101010101111 2
b10010111001101100010101010000 3
b1000110110110000011001110011001 4
b100000 5
1'
b11 #
b11 *
b11 1
b1001010 6
#1100000
0'
#1110000
b10110000101001011111011100001000 -
b10110000101001011111011100001000 2
b1001111010110100000100011110111 3
b111101011010000010001111011100 4
b100000 5
1'
b10 #
b10 *
b10 1
b1001000 6
#1120000
0'
#1130000
b11001111110101001111101011111010 -
b11001111110101001111101011111010 2
b110000001010110000010100000101 3
b11001001001011100010111101111010 4
b100000 5
1'
b1 #
b1 *
b1 1
b1000110 6
#1140000
0'
#1150000
b111011100100101111011001011100 -
b111011100100101111011001011100 2
b11000100011011010000100110100011 3
b11000001101100001110111100010 4
b100000 5
1'
b10 #
b10 *
b10 1
b1000100 6
#1160000
0'
#1170000
b11101010100010101100010011000100 -
b11101010100010101100010011000100 2
b10101011101010011101100111011 3
b1011100010101101101011110000010 4
b100000 5
1'
b1 #
b1 *
b1 1
b1000010 6
#1180000
0'
#1190000
b10101110111010100000111010100100 -
b10101110111010100000111010100100 2
b1010001000101011111000101011011 3
b1000100010101111100010101101100 4
b100000 5
1'
b10 #
b10 *
b10 1
b1000000 6
#1200000
0'
#1210000
b10110110111010110001110001001010 -
b10110110111010110001110001001010 2
b1001001000101001110001110110101 3
b101001000100001010100000001101 4
b100000 5
1'
b1 #
b1 *
b1 1
b111110 6
#1220000
0'
#1230000
b11011111011011010110110010011100 -
b11011111011011010110110010011100 2
b100000100100101001001101100011 3
b10000010010010100100110110001100 4
b100000 5
1'
b0 #
b0 *
b0 1
b111100 6
#1240000
0'
#1250000
b1111001011101001010111111000100 -
b1111001011101001010111111000100 2
b10000110100010110101000000111011 3
b10111011011100110011000110101 4
b100000 5
1'
b10 #
b10 *
b10 1
b111010 6
#1260000
0'
#1270000
b1011001011110001000010101100011 4
b100000 5
b11101000100100011001100111001010 -
b11101000100100011001100111001010 2
b10111011011100110011000110101 3
1'
b111000 6
#1280000
0'
#1290000
b10101111000001010100000111110010 -
b10101111000001010100000111110010 2
b1010000111110101011111000001101 3
b1001010011010001100001101011010 4
b100000 5
1'
b11 #
b11 *
b11 1
b110110 6
#1300000
0'
#1310000
b10111000110101000001101001111100 -
b10111000110101000001101001111100 2
b1000111001010111110010110000011 3
b11000011011101000101110111011 4
b100000 5
1'
b0 #
b0 *
b0 1
b110100 6
#1320000
0'
#1330000
b11101010110100100101001010011101 -
b11101010110100100101001010011101 2
b10101001011011010110101100010 3
b1011001111101011001001101010001 4
b100000 5
1'
b11 #
b11 *
b11 1
b110010 6
#1340000
0'
#1350000
b10101111100010000101011111000000 -
b10101111100010000101011111000000 2
b1010000011101111010100000111111 3
b1000001110111101010000011111100 4
b100000 5
1'
b10 #
b10 *
b10 1
b110000 6
#1360000
0'
#1370000
b10110111101000110110010001101101 -
b10110111101000110110010001101101 2
b1001000010111001001101110010010 3
b101000111100000101010100100110 4
b100000 5
1'
b11 #
b11 *
b11 1
b101110 6
#1380000
0'
#1390000
b11011110100011011001000110110111 -
b11011110100011011001000110110111 2
b100001011100100110111001001000 3
b10000001000010001010010010010111 4
b100000 5
1'
b10 #
b10 *
b10 1
b101100 6
#1400000
0'
#1410000
b1111010001101100100011011011111 -
b1111010001101100100011011011111 2
b10000101110010011011100100100000 3
b11110101001001101111111101110 4
b100000 5
1'
b0 #
b0 *
b0 1
b101010 6
#1420000
0'
#1430000
b1111010100100110111111110111000 4
b100000 5
b11100001010110110010000000010001 -
b11100001010110110010000000010001 2
b11110101001001101111111101110 3
1'
b101000 6
#1440000
0'
#1450000
b10001100111011101011101100101001 -
b10001100111011101011101100101001 2
b1110011000100010100010011010110 3
b11000001000001100011010110000001 4
b100000 5
1'
b1 #
b1 *
b1 1
b100110 6
#1460000
0'
#1470000
b110111011110111111000100010000 -
b110111011110111111000100010000 2
b11001000100001000000111011101111 3
b101111010100110001110101100101 4
b100000 5
1'
b0 #
b0 *
b0 1
b100100 6
#1480000
0'
#1490000
b10111101010011000111010110010100 4
b100000 5
b11010000101011001110001010011010 -
b11010000101011001110001010011010 2
b101111010100110001110101100101 3
1'
b100010 6
#1500000
0'
#1510000
b1000110011100101001011111011100 -
b1000110011100101001011111011100 2
b10111001100011010110100000100011 3
b11101011011101101000011001010101 4
b100000 5
1'
b10 #
b10 *
b10 1
b100000 6
#1520000
0'
#1530000
b11101000010110100001011000100 -
b11101000010110100001011000100 2
b11100010111101001011110100111011 3
b10001011110100101111010011101100 4
b100000 5
1'
b11 #
b11 *
b11 1
b11110 6
#1540000
0'
#1550000
b1111101101011110011000001111101 -
b1111101101011110011000001111101 2
b10000010010100001100111110000010 3
b100000000000001100011010001 4
b100000 5
1'
b10 #
b10 *
b10 1
b11100 6
#1560000
0'
#1570000
b11111111001111101111101010011001 -
b11111111001111101111101010011001 2
b110000010000010101100110 3
b11000001000001010110011000 4
b100000 5
1'
b0 #
b0 *
b0 1
b11010 6
#1580000
0'
#1590000
b11111000001110101111011111010000 -
b11111000001110101111011111010000 2
b111110001010000100000101111 3
b11011110101010011110100001011 4
b100000 5
1'
b10 #
b10 *
b10 1
b11000 6
#1600000
0'
#1610000
b11101001011010011110010000101101 -
b11101001011010011110010000101101 2
b10110100101100001101111010010 3
b1010011110110100101010000100110 4
b100000 5
1'
b1 #
b1 *
b1 1
b10110 6
#1620000
0'
#1630000
b1000010001010100111011001000001 4
b100000 5
b10101100001001011010101111011001 -
b10101100001001011010101111011001 2
b1010011110110100101010000100110 3
1'
b10100 6
#1640000
0'
#1650000
b10110000100101101010111101100111 -
b10110000100101101010111101100111 2
b1001111011010010101000010011000 3
b111101101001010100001001100000 4
b100000 5
1'
b10 #
b10 *
b10 1
b10010 6
#1660000
0'
#1670000
b11110010010101000001010000110111 4
b100000 5
b11000010010110101011110110011111 -
b11000010010110101011110110011111 2
b111101101001010100001001100000 3
1'
b10000 6
#1680000
0'
#1690000
b111010001100110100010001 -
b111010001100110100010001 2
b11111111000101110011001011101110 3
b11111000100111011101011000001111 4
b100000 5
1'
b1 #
b1 *
b1 1
b1110 6
#1700000
0'
#1710000
b11101000110011010001000111 -
b11101000110011010001000111 2
b11111100010111001100101110111000 3
b11110001011100110010111011100000 4
b100000 5
1'
b11 #
b11 *
b11 1
b1100 6
#1720000
0'
#1730000
b111000011101110101001110001 -
b111000011101110101001110001 2
b11111000111100010001010110001110 3
b11101010010001100110110101010110 4
b100000 5
1'
b10 #
b10 *
b10 1
b1010 6
#1740000
0'
#1750000
b10100000100110111000111000110110 4
b100000 5
b10101101110011001001010101001 -
b10101101110011001001010101001 2
b11101010010001100110110101010110 3
1'
b1000 6
#1760000
0'
#1770000
b1010010001001110101011100010000 -
b1010010001001110101011100010000 2
b10101101110110001010100011101111 3
b10110111011000101010001110111100 4
b100000 5
1'
b1 #
b1 *
b1 1
b110 6
#1780000
0'
#1790000
b1000101110111100111101010011010 -
b1000101110111100111101010011010 2
b10111010001000011000010101100101 3
b11100101110001010011001101001101 4
b100000 5
1'
b10 #
b10 *
b10 1
b100 6
#1800000
0'
#1810000
b10011110100101101111011001011010 4
b100000 5
b11010001110101100110010110010 -
b11010001110101100110010110010 2
b11100101110001010011001101001101 3
1'
b10 6
#1820000
0'
#1830000
b1100101101010000001010000010010 -
b1100101101010000001010000010010 2
b10011010010101111110101111101101 3
b1100000110111011001010011011010 4
b100000 5
1'
b0 #
b0 *
b0 1
b100000 7
b0 6
#1840000
0'
#1850000
b10011011111000110111011010010010 -
b10011011111000110111011010010010 2
b1100100000111001000100101101101 3
b10010000011100100010010110110100 4
b100000 5
1'
b10 #
b10 *
b10 1
b11110 7
#1860000
0'
#1870000
b1100010110011101111110010010010 -
b1100010110011101111110010010010 2
b10011101001100010000001101101101 3
b1110100110001000000110110110100 4
b100000 5
1'
b1 #
b1 *
b1 1
b11100 7
#1880000
0'
#1890000
b11011110010100110001000000001001 4
b100000 5
b10001011001110111111001001001011 -
b10001011001110111111001001001011 2
b1110100110001000000110110110100 3
1'
b11010 7
#1900000
0'
#1910000
b101000001011101101010010011000 -
b101000001011101101010010011000 2
b11010111110100010010101101100111 3
b1010010000001111000101101000101 4
b100000 5
1'
b0 #
b0 *
b0 1
b11000 7
#1920000
0'
#1930000
b10100000101110110101001001100011 -
b10100000101110110101001001100011 2
b1011111010001001010110110011100 3
b1110100100100001000110100011110 4
b100000 5
1'
b11 #
b11 *
b11 1
b10110 7
#1940000
0'
#1950000
b10001111101011100110111101010110 -
b10001111101011100110111101010110 2
b1110000010100011001000010101001 3
b11001100000001010110010001111101 4
b100000 5
1'
b1 #
b1 *
b1 1
b10100 7
#1960000
0'
#1970000
b110100110101001000110001000011 4
b100000 5
b110011111110101001101110000010 -
b110011111110101001101110000010 2
b11001100000001010110010001111101 3
1'
b10010 7
#1980000
0'
#1990000
b11001111111010100110111000001011 -
b11001111111010100110111000001011 2
b110000000101011001000111110100 3
b11001101000101010110000100001001 4
b100000 5
1'
b11 #
b11 *
b11 1
b10000 7
#2000000
0'
#2010000
b111111101010011011100000101111 -
b111111101010011011100000101111 2
b11000000010101100100011111010000 3
b1100000110100011100110011001 4
b100000 5
1'
b0 #
b0 *
b0 1
b1110 7
#2020000
0'
#2030000
b11111110101001101110000010111111 -
b11111110101001101110000010111111 2
b1010110010001111101000000 3
b1000001001110101101111011001 4
b100000 5
1'
b11 #
b11 *
b11 1
b1100 7
#2040000
0'
#2050000
b11111010100110111000001011111111 -
b11111010100110111000001011111111 2
b101011001000111110100000000 3
b10101100100011111010000000000 4
b100000 5
1'
b0 #
b0 *
b0 1
b1010 7
#2060000
0'
#2070000
b11100011111011000011000010010001 -
b11100011111011000011000010010001 2
b11100000100111100111101101110 3
b1111001110011010000011011010110 4
b100000 5
1'
b1 #
b1 *
b1 1
b1000 7
#2080000
0'
#2090000
b10000010111100111110010010011110 -
b10000010111100111110010010011110 2
b1111101000011000001101101100001 3
b11111101101100100101011011101010 4
b100000 5
1'
b11 #
b11 *
b11 1
b110 7
#2100000
0'
#2110000
b1111000011101000111111001100 -
b1111000011101000111111001100 2
b11110000111100010111000000110011 3
b11001110100001101110011000010101 4
b100000 5
1'
b0 #
b0 *
b0 1
b100 7
#2120000
0'
#2130000
b111000111110110010001010000100 -
b111000111110110010001010000100 2
b11000111000001001101110101111011 3
b11000110100100110100001011011 4
b100000 5
1'
b1 #
b1 *
b1 1
b10 7
#2140000
0'
#2150000
1,
1/
00
1"
b10001010100000101001100110101 4
b100000 5
1'
b0 #
b0 *
b0 1
0$
b0 7
#2160000
0'
#2170000
b11110010101111001101100100100101 4
b100000 5
b0 -
b0 2
0,
b11111111111111111111111111111111 3
0/
1'
