networking/obj/r_top_level.vcd
$date
	Sat Dec 10 12:58:01 2022
$end
$version
	Icarus Verilog
$end
$timescale
	1ps
$end
$scope module top_level_tb $end
$var wire 1 ! rstn_out $end
$var wire 1 " refclk_out $end
$var wire 16 # led_out [15:0] $end
$var reg 32 $ checksum [31:0] $end
$var reg 1 % clk_in $end
$var reg 1 & crsdv_in $end
$var reg 32 ' data [31:0] $end
$var reg 48 ( destination [47:0] $end
$var reg 16 ) ethertype [15:0] $end
$var reg 56 * preamble [55:0] $end
$var reg 1 + rst_in $end
$var reg 2 , rxd_in [1:0] $end
$var reg 8 - sfd [7:0] $end
$var reg 48 . source [47:0] $end
$var reg 1200 / whole_damn_thing [1199:0] $end
$scope module uut $end
$var wire 1 + btnc $end
$var wire 1 % clk $end
$var wire 1 & eth_crsdv $end
$var wire 1 ! eth_rstn $end
$var wire 2 0 eth_rxd [1:0] $end
$var wire 1 1 sys_rst $end
$var wire 1 2 kill $end
$var wire 1 3 firewall_axiov $end
$var wire 2 4 firewall_axiod [1:0] $end
$var wire 1 5 eth_axiov $end
$var wire 2 6 eth_axiod [1:0] $end
$var wire 1 7 done $end
$var wire 1 8 cg $end
$var wire 1 9 cf $end
$var wire 1 : ce $end
$var wire 1 ; cd $end
$var wire 1 < cc $end
$var wire 1 = cb $end
$var wire 1 > ca $end
$var wire 1 ? bitorder_axiov $end
$var wire 2 @ bitorder_axiod [1:0] $end
$var wire 8 A an [7:0] $end
$var wire 1 B aggregate_axiov $end
$var wire 32 C aggregate_axiod [31:0] $end
$var reg 1 " eth_refclk $end
$var reg 16 D led [15:0] $end
$var reg 1 E past_done $end
$scope module bitorder_in $end
$var wire 1 % clk $end
$var wire 1 1 rst $end
$var wire 1 5 axiiv $end
$var wire 2 F axiid [1:0] $end
$var reg 2 G axiod [1:0] $end
$var reg 1 ? axiov $end
$var reg 8 H buf_a [7:0] $end
$var reg 8 I buf_b [7:0] $end
$var reg 2 J buf_counter [1:0] $end
$var reg 1 K read_buf $end
$var reg 2 L state [1:0] $end
$upscope $end
$scope module check_dest $end
$var wire 2 M axiid [1:0] $end
$var wire 1 ? axiiv $end
$var wire 1 % clk $end
$var wire 1 1 rst $end
$var reg 2 N axiod [1:0] $end
$var reg 1 3 axiov $end
$var reg 48 O broadcast_addr [47:0] $end
$var reg 6 P counter [5:0] $end
$var reg 48 Q device_addr [47:0] $end
$var reg 48 R read_addr [47:0] $end
$var reg 3 S state [2:0] $end
$upscope $end
$scope module checksum $end
$var wire 1 % clk $end
$var wire 1 T crc_axiov $end
$var wire 1 U crc_rst $end
$var wire 1 1 rst $end
$var wire 32 V crc_axiod [31:0] $end
$var wire 1 5 axiiv $end
$var wire 2 W axiid [1:0] $end
$var reg 32 X checksum [31:0] $end
$var reg 1 7 done $end
$var reg 1 2 kill $end
$var reg 1 Y manual_rst $end
$var reg 1 Z state $end
$scope module mycrc $end
$var wire 32 [ axiod [31:0] $end
$var wire 1 T axiov $end
$var wire 1 % clk $end
$var wire 1 U rst $end
$var wire 1 5 axiiv $end
$var wire 2 \ axiid [1:0] $end
$var reg 32 ] caxiod [31:0] $end
$var reg 32 ^ saxiod [31:0] $end
$var integer 32 _ i [31:0] $end
$upscope $end
$upscope $end
$scope module ethernet_in $end
$var wire 1 % clk $end
$var wire 1 & crsdv $end
$var wire 1 1 rst $end
$var wire 2 ` rxd [1:0] $end
$var reg 2 a axiod [1:0] $end
$var reg 1 5 axiov $end
$var reg 5 b preamble_count [4:0] $end
$var reg 2 c sfd_count [1:0] $end
$var reg 3 d state [2:0] $end
$upscope $end
$scope module get_data $end
$var wire 2 e axiid [1:0] $end
$var wire 1 3 axiiv $end
$var wire 1 % clk $end
$var wire 1 1 rst $end
$var reg 32 f axiod [31:0] $end
$var reg 1 B axiov $end
$var reg 5 g counter [4:0] $end
$var reg 2 h state [1:0] $end
$upscope $end
$scope module led_display $end
$var wire 8 i an_out [7:0] $end
$var wire 7 j cat_out [6:0] $end
$var wire 1 % clk_in $end
$var wire 1 1 rst_in $end
$var wire 32 k val_in [31:0] $end
$var wire 7 l led_out [6:0] $end
$var reg 4 m routed_vals [3:0] $end
$var reg 32 n segment_counter [31:0] $end
$var reg 8 o segment_state [7:0] $end
$scope module mbto7s $end
$var wire 4 p x_in [3:0] $end
$var wire 7 q s_out [6:0] $end
$var wire 16 r num [15:0] $end
$upscope $end
$upscope $end
$upscope $end
$scope begin $ivl_for_loop0 $end
$var integer 32 s i [31:0] $end
$upscope $end
$scope begin $ivl_for_loop1 $end
$var integer 32 t i [31:0] $end
$upscope $end
$scope begin $ivl_for_loop2 $end
$var integer 32 u i [31:0] $end
$upscope $end
$scope begin $ivl_for_loop3 $end
$var integer 32 v i [31:0] $end
$upscope $end
$scope begin $ivl_for_loop4 $end
$var integer 32 w i [31:0] $end
$upscope $end
$scope begin $ivl_for_loop5 $end
$var integer 32 x i [31:0] $end
$upscope $end
$scope begin $ivl_for_loop6 $end
$var integer 32 y i [31:0] $end
$upscope $end
$scope begin $ivl_for_loop7 $end
$var integer 32 z i [31:0] $end
$upscope $end
$upscope $end
$enddefinitions $end
#0
$dumpvars
b0 z
b0 y
b0 x
b0 w
b0 v
b0 u
b0 t
b0 s
bx r
bx q
bx p
bx o
bx n
bx m
bx l
bx k
bx j
bx i
bx h
bx g
bx f
bx e
bx d
bx c
bx b
bx a
bx `
bx _
bx ^
bx ]
bx \
bx [
xZ
xY
b111000111110110010001010000100 X
bx W
bx V
xU
1T
bx S
bx R
b11010010110100101011010000001100101010010010001 Q
bx P
b111111111111111111111111111111111111111111111111 O
bx N
bx M
bx L
xK
bx J
bx I
bx H
bx G
bx F
xE
bx D
bx C
0B
bx A
bx @
x?
x>
x=
x<
x;
x:
x9
x8
x7
bx 6
x5
bx 4
x3
x2
x1
bx 0
b1010101010101010101010101010101010101010101010101010101010101110110100101101001101001011001000000010101010001100110100101101001101001011001000000010101000001100100000001000000101111110111101110111110111110110101011110100011101010010101001010101010101010101010101010101010101010101010101010101010101010101010101010101010101010101010101010101010101010101010101010101010101010101010101010101010101010101010101010101010101010101010101010101010101010101010101010101010101010101010101010101010101010101010101010101010101010101010101010101010101010101010101010101010101010101010101010101010000000000000000101010101010101010101010101010101010101010101010101010101010111011010010110100110100101100100000001010101000110011010010110100110100101100100000001010100000110010000000100000010111111011110111011111011111011010101111010001110101001010100101010101010101010101010101010101010101010101010101010101010101010101010101010101010101010101010101010101010101010101010101010101010101010101010101010101010101010101010101010101010101010101010101010101010101010101010101010101010101010101010101010101010101010101010101010101010101010101010101010101010101010101010101010101010101010101010101010101010 /
b11010010110100110100101100100000001010100000110 .
b11101010 -
bx ,
x+
b1010101010101010101010101010101010101010101010101010101 *
b100000001 )
b11010010110100110100101100100000001010101000110 (
b10111111011110111011111011111011 '
x&
0%
b1010111101000111010100101010010 $
bx #
x"
x!
$end
#10000
1!
01
0+
1%
#20000
0%
#30000
18
0:
0;
09
0>
0=
0<
b1000000 j
b111111 l
b111111 q
b11111110 A
b11111110 i
b1 r
b0 m
b0 p
b1111xx1xxx1111xx11xxxxxxxxxxxxxx ^
b100000 _
b0 V
b0 [
bx00000000000000 #
bx00000000000000 D
b0 n
b1 o
b0 h
b0 g
b0 C
b0 f
b0 k
0Z
02
07
b11111111111111111111111111111111 ]
b0 S
b0 P
b0 R
b0 L
0?
b0 I
b0 H
b0 J
0K
05
b0 c
b0 b
b0 d
1U
03
b0 4
b0 N
b0 e
0!
1%
11
1+
#40000
0%
#50000
b0 @
b0 G
b0 M
0Y
b1 n
0E
b0 #
b0 D
0U
1!
1%
1&
01
0+
#60000
0%
#70000
b10 n
b1 b
b1 d
1%
b1 ,
b1 0
b1 `
#80000
0%
#90000
b10 b
b11 n
1%
b1 s
#100000
0%
#110000
b100 n
b11 b
1%
b10 s
#120000
0%
#130000
b100 b
b101 n
1%
b11 s
#140000
0%
#150000
b110 n
b101 b
1%
b100 s
#160000
0%
#170000
b110 b
b111 n
1%
b101 s
#180000
0%
#190000
b1000 n
b111 b
1%
b110 s
#200000
0%
#210000
b1000 b
b1001 n
1%
b111 s
#220000
0%
#230000
b1010 n
b1001 b
1%
b1000 s
#240000
0%
#250000
b1010 b
b1011 n
1%
b1001 s
#260000
0%
#270000
b1100 n
b1011 b
1%
b1010 s
#280000
0%
#290000
b1100 b
b1101 n
1%
b1011 s
#300000
0%
#310000
b1110 n
b1101 b
1%
b1100 s
#320000
0%
#330000
b1110 b
b1111 n
1%
b1101 s
#340000
0%
#350000
b10000 n
b1111 b
1%
b1110 s
#360000
0%
#370000
b10000 b
b10001 n
1%
b1111 s
#380000
0%
#390000
b10010 n
b10001 b
1%
b10000 s
#400000
0%
#410000
b10010 b
b10011 n
1%
b10001 s
#420000
0%
#430000
b10100 n
b10011 b
1%
b10010 s
#440000
0%
#450000
b10100 b
b10101 n
1%
b10011 s
#460000
0%
#470000
b10110 n
b10101 b
1%
b10100 s
#480000
0%
#490000
b10110 b
b10111 n
1%
b10101 s
#500000
0%
#510000
b11000 n
b10111 b
1%
b10110 s
#520000
0%
#530000
b11000 b
b11001 n
1%
b10111 s
#540000
0%
#550000
b11010 n
b11001 b
1%
b11000 s
#560000
0%
#570000
b11010 b
b11011 n
1%
b11001 s
#580000
0%
#590000
b11100 n
b11011 b
1%
b11010 s
#600000
0%
#610000
b11100 b
b11101 n
1%
b11011 s
#620000
0%
#630000
b11110 n
b1 c
1%
b11100 s
#640000
0%
#650000
b10 c
b11111 n
1%
b1 t
#660000
0%
#670000
b100000 n
b11 c
1%
b10 t
#680000
0%
#690000
b10 d
b100001 n
1%
b11 ,
b11 0
b11 `
b11 t
#700000
0%
#710000
b11111011001111101110001001001011 ^
b100000 _
b100010 n
b1 6
b1 F
b1 W
b1 \
b1 a
15
1%
b101001011010011010010110010000000101010100011001 (
b1 ,
b1 0
b1 `
b100 t
#720000
0%
#730000
b11100101011110011011001001000010 ^
b100000 _
b100110000010001110110110100 V
b100110000010001110110110100 [
b10 6
b10 F
b10 W
b10 \
b10 a
b1 L
b1000000 H
b11111011001111101110001001001011 ]
1Z
b100011 n
1%
b100101101001101001011001000000010101010001100110 (
b10 ,
b10 0
b10 `
b1 u
#740000
0%
#750000
b10011100011001001111001001100110 ^
b100000 _
b11010100001100100110110111101 V
b11010100001100100110110111101 [
b100100 n
b11100101011110011011001001000010 ]
b1 J
b10010000 H
1%
b10110100110100101100100000001010101000110011010 (
b10 u
#760000
0%
#770000
b1110001100100111100100110011000 ^
b100000 _
b1100011100110110000110110011001 V
b1100011100110110000110110011001 [
b1 6
b1 F
b1 W
b1 \
b1 a
b10 J
b10100100 H
b10011100011001001111001001100110 ]
b100101 n
1%
b11010011010010110010000000101010100011001101001 (
b1 ,
b1 0
b1 `
b11 u
#780000
0%
#790000
b11001011000011000000000010111001 ^
b100000 _
b10001110011011000011011001100111 V
b10001110011011000011011001100111 [
b100110 n
b1110001100100111100100110011000 ]
b11 J
b1101001 H
1%
b101001101001011001000000010101010001100110100101 (
b100 u
#800000
0%
#810000
b100101101100100011100110001010 ^
b100000 _
b110100111100111111111101000110 V
b110100111100111111111101000110 [
b10 6
b10 F
b10 W
b10 \
b10 a
b10 L
b0 J
1K
1?
b1 @
b1 G
b1 M
b1000000 I
b11001011000011000000000010111001 ]
b100111 n
1%
b100110100101100100000001010101000110011010010110 (
b10 ,
b10 0
b10 `
b101 u
#820000
0%
#830000
b10010010000010011111101110011111 ^
b100000 _
b11011010010011011100011001110101 V
b11011010010011011100011001110101 [
b101000 n
b100101101100100011100110001010 ]
b1 S
b1 R
b1 J
b10 @
b10 G
b10 M
b10010000 I
1%
b11010010110010000000101010100011001101001011010 (
b110 u
#840000
0%
#850000
b1001000001001111110111001111100 ^
b100000 _
b1101101111101100000010001100000 V
b1101101111101100000010001100000 [
b1 6
b1 F
b1 W
b1 \
b1 a
b10 J
b10100100 I
b1 P
b110 R
b10010010000010011111101110011111 ]
b101001 n
1%
b101001011001000000010101010001100110100101101001 (
b1 ,
b1 0
b1 `
b111 u
#860000
0%
#870000
b10110111110110000001000110000011 V
b10110111110110000001000110000011 [
b100000100111111011100111110000 ^
b100000 _
b101010 n
b1001000001001111110111001111100 ]
b10 P
b11010 R
b11 J
b1 @
b1 G
b1 M
b1101001 I
b10 6
b10 F
b10 W
b10 \
b10 a
1%
b100101100100000001010101000110011010010110100110 (
b10 ,
b10 0
b10 `
b1000 u
#880000
0%
#890000
b10000110101111111111101001110111 ^
b100000 _
b11011111011000000100011000001111 V
b11011111011000000100011000001111 [
b0 J
0K
b10011010 H
b11 P
b1101001 R
b100000100111111011100111110000 ]
b101011 n
1%
b10110010000000101010100011001101001011010011010 (
b1001 u
#900000
0%
#910000
b1111001010000000000010110001000 V
b1111001010000000000010110001000 [
b11010111111111110100111011100 ^
b100000 _
b101100 n
b10000110101111111111101001110111 ]
b100 P
b110100101 R
b1 J
b10 @
b10 G
b10 M
b10100110 H
b1 6
b1 F
b1 W
b1 \
b1 a
1%
b11001000000010101010001100110100101101001101001 (
b1 ,
b1 0
b1 `
b1010 u
#920000
0%
#930000
b1100010011111011001110000011110 ^
b100000 _
b11100101000000000001011000100011 V
b11100101000000000001011000100011 [
b10 J
b1101001 H
b101 P
b11010010110 R
b11010111111111110100111011100 ]
b101101 n
1%
b100100000001010101000110011010010110100110100101 (
b1011 u
#940000
0%
#950000
b10011101100000100110001111100001 V
b10011101100000100110001111100001 [
b10001001111101100111000001111000 ^
b100000 _
b101110 n
b1100010011111011001110000011110 ]
b110 P
b1101001011010 R
b11 J
b1 @
b1 G
b1 M
b1011010 H
b10 6
b10 F
b10 W
b10 \
b10 a
1%
b10000000101010100011001101001011010011010010110 (
b10 ,
b10 0
b10 `
b1100 u
#960000
0%
#970000
b100111110110011100000111100000 ^
b100000 _
b1110110000010011000111110000111 V
b1110110000010011000111110000111 [
b1 6
b1 F
b1 W
b1 \
b1 a
b0 J
1K
b10011010 I
b111 P
b110100101101001 R
b10001001111101100111000001111000 ]
b101111 n
1%
b10101010001100110100101101001101001011001 (
b1 ,
b1 0
b1 `
b1101 u
#980000
0%
#990000
b11011000001001100011111000011111 V
b11011000001001100011111000011111 [
b10011111011001110000011110000000 ^
b100000 _
b110000 n
b100111110110011100000111100000 ]
b1000 P
b11010010110100101 R
b1 J
b1100110 I
b0 6
b0 F
b0 W
b0 \
b0 a
1%
b1010101000110011010010110100110100101100100 (
b0 ,
b0 0
b0 `
b1110 u
#1000000
0%
#1010000
b1110100000111100010010101101110 ^
b100000 _
b1100000100110001111100001111111 V
b1100000100110001111100001111111 [
b10 J
b10 @
b10 G
b10 M
b11001 I
b1001 P
b1101001011010010101 R
b10011111011001110000011110000000 ]
b110001 n
1%
b101010100011001101001011010011010010110010000 (
b1111 u
#1020000
0%
#1030000
b11010100101110011000100000001111 ^
b100000 _
b10001011111000011101101010010001 V
b10001011111000011101101010010001 [
b110010 n
b1110100000111100010010101101110 ]
b1010 P
b110100101101001010110 R
b11 J
b110 I
1%
b10101010001100110100101101001101001011001000000 (
b10000 u
#1040000
0%
#1050000
b1010110001001110011110110001011 ^
b100000 _
b101011010001100111011111110000 V
b101011010001100111011111110000 [
b1 6
b1 F
b1 W
b1 \
b1 a
b0 J
0K
b0 @
b0 G
b0 M
b10110 H
b1011 P
b11010010110100101011010 R
b11010100101110011000100000001111 ]
b110011 n
1%
b10101000110011010010110100110100101100100000001 (
b1 ,
b1 0
b1 `
b10001 u
#1060000
0%
#1070000
b1010101110111111101000011110101 ^
b100000 _
b10101001110110001100001001110100 V
b10101001110110001100001001110100 [
b110100 n
b1010110001001110011110110001011 ]
b1100 P
b1101001011010010101101000 R
b1 J
b1000101 H
1%
b10100011001101001011010011010010110010000000101 (
b10010 u
#1080000
0%
#1090000
b1011010001111000110010100001101 ^
b100000 _
b10101010001000000010111100001010 V
b10101010001000000010111100001010 [
b10 J
b1 @
b1 G
b1 M
b1010001 H
b1101 P
b110100101101001010110100000 R
b1010101110111111101000011110101 ]
b110101 n
1%
b10001100110100101101001101001011001000000010101 (
b10011 u
#1100000
0%
#1110000
b1100101101100101011001011101101 ^
b100000 _
b10100101110000111001101011110010 V
b10100101110000111001101011110010 [
b110110 n
b1011010001111000110010100001101 ]
b1110 P
b11010010110100101011010000001 R
b11 J
b10 @
b10 G
b10 M
b1010100 H
1%
b110011010010110100110100101100100000001010101 (
b10100 u
#1120000
0%
#1130000
b10010010000010111101011000000011 ^
b100000 _
b10011010010011010100110100010010 V
b10011010010011010100110100010010 [
b0 6
b0 F
b0 W
b0 \
b0 a
b0 J
1K
b1 @
b1 G
b1 M
b1000001 I
b1111 P
b1101001011010010101101000000110 R
b1100101101100101011001011101101 ]
b110111 n
1%
b11001101001011010011010010110010000000101010100 (
b0 ,
b0 0
b0 `
b10101 u
#1140000
0%
#1150000
b1101101111101000010100111111100 V
b1101101111101000010100111111100 [
b1001000001011110101100000001100 ^
b100000 _
b111000 n
b10010010000010111101011000000011 ]
b10000 P
b110100101101001010110100000011001 R
b1 J
b10000 I
b1 6
b1 F
b1 W
b1 \
b1 a
1%
b100110100101101001101001011001000000010101010001 (
b1 ,
b1 0
b1 `
b10110 u
#1160000
0%
#1170000
b100000101111010110000000110000 ^
b100000 _
b10110111110100001010011111110011 V
b10110111110100001010011111110011 [
b10 6
b10 F
b10 W
b10 \
b10 a
b10 J
b1000100 I
b10001 P
b11010010110100101011010000001100101 R
b1001000001011110101100000001100 ]
b111001 n
1%
b11010010110100110100101100100000001010101000110 (
b10 ,
b10 0
b10 `
b10111 u
#1180000
0%
#1190000
b11011111010000101001111111001111 V
b11011111010000101001111111001111 [
b10001011011101111011101110101110 ^
b100000 _
b111010 n
b100000101111010110000000110000 ]
b10010 P
b1101001011010010101101000000110010101 R
b11 J
b0 @
b0 G
b0 M
b10010001 I
b1 6
b1 F
b1 W
b1 \
b1 a
1%
b101001011010011010010110010000000101010000011001 .
b1 ,
b1 0
b1 `
b11000 u
#1200000
0%
#1210000
b100000100111011100100001100001 ^
b100000 _
b1110100100010000100010001010001 V
b1110100100010000100010001010001 [
b10 6
b10 F
b10 W
b10 \
b10 a
b0 J
0K
b10 @
b10 G
b10 M
b1010101 H
b10011 P
b110100101101001010110100000011001010100 R
b10001011011101111011101110101110 ]
b111011 n
1%
b100101101001101001011001000000010101000001100110 .
b10 ,
b10 0
b10 `
b1 v
#1220000
0%
#1230000
b10000110101101100011110000110011 ^
b100000 _
b11011111011000100011011110011110 V
b11011111011000100011011110011110 [
b111100 n
b100000100111011100100001100001 ]
b10100 P
b11010010110100101011010000001100101010010 R
b1 J
b1 @
b1 G
b1 M
b10010101 H
1%
b10110100110100101100100000001010100000110011010 .
b10 v
#1240000
0%
#1250000
b11010110110001111000011001100 ^
b100000 _
b1111001010010011100001111001100 V
b1111001010010011100001111001100 [
b1 6
b1 F
b1 W
b1 \
b1 a
b10 J
b0 @
b0 G
b0 M
b10100101 H
b10101 P
b1101001011010010101101000000110010101001001 R
b10000110101101100011110000110011 ]
b111101 n
1%
b11010011010010110010000000101010000011001101001 .
b1 ,
b1 0
b1 `
b11 v
#1260000
0%
#1270000
b1100010111000011111100001011110 ^
b100000 _
b11100101001001110000111100110011 V
b11100101001001110000111100110011 [
b111110 n
b11010110110001111000011001100 ]
b10110 P
b110100101101001010110100000011001010100100100 R
b11 J
b1 @
b1 G
b1 M
b1101001 H
1%
b101001101001011001000000010101000001100110100101 .
b100 v
#1280000
0%
#1290000
b10001011100001111110000101111000 ^
b100000 _
b10011101000111100000011110100001 V
b10011101000111100000011110100001 [
b10 6
b10 F
b10 W
b10 \
b10 a
b0 J
1K
b1100100 I
b10111 P
b11010010110100101011010000001100101010010010001 R
b1100010111000011111100001011110 ]
b111111 n
1%
b100110100101100100000001010100000110011010010110 .
b10 ,
b10 0
b10 `
b101 v
#1300000
0%
#1310000
b100011010111001010001100111001 ^
b100000 _
b1110100011110000001111010000111 V
b1110100011110000001111010000111 [
b1000000 n
b10001011100001111110000101111000 ]
b10 S
b11000 P
b1 J
b10 @
b10 G
b10 M
b10011001 I
1%
b11010010110010000000101010000011001101001011010 .
b110 v
#1320000
0%
#1330000
b10000100111100001011011110001010 ^
b100000 _
b11011100101000110101110011000110 V
b11011100101000110101110011000110 [
b1 6
b1 F
b1 W
b1 \
b1 a
b10 J
b10100110 I
b11001 P
b100011010111001010001100111001 ]
b1000001 n
1%
b101001011001000000010101000001100110100101101001 .
b1 ,
b1 0
b1 `
b111 v
#1340000
0%
#1350000
b1111011000011110100100001110101 V
b1111011000011110100100001110101 [
b11110100000011111100011110001 ^
b100000 _
b1000010 n
b10000100111100001011011110001010 ]
b11010 P
b11 J
b1 @
b1 G
b1 M
b1101001 I
b10 6
b10 F
b10 W
b10 \
b10 a
1%
b100101100100000001010100000110011010010110100110 .
b10 ,
b10 0
b10 `
b1000 v
#1360000
0%
#1370000
b1111110110001101111111001110011 ^
b100000 _
b11100001011111100000011100001110 V
b11100001011111100000011100001110 [
b0 J
0K
b10011010 H
b11011 P
b11110100000011111100011110001 ]
b1000011 n
1%
b10110010000000101010000011001101001011010011010 .
b1001 v
#1380000
0%
#1390000
b10000001001110010000000110001100 V
b10000001001110010000000110001100 [
b11110110010110001101111100010101 ^
b100000 _
b1000100 n
b1111110110001101111111001110011 ]
b11100 P
b1 J
b10 @
b10 G
b10 M
b10100110 H
b1 6
b1 F
b1 W
b1 \
b1 a
1%
b11001000000010101000001100110100101101001101001 .
b1 ,
b1 0
b1 `
b1010 v
#1400000
0%
#1410000
b11011101101000100110000111100011 ^
b100000 _
b1001101001110010000011101010 V
b1001101001110010000011101010 [
b10 J
b1101001 H
b11101 P
b11110110010110001101111100010101 ]
b1000101 n
1%
b100100000001010100000110011010010110100110100101 .
b1011 v
#1420000
0%
#1430000
b100010010111011001111000011100 V
b100010010111011001111000011100 [
b1111111000010111011110011100010 ^
b100000 _
b1000110 n
b11011101101000100110000111100011 ]
b11110 P
b11 J
b1 @
b1 G
b1 M
b1011010 H
b10 6
b10 F
b10 W
b10 \
b10 a
1%
b10000000101010000011001101001011010011010010110 .
b10 ,
b10 0
b10 `
b1100 v
#1440000
0%
#1450000
b11110001011011011101010101010001 ^
b100000 _
b10000000111101000100001100011101 V
b10000000111101000100001100011101 [
b1 6
b1 F
b1 W
b1 \
b1 a
b0 J
1K
b10011010 I
b11111 P
b1111111000010111011110011100010 ]
b1000111 n
1%
b10101000001100110100101101001101001011001 .
b1 ,
b1 0
b1 `
b1101 v
#1460000
0%
#1470000
b1110100100100010101010101110 V
b1110100100100010101010101110 [
b11001000111101000111001110011101 ^
b100000 _
b1001000 n
b11110001011011011101010101010001 ]
b100000 P
b1 J
b1100110 I
b0 6
b0 F
b0 W
b0 \
b0 a
1%
b1010100000110011010010110100110100101100100 .
b0 ,
b0 0
b0 `
b1110 v
#1480000
0%
#1490000
b101110100100101110100010101101 ^
b100000 _
b110111000010111000110001100010 V
b110111000010111000110001100010 [
b10 J
b10 @
b10 G
b10 M
b11001 I
b100001 P
b11001000111101000111001110011101 ]
b1001001 n
1%
b101010000011001101001011010011010010110010000 .
b1111 v
#1500000
0%
#1510000
b10111010010010111010001010110100 ^
b100000 _
b11010001011011010001011101010010 V
b11010001011011010001011101010010 [
b1001010 n
b101110100100101110100010101101 ]
b100010 P
b11 J
b110 I
1%
b10101000001100110100101101001101001011001000000 .
b10000 v
#1520000
0%
#1530000
b11101001001011101000101011010000 ^
b100000 _
b1000101101101000101110101001011 V
b1000101101101000101110101001011 [
b1 6
b1 F
b1 W
b1 \
b1 a
b0 J
0K
b0 @
b0 G
b0 M
b10110 H
b100011 P
b10111010010010111010001010110100 ]
b1001011 n
1%
b10100000110011010010110100110100101100100000001 .
b1 ,
b1 0
b1 `
b10001 v
#1540000
0%
#1550000
b10100000011110110011011011110111 ^
b100000 _
b10110110100010111010100101111 V
b10110110100010111010100101111 [
b1001100 n
b11101001001011101000101011010000 ]
b100100 P
b1 J
b1000101 H
1%
b10000011001101001011010011010010110010000000101 .
b10010 v
#1560000
0%
#1570000
b10000001111011001101101111011100 ^
b100000 _
b1011111100001001100100100001000 V
b1011111100001001100100100001000 [
b10 J
b1 @
b1 G
b1 M
b1010001 H
b100101 P
b10100000011110110011011011110111 ]
b1001101 n
1%
b1100110100101101001101001011001000000010101 .
b10011 v
#1580000
0%
#1590000
b1111110000100110010010000100011 V
b1111110000100110010010000100011 [
b1110001100010101010000011110 ^
b100000 _
b1001110 n
b10000001111011001101101111011100 ]
b100110 P
b11 J
b10 @
b10 G
b10 M
b1010100 H
b0 6
b0 F
b0 W
b0 \
b0 a
1%
b110011010010110100110100101100100000001010100 .
b0 ,
b0 0
b0 `
b10100 v
#1600000
0%
#1610000
b111000110001010101000001111000 ^
b100000 _
b11110001110011101010101111100001 V
b11110001110011101010101111100001 [
b0 J
1K
b1 @
b1 G
b1 M
b1 I
b100111 P
b1110001100010101010000011110 ]
b1001111 n
1%
b11001101001011010011010010110010000000101010000 .
b10101 v
#1620000
0%
#1630000
b11000111001110101010111110000111 V
b11000111001110101010111110000111 [
b11101010100101110111101010001110 ^
b100000 _
b1010000 n
b111000110001010101000001111000 ]
b101000 P
b1 J
b0 I
b1 6
b1 F
b1 W
b1 \
b1 a
1%
b100110100101101001101001011001000000010101000001 .
b1 ,
b1 0
b1 `
b10110 v
#1640000
0%
#1650000
b10100011110111111101000101010110 ^
b100000 _
b10101011010001000010101110001 V
b10101011010001000010101110001 [
b10 6
b10 F
b10 W
b10 \
b10 a
b10 J
b1000000 I
b101001 P
b11101010100101110111101010001110 ]
b1010001 n
1%
b11010010110100110100101100100000001010100000110 .
b10 ,
b10 0
b10 `
b10111 v
#1660000
0%
#1670000
b1011100001000000010111010101001 V
b1011100001000000010111010101001 [
b10001111011111110100010101011000 ^
b100000 _
b1010010 n
b10100011110111111101000101010110 ]
b101010 P
b11 J
b0 @
b0 G
b0 M
b10010000 I
b1 6
b1 F
b1 W
b1 \
b1 a
1%
b1 ,
b1 0
b1 `
b11000 v
#1680000
0%
#1690000
b110100011111110010111000001110 ^
b100000 _
b1110000100000001011101010100111 V
b1110000100000001011101010100111 [
b0 6
b0 F
b0 W
b0 \
b0 a
b0 J
0K
b10 @
b10 G
b10 M
b1010101 H
b101011 P
b10001111011111110100010101011000 ]
b1010011 n
1%
b0 ,
b0 0
b0 `
b1 w
#1700000
0%
#1710000
b11010001111111001011100000111000 ^
b100000 _
b11001011100000001101000111110001 V
b11001011100000001101000111110001 [
b1010100 n
b110100011111110010111000001110 ]
b101100 P
b1 J
b1 @
b1 G
b1 M
b10101 H
1%
b10 w
#1720000
0%
#1730000
b1001010101100011100011000111001 ^
b100000 _
b101110000000110100011111000111 V
b101110000000110100011111000111 [
b10 J
b0 @
b0 G
b0 M
b101 H
b101101 P
b11010001111111001011100000111000 ]
b1010101 n
1%
b11 w
#1740000
0%
#1750000
b10110101010011100011100111000110 V
b10110101010011100011100111000110 [
b100111100001000011111000111101 ^
b100000 _
b1010110 n
b1001010101100011100011000111001 ]
b101110 P
b11 J
b1 H
b1 6
b1 F
b1 W
b1 \
b1 a
1%
b1 ,
b1 0
b1 `
b100 w
#1760000
0%
#1770000
b10011110000100001111100011110100 ^
b100000 _
b11011000011110111100000111000010 V
b11011000011110111100000111000010 [
b0 6
b0 F
b0 W
b0 \
b0 a
b0 J
1K
b1100100 I
b101111 P
b100111100001000011111000111101 ]
b1010111 n
1%
b0 ,
b0 0
b0 `
b101 w
#1780000
0%
#1790000
b1110001110000011101100010111110 ^
b100000 _
b1100001111011110000011100001011 V
b1100001111011110000011100001011 [
b1011000 n
b10011110000100001111100011110100 ]
b110000 P
b1 J
b11001 I
1%
b110 w
#1800000
0%
#1810000
b11000011110001100111111101001111 ^
b100000 _
b10001110001111100010011101000001 V
b10001110001111100010011101000001 [
b10 J
b110 I
b110001 P
b1110001110000011101100010111110 ]
b1011001 n
1%
b111 w
#1820000
0%
#1830000
b111100001110011000000010110000 V
b111100001110011000000010110000 [
b110100110111100011001010010 ^
b100000 _
b1011010 n
b11000011110001100111111101001111 ]
b110010 P
b11 J
b1 @
b1 G
b1 M
b1 I
b10 6
b10 F
b10 W
b10 \
b10 a
1%
b10 ,
b10 0
b10 `
b100000 x
b1000 w
#1840000
0%
#1850000
b10111001011000011111110010001 ^
b100000 _
b11111001011001000011100110101101 V
b11111001011001000011100110101101 [
b11 6
b11 F
b11 W
b11 \
b11 a
b0 J
0K
b0 @
b0 G
b0 M
b10000000 H
b110011 P
b110100110111100011001010010 ]
b1011011 n
1%
b11 ,
b11 0
b11 `
b11110 x
#1860000
0%
#1870000
b1010001111100111101100010011101 ^
b100000 _
b11101000110100111100000001101110 V
b11101000110100111100000001101110 [
b1011100 n
b10111001011000011111110010001 ]
b110100 P
b1 J
b11100000 H
1%
b11100 x
#1880000
0%
#1890000
b1001110010011010101100100011010 ^
b100000 _
b10101110000011000010011101100010 V
b10101110000011000010011101100010 [
b10 J
b11111000 H
b110101 P
b1010001111100111101100010011101 ]
b1011101 n
1%
b11010 x
#1900000
0%
#1910000
b10110001101100101010011011100101 V
b10110001101100101010011011100101 [
b110100011101100100001010110001 ^
b100000 _
b1011110 n
b1001110010011010101100100011010 ]
b110110 P
b11 J
b1 @
b1 G
b1 M
b11111110 H
b1 6
b1 F
b1 W
b1 \
b1 a
1%
b1 ,
b1 0
b1 `
b11000 x
#1920000
0%
