networking/obj/rether.vcd
$date
	Wed Nov 23 11:27:42 2022
$end
$version
	Icarus Verilog
$end
$timescale
	1ps
$end
$scope module ether_tb $end
$var wire 1 ! axiov $end
$var wire 2 " axiod [1:0] $end
$var reg 1 # clk_in $end
$var reg 1 $ crsdv $end
$var reg 16 % data [15:0] $end
$var reg 48 & destination [47:0] $end
$var reg 32 ' fcs [31:0] $end
$var reg 16 ( length [15:0] $end
$var reg 352 ) padding [351:0] $end
$var reg 56 * preamble [55:0] $end
$var reg 1 + rst_in $end
$var reg 2 , rxd [1:0] $end
$var reg 8 - sfd [7:0] $end
$var reg 48 . source [47:0] $end
$scope module uut $end
$var wire 1 # clk $end
$var wire 1 $ crsdv $end
$var wire 1 + rst $end
$var wire 2 / rxd [1:0] $end
$var reg 2 0 axiod [1:0] $end
$var reg 1 ! axiov $end
$var reg 5 1 preamble_count [4:0] $end
$var reg 2 2 sfd_count [1:0] $end
$var reg 3 3 state [2:0] $end
$upscope $end
$scope begin $ivl_for_loop0 $end
$var integer 32 4 i [31:0] $end
$upscope $end
$scope begin $ivl_for_loop1 $end
$var integer 32 5 i [31:0] $end
$upscope $end
$upscope $end
$enddefinitions $end
#0
$dumpvars
b0 5
b0 4
bx 3
bx 2
bx 1
bx 0
bx /
b111111010111010100110000000010001100001010010110 .
b11101010 -
bx ,
x+
b1010101010101010101010101010101010101010101010101010101 *
b0 )
b1000000000 (
b11100011000111110110110010011000 '
b111111111111111111111111111111111111111111111111 &
b11010000010010 %
x$
0#
bx "
x!
$end
#10000
0+
1#
#20000
0#
#30000
0!
b0 2
b0 1
b0 3
1#
1+
#40000
0#
#50000
1#
0+
#60000
0#
#70000
1#
#80000
0#
#90000
1#
#100000
0#
#110000
1#
#120000
0#
#130000
1#
#140000
0#
#150000
1#
1$
#160000
0#
#170000
b1 1
b1 3
1#
b1 ,
b1 /
#180000
0#
#190000
b10 1
1#
b1 4
#200000
0#
#210000
b11 1
1#
b10 4
#220000
0#
#230000
b100 1
1#
b11 4
#240000
0#
#250000
b101 1
1#
b100 4
#260000
0#
#270000
b110 1
1#
b101 4
#280000
0#
#290000
b111 1
1#
b110 4
#300000
0#
#310000
b1000 1
1#
b111 4
#320000
0#
#330000
b1001 1
1#
b1000 4
#340000
0#
#350000
b1010 1
1#
b1001 4
#360000
0#
#370000
b1011 1
1#
b1010 4
#380000
0#
#390000
b1100 1
1#
b1011 4
#400000
0#
#410000
b1101 1
1#
b1100 4
#420000
0#
#430000
b1110 1
1#
b1101 4
#440000
0#
#450000
b1111 1
1#
b1110 4
#460000
0#
#470000
b10000 1
1#
b1111 4
#480000
0#
#490000
b10001 1
1#
b10000 4
#500000
0#
#510000
b10010 1
1#
b10001 4
#520000
0#
#530000
b10011 1
1#
b10010 4
#540000
0#
#550000
b10100 1
1#
b10011 4
#560000
0#
#570000
b10101 1
1#
b10100 4
#580000
0#
#590000
b10110 1
1#
b10101 4
#600000
0#
#610000
b10111 1
1#
b10110 4
#620000
0#
#630000
b11000 1
1#
b10111 4
#640000
0#
#650000
b11001 1
1#
b11000 4
#660000
0#
#670000
b11010 1
1#
b11001 4
#680000
0#
#690000
b11011 1
1#
b11010 4
#700000
0#
#710000
b11100 1
1#
b11011 4
#720000
0#
#730000
b1 2
1#
b11100 4
#740000
0#
#750000
b10 2
1#
b11101 4
#760000
0#
#770000
b11 2
1#
b11110 4
#780000
0#
#790000
b10 3
1#
b11 ,
b11 /
b11111 4
#800000
0#
#810000
b11 "
b11 0
1!
1#
b100000 4
#820000
0#
#830000
1#
b100001 4
#840000
0#
#850000
1#
b100010 4
#860000
0#
#870000
1#
b100011 4
#880000
0#
#890000
1#
b100100 4
#900000
0#
#910000
1#
b100101 4
#920000
0#
#930000
1#
b100110 4
#940000
0#
#950000
1#
b100111 4
#960000
0#
#970000
1#
b101000 4
#980000
0#
#990000
1#
b101001 4
#1000000
0#
#1010000
1#
b101010 4
#1020000
0#
#1030000
1#
b101011 4
#1040000
0#
#1050000
1#
b101100 4
#1060000
0#
#1070000
1#
b101101 4
#1080000
0#
#1090000
1#
b101110 4
#1100000
0#
#1110000
1#
b101111 4
#1120000
0#
#1130000
1#
b110000 4
#1140000
0#
#1150000
1#
b110001 4
#1160000
0#
#1170000
1#
b110010 4
#1180000
0#
#1190000
1#
b110011 4
#1200000
0#
#1210000
1#
b110100 4
#1220000
0#
#1230000
1#
b110101 4
#1240000
0#
#1250000
1#
b110110 4
#1260000
0#
#1270000
1#
b110111 4
#1280000
0#
#1290000
b10 "
b10 0
1#
b101111110101110101001100000000100011000010100101 .
b10 ,
b10 /
b111000 4
#1300000
0#
#1310000
b1 "
b1 0
1#
b11011111101011101010011000000001000110000101001 .
b1 ,
b1 /
b111001 4
#1320000
0#
#1330000
1#
b10110111111010111010100110000000010001100001010 .
b111010 4
#1340000
0#
#1350000
b10 "
b10 0
1#
b100101101111110101110101001100000000100011000010 .
b10 ,
b10 /
b111011 4
#1360000
0#
#1370000
1#
b101001011011111101011101010011000000001000110000 .
b111100 4
#1380000
0#
#1390000
b0 "
b0 0
1#
b1010010110111111010111010100110000000010001100 .
b0 ,
b0 /
b111101 4
#1400000
0#
#1410000
1#
b10100101101111110101110101001100000000100011 .
b111110 4
#1420000
0#
#1430000
b11 "
b11 0
1#
b110000101001011011111101011101010011000000001000 .
b11 ,
b11 /
b111111 4
#1440000
0#
#1450000
b0 "
b0 0
1#
b1100001010010110111111010111010100110000000010 .
b0 ,
b0 /
b1000000 4
#1460000
0#
#1470000
b10 "
b10 0
1#
b100011000010100101101111110101110101001100000000 .
b10 ,
b10 /
b1000001 4
#1480000
0#
#1490000
b0 "
b0 0
1#
b1000110000101001011011111101011101010011000000 .
b0 ,
b0 /
b1000010 4
#1500000
0#
#1510000
1#
b10001100001010010110111111010111010100110000 .
b1000011 4
#1520000
0#
#1530000
1#
b100011000010100101101111110101110101001100 .
b1000100 4
#1540000
0#
#1550000
1#
b1000110000101001011011111101011101010011 .
b1000101 4
#1560000
0#
#1570000
b11 "
b11 0
1#
b110000000010001100001010010110111111010111010100 .
b11 ,
b11 /
b1000110 4
#1580000
0#
#1590000
b0 "
b0 0
1#
b1100000000100011000010100101101111110101110101 .
b0 ,
b0 /
b1000111 4
#1600000
0#
#1610000
b1 "
b1 0
1#
b10011000000001000110000101001011011111101011101 .
b1 ,
b1 /
b1001000 4
#1620000
0#
#1630000
1#
b10100110000000010001100001010010110111111010111 .
b1001001 4
#1640000
0#
#1650000
b11 "
b11 0
1#
b110101001100000000100011000010100101101111110101 .
b11 ,
b11 /
b1001010 4
#1660000
0#
#1670000
b1 "
b1 0
1#
b11101010011000000001000110000101001011011111101 .
b1 ,
b1 /
b1001011 4
#1680000
0#
#1690000
1#
b10111010100110000000010001100001010010110111111 .
b1001100 4
#1700000
0#
#1710000
b11 "
b11 0
1#
b110101110101001100000000100011000010100101101111 .
b11 ,
b11 /
b1001101 4
#1720000
0#
#1730000
1#
b111101011101010011000000001000110000101001011011 .
b1001110 4
#1740000
0#
#1750000
1#
b111111010111010100110000000010001100001010010110 .
b1001111 4
#1760000
0#
#1770000
b0 "
b0 0
1#
b0 ,
b0 /
b1010000 4
#1780000
0#
#1790000
1#
b1010001 4
#1800000
0#
#1810000
1#
b1010010 4
#1820000
0#
#1830000
1#
b1010011 4
#1840000
0#
#1850000
b10 "
b10 0
1#
b10 ,
b10 /
b1010100 4
#1860000
0#
#1870000
b0 "
b0 0
1#
b0 ,
b0 /
b1010101 4
#1880000
0#
#1890000
1#
b1010110 4
#1900000
0#
#1910000
1#
b1010111 4
#1920000
0#
#1930000
b10 "
b10 0
1#
b1000110100000100 %
b10 ,
b10 /
b1011000 4
#1940000
0#
#1950000
b0 "
b0 0
1#
b10001101000001 %
b0 ,
b0 /
b1011001 4
#1960000
0#
#1970000
b1 "
b1 0
1#
b100100011010000 %
b1 ,
b1 /
b1011010 4
#1980000
0#
#1990000
b0 "
b0 0
1#
b1001000110100 %
b0 ,
b0 /
b1011011 4
#2000000
0#
#2010000
1#
b10010001101 %
b1011100 4
#2020000
0#
#2030000
b1 "
b1 0
1#
b100000100100011 %
b1 ,
b1 /
b1011101 4
#2040000
0#
#2050000
b11 "
b11 0
1#
b1101000001001000 %
b11 ,
b11 /
b1011110 4
#2060000
0#
#2070000
b0 "
b0 0
1#
b11010000010010 %
b0 ,
b0 /
b1011111 4
#2080000
0#
#2090000
1#
b1100000 4
#2100000
0#
#2110000
1#
b1100001 4
#2120000
0#
#2130000
1#
b1100010 4
#2140000
0#
#2150000
1#
b1100011 4
#2160000
0#
#2170000
1#
b1100100 4
#2180000
0#
#2190000
1#
b1100101 4
#2200000
0#
#2210000
1#
b1100110 4
#2220000
0#
#2230000
1#
b1100111 4
#2240000
0#
#2250000
1#
b1101000 4
#2260000
0#
#2270000
1#
b1101001 4
#2280000
0#
#2290000
1#
b1101010 4
#2300000
0#
#2310000
1#
b1101011 4
#2320000
0#
#2330000
1#
b1101100 4
#2340000
0#
#2350000
1#
b1101101 4
#2360000
0#
#2370000
1#
b1101110 4
#2380000
0#
#2390000
1#
b1101111 4
#2400000
0#
#2410000
1#
b1110000 4
#2420000
0#
#2430000
1#
b1110001 4
#2440000
0#
#2450000
1#
b1110010 4
#2460000
0#
#2470000
1#
b1110011 4
#2480000
0#
#2490000
1#
b1110100 4
#2500000
0#
#2510000
1#
b1110101 4
#2520000
0#
#2530000
1#
b1110110 4
#2540000
0#
#2550000
1#
b1110111 4
#2560000
0#
#2570000
1#
b1111000 4
#2580000
0#
#2590000
1#
b1111001 4
#2600000
0#
#2610000
1#
b1111010 4
#2620000
0#
#2630000
1#
b1111011 4
#2640000
0#
#2650000
1#
b1111100 4
#2660000
0#
#2670000
1#
b1111101 4
#2680000
0#
#2690000
1#
b1111110 4
#2700000
0#
#2710000
1#
b1111111 4
#2720000
0#
#2730000
1#
b10000000 4
#2740000
0#
#2750000
1#
b10000001 4
#2760000
0#
#2770000
1#
b10000010 4
#2780000
0#
#2790000
1#
b10000011 4
#2800000
0#
#2810000
1#
b10000100 4
#2820000
0#
#2830000
1#
b10000101 4
#2840000
0#
#2850000
1#
b10000110 4
#2860000
0#
#2870000
1#
b10000111 4
#2880000
0#
#2890000
1#
b10001000 4
#2900000
0#
#2910000
1#
b10001001 4
#2920000
0#
#2930000
1#
b10001010 4
#2940000
0#
#2950000
1#
b10001011 4
#2960000
0#
#2970000
1#
b10001100 4
#2980000
0#
#2990000
1#
b10001101 4
#3000000
0#
#3010000
1#
b10001110 4
#3020000
0#
#3030000
1#
b10001111 4
#3040000
0#
#3050000
1#
b10010000 4
#3060000
0#
#3070000
1#
b10010001 4
#3080000
0#
#3090000
1#
b10010010 4
#3100000
0#
#3110000
1#
b10010011 4
#3120000
0#
#3130000
1#
b10010100 4
#3140000
0#
#3150000
1#
b10010101 4
#3160000
0#
#3170000
1#
b10010110 4
#3180000
0#
#3190000
1#
b10010111 4
#3200000
0#
#3210000
1#
b10011000 4
#3220000
0#
#3230000
1#
b10011001 4
#3240000
0#
#3250000
1#
b10011010 4
#3260000
0#
#3270000
1#
b10011011 4
#3280000
0#
#3290000
1#
b10011100 4
#3300000
0#
#3310000
1#
b10011101 4
#3320000
0#
#3330000
1#
b10011110 4
#3340000
0#
#3350000
1#
b10011111 4
#3360000
0#
#3370000
1#
b10100000 4
#3380000
0#
#3390000
1#
b10100001 4
#3400000
0#
#3410000
1#
b10100010 4
#3420000
0#
#3430000
1#
b10100011 4
#3440000
0#
#3450000
1#
b10100100 4
#3460000
0#
#3470000
1#
b10100101 4
#3480000
0#
#3490000
1#
b10100110 4
#3500000
0#
#3510000
1#
b10100111 4
#3520000
0#
#3530000
1#
b10101000 4
#3540000
0#
#3550000
1#
b10101001 4
#3560000
0#
#3570000
1#
b10101010 4
#3580000
0#
#3590000
1#
b10101011 4
#3600000
0#
#3610000
1#
b10101100 4
#3620000
0#
#3630000
1#
b10101101 4
#3640000
0#
#3650000
1#
b10101110 4
#3660000
0#
#3670000
1#
b10101111 4
#3680000
0#
#3690000
1#
b10110000 4
#3700000
0#
#3710000
1#
b10110001 4
#3720000
0#
#3730000
1#
b10110010 4
#3740000
0#
#3750000
1#
b10110011 4
#3760000
0#
#3770000
1#
b10110100 4
#3780000
0#
#3790000
1#
b10110101 4
#3800000
0#
#3810000
1#
b10110110 4
#3820000
0#
#3830000
1#
b10110111 4
#3840000
0#
#3850000
1#
b10111000 4
#3860000
0#
#3870000
1#
b10111001 4
#3880000
0#
#3890000
1#
b10111010 4
#3900000
0#
#3910000
1#
b10111011 4
#3920000
0#
#3930000
1#
b10111100 4
#3940000
0#
#3950000
1#
b10111101 4
#3960000
0#
#3970000
1#
b10111110 4
#3980000
0#
#3990000
1#
b10111111 4
#4000000
0#
#4010000
1#
b11000000 4
#4020000
0#
#4030000
1#
b11000001 4
#4040000
0#
#4050000
1#
b11000010 4
#4060000
0#
#4070000
1#
b11000011 4
#4080000
0#
#4090000
1#
b11000100 4
#4100000
0#
#4110000
1#
b11000101 4
#4120000
0#
#4130000
1#
b11000110 4
#4140000
0#
#4150000
1#
b11000111 4
#4160000
0#
#4170000
1#
b11001000 4
#4180000
0#
#4190000
1#
b11001001 4
#4200000
0#
#4210000
1#
b11001010 4
#4220000
0#
#4230000
1#
b11001011 4
#4240000
0#
#4250000
1#
b11001100 4
#4260000
0#
#4270000
1#
b11001101 4
#4280000
0#
#4290000
1#
b11001110 4
#4300000
0#
#4310000
1#
b11001111 4
#4320000
0#
#4330000
1#
b11010000 4
#4340000
0#
#4350000
1#
b11010001 4
#4360000
0#
#4370000
1#
b11010010 4
#4380000
0#
#4390000
1#
b11010011 4
#4400000
0#
#4410000
1#
b11010100 4
#4420000
0#
#4430000
1#
b11010101 4
#4440000
0#
#4450000
1#
b11010110 4
#4460000
0#
#4470000
1#
b11010111 4
#4480000
0#
#4490000
1#
b11011000 4
#4500000
0#
#4510000
1#
b11011001 4
#4520000
0#
#4530000
1#
b11011010 4
#4540000
0#
#4550000
1#
b11011011 4
#4560000
0#
#4570000
1#
b11011100 4
#4580000
0#
#4590000
1#
b11011101 4
#4600000
0#
#4610000
1#
b11011110 4
#4620000
0#
#4630000
1#
b11011111 4
#4640000
0#
#4650000
1#
b11100000 4
#4660000
0#
#4670000
1#
b11100001 4
#4680000
0#
#4690000
1#
b11100010 4
#4700000
0#
#4710000
1#
b11100011 4
#4720000
0#
#4730000
1#
b11100100 4
#4740000
0#
#4750000
1#
b11100101 4
#4760000
0#
#4770000
1#
b11100110 4
#4780000
0#
#4790000
1#
b11100111 4
#4800000
0#
#4810000
1#
b11101000 4
#4820000
0#
#4830000
1#
b11101001 4
#4840000
0#
#4850000
1#
b11101010 4
#4860000
0#
#4870000
1#
b11101011 4
#4880000
0#
#4890000
1#
b11101100 4
#4900000
0#
#4910000
1#
b11101101 4
#4920000
0#
#4930000
1#
b11101110 4
#4940000
0#
#4950000
1#
b11101111 4
#4960000
0#
#4970000
1#
b11110000 4
#4980000
0#
#4990000
1#
b11110001 4
#5000000
0#
#5010000
1#
b11110010 4
#5020000
0#
#5030000
1#
b11110011 4
#5040000
0#
#5050000
1#
b11110100 4
#5060000
0#
#5070000
1#
b11110101 4
#5080000
0#
#5090000
1#
b11110110 4
#5100000
0#
#5110000
1#
b11110111 4
#5120000
0#
#5130000
1#
b11111000 4
#5140000
0#
#5150000
1#
b11111001 4
#5160000
0#
#5170000
1#
b11111010 4
#5180000
0#
#5190000
1#
b11111011 4
#5200000
0#
#5210000
1#
b11111100 4
#5220000
0#
#5230000
1#
b11111101 4
#5240000
0#
#5250000
1#
b11111110 4
#5260000
0#
#5270000
1#
b11111111 4
#5280000
0#
#5290000
1#
b100000000 4
#5300000
0#
#5310000
1#
b100000001 4
#5320000
0#
#5330000
1#
b100000010 4
#5340000
0#
#5350000
1#
b100000011 4
#5360000
0#
#5370000
1#
b100000100 4
#5380000
0#
#5390000
1#
b100000101 4
#5400000
0#
#5410000
1#
b100000110 4
#5420000
0#
#5430000
1#
b100000111 4
#5440000
0#
#5450000
1#
b100001000 4
#5460000
0#
#5470000
1#
b100001001 4
#5480000
0#
#5490000
1#
b100001010 4
#5500000
0#
#5510000
1#
b100001011 4
#5520000
0#
#5530000
1#
b100001100 4
#5540000
0#
#5550000
1#
b100001101 4
#5560000
0#
#5570000
1#
b100001110 4
#5580000
0#
#5590000
1#
b100001111 4
#5600000
0#
#5610000
1#
b111000110001111101101100100110 '
b100010000 4
#5620000
0#
#5630000
b10 "
b10 0
1#
b10001110001100011111011011001001 '
b10 ,
b10 /
b100010001 4
#5640000
0#
#5650000
b1 "
b1 0
1#
b1100011100011000111110110110010 '
b1 ,
b1 /
b100010010 4
#5660000
0#
#5670000
b10 "
b10 0
1#
b10011000111000110001111101101100 '
b10 ,
b10 /
b100010011 4
#5680000
0#
#5690000
b0 "
b0 0
1#
b100110001110001100011111011011 '
b0 ,
b0 /
b100010100 4
#5700000
0#
#5710000
b11 "
b11 0
1#
b11001001100011100011000111110110 '
b11 ,
b11 /
b100010101 4
#5720000
0#
#5730000
b10 "
b10 0
1#
b10110010011000111000110001111101 '
b10 ,
b10 /
b100010110 4
#5740000
0#
#5750000
b1 "
b1 0
1#
b1101100100110001110001100011111 '
b1 ,
b1 /
b100010111 4
#5760000
0#
#5770000
b11 "
b11 0
1#
b11011011001001100011100011000111 '
b11 ,
b11 /
b100011000 4
#5780000
0#
#5790000
1#
b11110110110010011000111000110001 '
b100011001 4
#5800000
0#
#5810000
b1 "
b1 0
1#
b1111101101100100110001110001100 '
b1 ,
b1 /
b100011010 4
#5820000
0#
#5830000
b0 "
b0 0
1#
b11111011011001001100011100011 '
b0 ,
b0 /
b100011011 4
#5840000
0#
#5850000
b11 "
b11 0
1#
b11000111110110110010011000111000 '
b11 ,
b11 /
b100011100 4
#5860000
0#
#5870000
b0 "
b0 0
1#
b110001111101101100100110001110 '
b0 ,
b0 /
b100011101 4
#5880000
0#
#5890000
b10 "
b10 0
1#
b10001100011111011011001001100011 '
b10 ,
b10 /
b100011110 4
#5900000
0#
#5910000
b11 "
b11 0
1#
b11100011000111110110110010011000 '
b11 ,
b11 /
b100011111 4
#5920000
0#
#5930000
b100 3
0!
1#
b0 ,
b0 /
0$
b100100000 4
#5940000
0#
#5950000
b0 2
b0 1
b0 3
1#
#5960000
0#
#5970000
1#
#5980000
0#
#5990000
1#
#6000000
0#
#6010000
1#
#6020000
0#
#6030000
1#
#6040000
0#
#6050000
1#
1$
#6060000
0#
#6070000
b1 1
b1 3
1#
b1 ,
b1 /
#6080000
0#
#6090000
b10 1
1#
b1 5
#6100000
0#
#6110000
b11 1
1#
b10 5
#6120000
0#
#6130000
b100 1
1#
b11 5
#6140000
0#
#6150000
b101 1
1#
b100 5
#6160000
0#
#6170000
b110 1
1#
b101 5
#6180000
0#
#6190000
b111 1
1#
b110 5
#6200000
0#
#6210000
b1000 1
1#
b111 5
#6220000
0#
#6230000
b1001 1
1#
b1000 5
#6240000
0#
#6250000
b1010 1
1#
b1001 5
#6260000
0#
#6270000
b1011 1
1#
b1010 5
#6280000
0#
#6290000
b1100 1
1#
b1011 5
#6300000
0#
#6310000
b1101 1
1#
b1100 5
#6320000
0#
#6330000
b1110 1
1#
b1101 5
#6340000
0#
#6350000
b1111 1
1#
b1110 5
#6360000
0#
#6370000
b10000 1
1#
b1111 5
#6380000
0#
#6390000
b10001 1
1#
b10000 5
#6400000
0#
#6410000
b10010 1
1#
b10001 5
#6420000
0#
#6430000
b10011 1
1#
b10010 5
#6440000
0#
#6450000
b10100 1
1#
b10011 5
#6460000
0#
#6470000
b10101 1
1#
b10100 5
#6480000
0#
#6490000
b10110 1
1#
b10101 5
#6500000
0#
#6510000
b10111 1
1#
b10110 5
#6520000
0#
#6530000
b11000 1
1#
b10111 5
#6540000
0#
#6550000
b11001 1
1#
b11000 5
#6560000
0#
#6570000
b11010 1
1#
b11001 5
#6580000
0#
#6590000
b11011 1
1#
b11010 5
#6600000
0#
#6610000
b11100 1
1#
b11011 5
#6620000
0#
#6630000
b1 2
1#
b11100 5
#6640000
0#
#6650000
b10 2
1#
b11101 5
#6660000
0#
#6670000
b11 2
1#
b11110 5
#6680000
0#
#6690000
b10 3
1#
b11 ,
b11 /
b11111 5
#6700000
0#
#6710000
1!
1#
b100000 5
#6720000
0#
#6730000
1#
b100001 5
#6740000
0#
#6750000
1#
b100010 5
#6760000
0#
#6770000
1#
b100011 5
#6780000
0#
#6790000
1#
b100100 5
#6800000
0#
#6810000
1#
b100101 5
#6820000
0#
#6830000
1#
b100110 5
#6840000
0#
#6850000
1#
b100111 5
#6860000
0#
#6870000
1#
b101000 5
#6880000
0#
#6890000
1#
b101001 5
#6900000
0#
#6910000
1#
b101010 5
#6920000
0#
#6930000
1#
b101011 5
#6940000
0#
#6950000
1#
b101100 5
#6960000
0#
#6970000
1#
b101101 5
#6980000
0#
#6990000
1#
b101110 5
#7000000
0#
#7010000
1#
b101111 5
#7020000
0#
#7030000
1#
b110000 5
#7040000
0#
#7050000
1#
b110001 5
#7060000
0#
#7070000
1#
b110010 5
#7080000
0#
#7090000
1#
b110011 5
#7100000
0#
#7110000
1#
b110100 5
#7120000
0#
#7130000
1#
b110101 5
#7140000
0#
#7150000
1#
b110110 5
#7160000
0#
#7170000
1#
b110111 5
#7180000
0#
#7190000
b10 "
b10 0
1#
b101111110101110101001100000000100011000010100101 .
b10 ,
b10 /
b111000 5
#7200000
0#
#7210000
b1 "
b1 0
1#
b11011111101011101010011000000001000110000101001 .
b1 ,
b1 /
b111001 5
#7220000
0#
#7230000
1#
b10110111111010111010100110000000010001100001010 .
b111010 5
#7240000
0#
#7250000
b10 "
b10 0
1#
b100101101111110101110101001100000000100011000010 .
b10 ,
b10 /
b111011 5
#7260000
0#
#7270000
1#
b101001011011111101011101010011000000001000110000 .
b111100 5
#7280000
0#
#7290000
b0 "
b0 0
1#
b1010010110111111010111010100110000000010001100 .
b0 ,
b0 /
b111101 5
#7300000
0#
#7310000
1#
b10100101101111110101110101001100000000100011 .
b111110 5
#7320000
0#
#7330000
b11 "
b11 0
1#
b110000101001011011111101011101010011000000001000 .
b11 ,
b11 /
b111111 5
#7340000
0#
#7350000
b0 "
b0 0
1#
b1100001010010110111111010111010100110000000010 .
b0 ,
b0 /
b1000000 5
#7360000
0#
#7370000
b10 "
b10 0
1#
b100011000010100101101111110101110101001100000000 .
b10 ,
b10 /
b1000001 5
#7380000
0#
#7390000
b0 "
b0 0
1#
b1000110000101001011011111101011101010011000000 .
b0 ,
b0 /
b1000010 5
#7400000
0#
#7410000
1#
b10001100001010010110111111010111010100110000 .
b1000011 5
#7420000
0#
#7430000
1#
b100011000010100101101111110101110101001100 .
b1000100 5
#7440000
0#
#7450000
1#
b1000110000101001011011111101011101010011 .
b1000101 5
#7460000
0#
#7470000
b11 "
b11 0
1#
b110000000010001100001010010110111111010111010100 .
b11 ,
b11 /
b1000110 5
#7480000
0#
#7490000
b0 "
b0 0
1#
b1100000000100011000010100101101111110101110101 .
b0 ,
b0 /
b1000111 5
#7500000
0#
#7510000
b1 "
b1 0
1#
b10011000000001000110000101001011011111101011101 .
b1 ,
b1 /
b1001000 5
#7520000
0#
#7530000
1#
b10100110000000010001100001010010110111111010111 .
b1001001 5
#7540000
0#
#7550000
b11 "
b11 0
1#
b110101001100000000100011000010100101101111110101 .
b11 ,
b11 /
b1001010 5
#7560000
0#
#7570000
b1 "
b1 0
1#
b11101010011000000001000110000101001011011111101 .
b1 ,
b1 /
b1001011 5
#7580000
0#
#7590000
1#
b10111010100110000000010001100001010010110111111 .
b1001100 5
#7600000
0#
#7610000
b11 "
b11 0
1#
b110101110101001100000000100011000010100101101111 .
b11 ,
b11 /
b1001101 5
#7620000
0#
#7630000
1#
b111101011101010011000000001000110000101001011011 .
b1001110 5
#7640000
0#
#7650000
1#
b111111010111010100110000000010001100001010010110 .
b1001111 5
#7660000
0#
#7670000
b0 "
b0 0
1#
b0 ,
b0 /
b1010000 5
#7680000
0#
#7690000
1#
b1010001 5
#7700000
0#
#7710000
1#
b1010010 5
#7720000
0#
#7730000
1#
b1010011 5
#7740000
0#
#7750000
b10 "
b10 0
1#
b10 ,
b10 /
b1010100 5
#7760000
0#
#7770000
b0 "
b0 0
1#
b0 ,
b0 /
b1010101 5
#7780000
0#
#7790000
1#
b1010110 5
#7800000
0#
#7810000
1#
b1010111 5
#7820000
0#
#7830000
b10 "
b10 0
1#
b1000110100000100 %
b10 ,
b10 /
b1011000 5
#7840000
0#
#7850000
b0 "
b0 0
1#
b10001101000001 %
b0 ,
b0 /
b1011001 5
#7860000
0#
#7870000
b1 "
b1 0
1#
b100100011010000 %
b1 ,
b1 /
b1011010 5
#7880000
0#
#7890000
b0 "
b0 0
1#
b1001000110100 %
b0 ,
b0 /
b1011011 5
#7900000
0#
#7910000
1#
b10010001101 %
b1011100 5
#7920000
0#
#7930000
b1 "
b1 0
1#
b100000100100011 %
b1 ,
b1 /
b1011101 5
#7940000
0#
#7950000
b11 "
b11 0
1#
b1101000001001000 %
b11 ,
b11 /
b1011110 5
#7960000
0#
#7970000
b0 "
b0 0
1#
b11010000010010 %
b0 ,
b0 /
b1011111 5
#7980000
0#
#7990000
1#
b1100000 5
#8000000
0#
#8010000
1#
b1100001 5
#8020000
0#
#8030000
1#
b1100010 5
#8040000
0#
#8050000
1#
b1100011 5
#8060000
0#
#8070000
1#
b1100100 5
#8080000
0#
#8090000
1#
b1100101 5
#8100000
0#
#8110000
1#
b1100110 5
#8120000
0#
#8130000
1#
b1100111 5
#8140000
0#
#8150000
1#
b1101000 5
#8160000
0#
#8170000
1#
b1101001 5
#8180000
0#
#8190000
1#
b1101010 5
#8200000
0#
#8210000
1#
b1101011 5
#8220000
0#
#8230000
1#
b1101100 5
#8240000
0#
#8250000
1#
b1101101 5
#8260000
0#
#8270000
1#
b1101110 5
#8280000
0#
#8290000
1#
b1101111 5
#8300000
0#
#8310000
1#
b1110000 5
#8320000
0#
#8330000
1#
b1110001 5
#8340000
0#
#8350000
1#
b1110010 5
#8360000
0#
#8370000
1#
b1110011 5
#8380000
0#
#8390000
1#
b1110100 5
#8400000
0#
#8410000
1#
b1110101 5
#8420000
0#
#8430000
1#
b1110110 5
#8440000
0#
#8450000
1#
b1110111 5
#8460000
0#
#8470000
1#
b1111000 5
#8480000
0#
#8490000
1#
b1111001 5
#8500000
0#
#8510000
1#
b1111010 5
#8520000
0#
#8530000
1#
b1111011 5
#8540000
0#
#8550000
1#
b1111100 5
#8560000
0#
#8570000
1#
b1111101 5
#8580000
0#
#8590000
1#
b1111110 5
#8600000
0#
#8610000
1#
b1111111 5
#8620000
0#
#8630000
1#
b10000000 5
#8640000
0#
#8650000
1#
b10000001 5
#8660000
0#
#8670000
1#
b10000010 5
#8680000
0#
#8690000
1#
b10000011 5
#8700000
0#
#8710000
1#
b10000100 5
#8720000
0#
#8730000
1#
b10000101 5
#8740000
0#
#8750000
1#
b10000110 5
#8760000
0#
#8770000
1#
b10000111 5
#8780000
0#
#8790000
1#
b10001000 5
#8800000
0#
#8810000
1#
b10001001 5
#8820000
0#
#8830000
1#
b10001010 5
#8840000
0#
#8850000
1#
b10001011 5
#8860000
0#
#8870000
1#
b10001100 5
#8880000
0#
#8890000
1#
b10001101 5
#8900000
0#
#8910000
1#
b10001110 5
#8920000
0#
#8930000
1#
b10001111 5
#8940000
0#
#8950000
1#
b10010000 5
#8960000
0#
#8970000
1#
b10010001 5
#8980000
0#
#8990000
1#
b10010010 5
#9000000
0#
#9010000
1#
b10010011 5
#9020000
0#
#9030000
1#
b10010100 5
#9040000
0#
#9050000
1#
b10010101 5
#9060000
0#
#9070000
1#
b10010110 5
#9080000
0#
#9090000
1#
b10010111 5
#9100000
0#
#9110000
1#
b10011000 5
#9120000
0#
#9130000
1#
b10011001 5
#9140000
0#
#9150000
1#
b10011010 5
#9160000
0#
#9170000
1#
b10011011 5
#9180000
0#
#9190000
1#
b10011100 5
#9200000
0#
#9210000
1#
b10011101 5
#9220000
0#
#9230000
1#
b10011110 5
#9240000
0#
#9250000
1#
b10011111 5
#9260000
0#
#9270000
1#
b10100000 5
#9280000
0#
#9290000
1#
b10100001 5
#9300000
0#
#9310000
1#
b10100010 5
#9320000
0#
#9330000
1#
b10100011 5
#9340000
0#
#9350000
1#
b10100100 5
#9360000
0#
#9370000
1#
b10100101 5
#9380000
0#
#9390000
1#
b10100110 5
#9400000
0#
#9410000
1#
b10100111 5
#9420000
0#
#9430000
1#
b10101000 5
#9440000
0#
#9450000
1#
b10101001 5
#9460000
0#
#9470000
1#
b10101010 5
#9480000
0#
#9490000
1#
b10101011 5
#9500000
0#
#9510000
1#
b10101100 5
#9520000
0#
#9530000
1#
b10101101 5
#9540000
0#
#9550000
1#
b10101110 5
#9560000
0#
#9570000
1#
b10101111 5
#9580000
0#
#9590000
1#
b10110000 5
#9600000
0#
#9610000
1#
b10110001 5
#9620000
0#
#9630000
1#
b10110010 5
#9640000
0#
#9650000
1#
b10110011 5
#9660000
0#
#9670000
1#
b10110100 5
#9680000
0#
#9690000
1#
b10110101 5
#9700000
0#
#9710000
1#
b10110110 5
#9720000
0#
#9730000
1#
b10110111 5
#9740000
0#
#9750000
1#
b10111000 5
#9760000
0#
#9770000
1#
b10111001 5
#9780000
0#
#9790000
1#
b10111010 5
#9800000
0#
#9810000
1#
b10111011 5
#9820000
0#
#9830000
1#
b10111100 5
#9840000
0#
#9850000
1#
b10111101 5
#9860000
0#
#9870000
1#
b10111110 5
#9880000
0#
#9890000
1#
b10111111 5
#9900000
0#
#9910000
1#
b11000000 5
#9920000
0#
#9930000
1#
b11000001 5
#9940000
0#
