networking/obj/t_top_level.vcd
$date
	Sat Dec 10 12:06:09 2022
$end
$version
	Icarus Verilog
$end
$timescale
	1ps
$end
$scope module top_level_tb $end
$var wire 1 ! eth_refclk $end
$var wire 1 " eth_txen $end
$var wire 2 # eth_txd [1:0] $end
$var wire 1 $ eth_rstn $end
$var reg 1 % clk_in $end
$var reg 1 & rst_in $end
$scope module uut $end
$var wire 1 & btnc $end
$var wire 1 % clk $end
$var wire 1 ! eth_refclk $end
$var wire 1 $ eth_rstn $end
$var wire 1 ' sys_rst $end
$var wire 1 ( identity_axiov $end
$var wire 2 ) identity_axiod [1:0] $end
$var wire 1 " eth_txen $end
$var wire 2 * eth_txd [1:0] $end
$var wire 1 + bitorder_out_axiov $end
$var wire 2 , bitorder_out_axiod [1:0] $end
$var reg 4 - counter [3:0] $end
$var reg 32 . data [31:0] $end
$var reg 1 / data_transmitted $end
$var reg 2 0 eth_axiid [1:0] $end
$var reg 1 1 eth_axiiv $end
$scope module bitorder_out $end
$var wire 1 % clk $end
$var wire 1 ' rst $end
$var wire 1 ( axiiv $end
$var wire 2 2 axiid [1:0] $end
$var reg 2 3 axiod [1:0] $end
$var reg 1 + axiov $end
$var reg 8 4 buf_a [7:0] $end
$var reg 8 5 buf_b [7:0] $end
$var reg 2 6 buf_counter [1:0] $end
$var reg 1 7 read_buf $end
$var reg 2 8 state [1:0] $end
$upscope $end
$scope module destandsource $end
$var wire 2 9 axiid [1:0] $end
$var wire 1 1 axiiv $end
$var wire 1 % clk $end
$var wire 1 ' rst $end
$var reg 2 : axiod [1:0] $end
$var reg 1 ( axiov $end
$var reg 6 ; cycle_counter [5:0] $end
$var reg 112 < data_buf [111:0] $end
$var reg 48 = destination_addr [47:0] $end
$var reg 16 > ethertype [15:0] $end
$var reg 1 ? reading_data $end
$var reg 48 @ source_addr [47:0] $end
$var reg 2 A state [1:0] $end
$var integer 32 B data_counter [31:0] $end
$upscope $end
$scope module ethernet_out $end
$var wire 2 C axiid [1:0] $end
$var wire 1 + axiiv $end
$var wire 1 % clk $end
$var wire 1 D crc_rst $end
$var wire 1 E crcov $end
$var wire 1 ' rst $end
$var wire 32 F crc_output [31:0] $end
$var reg 2 G axiod [1:0] $end
$var reg 1 " axiov $end
$var reg 1 H checksum_collected $end
$var reg 5 I cycle_counter [4:0] $end
$var reg 64 J data_buf [63:0] $end
$var reg 32 K fcs_buf [31:0] $end
$var reg 1 L manual_rst $end
$var reg 1 M reading_data $end
$var reg 8 N sfd [7:0] $end
$var reg 3 O state [2:0] $end
$var integer 32 P data_counter [31:0] $end
$scope module build_checksum $end
$var wire 2 Q axiid [1:0] $end
$var wire 1 + axiiv $end
$var wire 32 R axiod [31:0] $end
$var wire 1 E axiov $end
$var wire 1 % clk $end
$var wire 1 D rst $end
$var reg 32 S caxiod [31:0] $end
$var reg 32 T saxiod [31:0] $end
$var integer 32 U i [31:0] $end
$upscope $end
$upscope $end
$upscope $end
$scope begin $ivl_for_loop0 $end
$var integer 32 V i [31:0] $end
$upscope $end
$scope begin $ivl_for_loop1 $end
$var integer 32 W i [31:0] $end
$upscope $end
$upscope $end
$enddefinitions $end
#0
$dumpvars
b0 W
b0 V
bx U
bx T
bx S
bx R
bx Q
b0 P
bx O
b11010101 N
xM
xL
bx K
bx J
bx I
xH
bx G
bx F
1E
xD
bx C
b0 B
bx A
b11010010110100101011010000001100101010010010000 @
x?
b100000001 >
b11010010110100101011010000001100101010010010001 =
bx <
bx ;
bx :
bx 9
bx 8
x7
bx 6
bx 5
bx 4
bx 3
bx 2
x1
bx 0
x/
b11111110111011011011111011101111 .
bx -
bx ,
x+
bx *
bx )
x(
x'
x&
0%
x$
bx #
x"
z!
$end
#10000
b0 0
b0 9
01
1$
0'
0&
1%
#20000
0%
#30000
b1111xx1xxx1111xx11xxxxxxxxxxxxxx T
b100000 U
b0 F
b0 R
b0 -
0/
b0 O
b0 I
b0 #
b0 *
b0 G
0"
b11111111111111111111111111111111 S
b0 8
0+
b0 5
b0 4
b0 6
07
b0 A
b0 ;
b0 )
b0 2
b0 :
0(
0H
1D
0$
1%
1'
1&
#40000
0%
#50000
b11110010101111001101100100100101 T
b100000 U
b0 ,
b0 3
b0 C
b0 Q
0L
b1 -
b11111011101101101111101110111111 .
b11 0
b11 9
11
0D
1$
1%
0'
0&
#60000
0%
#70000
b10 -
b11101110110110111110111011111111 .
b1 A
b101001011010010101101000000110010101001001000101 =
b1 )
b1 2
b1 :
b1 B
1?
b11 <
1(
1%
b1 V
#80000
0%
#90000
b11 B
b1111 <
b100101101001010110100000011001010100100100010110 =
b10 )
b10 2
b10 :
b1 ;
b1 8
b1000000 4
b11 -
b10111011011011111011101111111111 .
1%
b10 V
#100000
0%
#110000
b100 -
b11101101101111101110111111111110 .
b10 0
b10 9
b1 6
b10010000 4
b101 B
b111111 <
b10110100101011010000001100101010010010001011010 =
b10 ;
1%
b11 V
#120000
0%
#130000
b111 B
b11111110 <
b11010010101101000000110010101001001000101101001 =
b1 )
b1 2
b1 :
b11 ;
b10 6
b10100100 4
b101 -
b10110110111110111011111111111011 .
b11 0
b11 9
1%
b100 V
#140000
0%
#150000
b110 -
b11011011111011101111111111101110 .
b10 0
b10 9
b11 6
b1101001 4
b1001 B
b1111111011 <
b101001010110100000011001010100100100010110100101 =
b100 ;
1%
b101 V
#160000
0%
#170000
b11111011001111101110001001001011 T
b100000 U
b1011 B
b111111101110 <
b100101011010000001100101010010010001011010010110 =
b10 )
b10 2
b10 :
b101 ;
b10 8
b0 6
17
1+
b1 ,
b1 3
b1 C
b1 Q
b1000000 5
b111 -
b1101111101110111111111110111011 .
b11 0
b11 9
1%
b110 V
#180000
0%
#190000
b100110000010001110110110100 F
b100110000010001110110110100 R
b11100101011110011011001001000010 T
b100000 U
b1000 -
b10111110111011111111111011101101 .
b1 0
b1 9
b1 O
b1 #
b1 *
b1 G
b1 P
1M
b1 J
1"
b11111011001111101110001001001011 S
b1 6
b10 ,
b10 3
b10 C
b10 Q
b10010000 5
b1101 B
b11111110111011 <
b10101101000000110010101001001000101101001011010 =
b110 ;
1%
b111 V
#200000
0%
#210000
b10011100011001001111001001100110 T
b100000 U
b11010100001100100110110111101 F
b11010100001100100110110111101 R
b1111 B
b1111111011101101 <
b10110100000011001010100100100010110100101101001 =
b1 )
b1 2
b1 :
b111 ;
b10 6
b10100100 5
b11100101011110011011001001000010 S
b11 P
b110 J
b1 I
b1001 -
b11111011101111111111101110110110 .
b10 0
b10 9
1%
b1000 V
#220000
0%
#230000
b1100011100110110000110110011001 F
b1100011100110110000110110011001 R
b1110001100100111100100110011000 T
b100000 U
b1010 -
b11101110111111111110111011011011 .
b11 0
b11 9
b101 P
b11010 J
b10 I
b10011100011001001111001001100110 S
b11 6
b1 ,
b1 3
b1 C
b1 Q
b1101001 5
b10001 B
b111111101110110110 <
b11010000001100101010010010001011010010110100101 =
b1000 ;
1%
b1001 V
#240000
0%
#250000
b11001011000011000000000010111001 T
b100000 U
b10001110011011000011011001100111 F
b10001110011011000011011001100111 R
b10011 B
b11111110111011011011 <
b101000000110010101001001000101101001011010010101 =
b1001 ;
b0 6
07
b1011010 4
b1110001100100111100100110011000 S
b111 P
b1101001 J
b11 I
b1011 -
b10111011111111111011101101101111 .
1%
b1010 V
#260000
0%
#270000
b110100111100111111111101000110 F
b110100111100111111111101000110 R
b100101101100100011100110001010 T
b100000 U
b1100 -
b11101111111111101110110110111110 .
b10 0
b10 9
b1001 P
b110100101 J
b100 I
b11001011000011000000000010111001 S
b1 6
b10 ,
b10 3
b10 C
b10 Q
b1010110 4
b10101 B
b1111111011101101101111 <
b100000011001010100100100010110100101101001010110 =
b10 )
b10 2
b10 :
b1010 ;
1%
b1011 V
#280000
0%
#290000
b10010010000010011111101110011111 T
b100000 U
b11011010010011011100011001110101 F
b11011010010011011100011001110101 R
b10111 B
b111111101110110110111110 <
b1100101010010010001011010010110100101011010 =
b1011 ;
b10 6
b10010101 4
b100101101100100011100110001010 S
b1011 P
b11010010110 J
b101 I
b1101 -
b10111111111110111011011011111011 .
b11 0
b11 9
1%
b1100 V
#300000
0%
#310000
b1101101111101100000010001100000 F
b1101101111101100000010001100000 R
b1001000001001111110111001111100 T
b100000 U
b1110 -
b11111111111011101101101111101110 .
b10 0
b10 9
b1101 P
b1101001011010 J
b110 I
b10010010000010011111101110011111 S
b11 6
b1 ,
b1 3
b1 C
b1 Q
b10100101 4
b11001 B
b11111110111011011011111011 <
b110010101001001000101101001011010010101101000 =
b0 )
b0 2
b0 :
b1100 ;
1%
b1101 V
#320000
0%
#330000
b100000100111111011100111110000 T
b100000 U
b10110111110110000001000110000011 F
b10110111110110000001000110000011 R
b11011 B
b1111111011101101101111101110 <
b11001010100100100010110100101101001010110100000 =
b1101 ;
b0 6
17
b10 ,
b10 3
b10 C
b10 Q
b11010 5
b1001000001001111110111001111100 S
b1111 P
b110100101101001 J
b111 I
b1111 -
b11111111101110110110111110111011 .
b11 0
b11 9
1%
b1110 V
#340000
0%
#350000
b10000110101111111111101001110111 T
b100000 U
b11011111011000000100011000001111 F
b11011111011000000100011000001111 R
1/
b0 -
b11111110111011011011111011101111 .
b10001 P
b11010010110100110 J
b1000 I
b100000100111111011100111110000 S
b1 6
b110 5
b11101 B
b111111101110110110111110111011 <
b100101010010010001011010010110100101011010000001 =
b1 )
b1 2
b1 :
b1110 ;
1%
b1111 V
#360000
0%
#370000
b11010111111111110100111011100 T
b100000 U
b1111001010000000000010110001000 F
b1111001010000000000010110001000 R
b11111 B
b11111110111011011011111011101111 <
b10101001001000101101001011010010101101000000110 =
b10 )
b10 2
b10 :
b1111 ;
b10 6
b1 ,
b1 3
b1 C
b1 Q
b1000001 5
b10000110101111111111101001110111 S
b10011 P
b1101001011010011010 J
b1001 I
b0 0
b0 9
01
1%
b10000 V
#380000
0%
#390000
b1100010011111011001110000011110 T
b100000 U
b11100101000000000001011000100011 F
b11100101000000000001011000100011 R
b10101 P
b110100101101001101001 J
b1010 I
b11010111111111110100111011100 S
b11 6
b10010000 5
0?
b10100100100010110100101101001010110100000011001 =
b1 )
b1 2
b1 :
b10000 ;
1%
b10001 V
#400000
0%
#410000
b10001001111101100111000001111000 T
b100000 U
b10011101100000100110001111100001 F
b10011101100000100110001111100001 R
b10010010001011010010110100101011010000001100101 =
b10001 ;
b0 6
07
b10 ,
b10 3
b10 C
b10 Q
b1101001 4
b1100010011111011001110000011110 S
b10111 P
b11010010110100110100101 J
b1011 I
1%
b10010 V
#420000
0%
#430000
b1110110000010011000111110000111 F
b1110110000010011000111110000111 R
b100111110110011100000111100000 T
b100000 U
b11001 P
b1101001011010011010010110 J
b1100 I
b10001001111101100111000001111000 S
b1 6
b1 ,
b1 3
b1 C
b1 Q
b1011010 4
b1001000101101001011010010101101000000110010101 =
b10010 ;
1%
b10011 V
#440000
0%
#450000
b10011111011001110000011110000000 T
b100000 U
b11011000001001100011111000011111 F
b11011000001001100011111000011111 R
b100100010110100101101001010110100000011001010100 =
b0 )
b0 2
b0 :
b10011 ;
b10 6
b0 ,
b0 3
b0 C
b0 Q
b1010110 4
b100111110110011100000111100000 S
b11011 P
b110100101101001101001011001 J
b1101 I
1%
b10100 V
#460000
0%
#470000
b1110100000111100010010101101110 T
b100000 U
b1100000100110001111100001111111 F
b1100000100110001111100001111111 R
b11101 P
b11010010110100110100101100100 J
b1110 I
b10011111011001110000011110000000 S
b11 6
b10101 4
b10001011010010110100101011010000001100101010010 =
b10 )
b10 2
b10 :
b10100 ;
1%
b10101 V
#480000
0%
#490000
b11010100101110011000100000001111 T
b100000 U
b10001011111000011101101010010001 F
b10001011111000011101101010010001 R
b101101001011010010101101000000110010101001001 =
b1 )
b1 2
b1 :
b10101 ;
b0 6
17
b10100100 5
b1110100000111100010010101101110 S
b11111 P
b1101001011010011010010110010000 J
b1111 I
1%
b10110 V
#500000
0%
#510000
b101011010001100111011111110000 F
b101011010001100111011111110000 R
b1010110001001110011110110001011 T
b100000 U
b100001 P
b110100101101001101001011001000000 J
b10000 I
b11010100101110011000100000001111 S
b1 6
b1 ,
b1 3
b1 C
b1 Q
b1101001 5
b10110100101101001010110100000011001010100100100 =
b0 )
b0 2
b0 :
b10110 ;
1%
b10111 V
#520000
0%
#530000
b1010101110111111101000011110101 T
b100000 U
b10101001110110001100001001110100 F
b10101001110110001100001001110100 R
b11010010110100101011010000001100101010010010001 =
b1 )
b1 2
b1 :
b10111 ;
b10 6
b11010 5
b1010110001001110011110110001011 S
b100011 P
b11010010110100110100101100100000001 J
b10001 I
1%
b11000 V
#540000
0%
#550000
b1011010001111000110010100001101 T
b100000 U
b10101010001000000010111100001010 F
b10101010001000000010111100001010 R
b100101 P
b1101001011010011010010110010000000101 J
b10010 I
b1010101110111111101000011110101 S
b11 6
b1000110 5
b101001011010010101101000000110010101001001000001 @
b11000 ;
1%
b11001 V
#560000
0%
#570000
b1100101101100101011001011101101 T
b100000 U
b10100101110000111001101011110010 F
b10100101110000111001101011110010 R
b100101101001010110100000011001010100100100000110 @
b10 )
b10 2
b10 :
b11001 ;
b0 6
07
b1000101 4
b1011010001111000110010100001101 S
b100111 P
b110100101101001101001011001000000010101 J
b10011 I
1%
b11010 V
#580000
0%
#590000
b10011010010011010100110100010010 F
b10011010010011010100110100010010 R
b10010010000010111101011000000011 T
b100000 U
b101001 P
b11010010110100110100101100100000001010101 J
b10100 I
b1100101101100101011001011101101 S
b1 6
b0 ,
b0 3
b0 C
b0 Q
b10010001 4
b10110100101011010000001100101010010010000011010 @
b11010 ;
1%
b11011 V
#600000
0%
#610000
b1001000001011110101100000001100 T
b100000 U
b1101101111101000010100111111100 F
b1101101111101000010100111111100 R
b11010010101101000000110010101001001000001101001 @
b1 )
b1 2
b1 :
b11011 ;
b10 6
b1 ,
b1 3
b1 C
b1 Q
b10100100 4
b10010010000010111101011000000011 S
b101011 P
b1101001011010011010010110010000000101010100 J
b10101 I
1%
b11100 V
#620000
0%
#630000
b10110111110100001010011111110011 F
b10110111110100001010011111110011 R
b100000101111010110000000110000 T
b100000 U
b101101 P
b110100101101001101001011001000000010101010001 J
b10110 I
b1001000001011110101100000001100 S
b11 6
b10 ,
b10 3
b10 C
b10 Q
b1101001 4
b101001010110100000011001010100100100000110100101 @
b11100 ;
1%
b11101 V
#640000
0%
#650000
b10001011011101111011101110101110 T
b100000 U
b11011111010000101001111111001111 F
b11011111010000101001111111001111 R
b100101011010000001100101010010010000011010010110 @
b10 )
b10 2
b10 :
b11101 ;
b0 6
17
b1 ,
b1 3
b1 C
b1 Q
b1010001 5
b100000101111010110000000110000 S
b101111 P
b11010010110100110100101100100000001010101000110 J
b10111 I
1%
b11110 V
#660000
0%
#670000
b1110100100010000100010001010001 F
b1110100100010000100010001010001 R
b100000100111011100100001100001 T
b100000 U
b110001 P
b1101001011010011010010110010000000101010100011001 J
b11000 I
b10001011011101111011101110101110 S
b1 6
b10 ,
b10 3
b10 C
b10 Q
b10010100 5
b10101101000000110010101001001000001101001011010 @
b11110 ;
1%
b11111 V
#680000
0%
#690000
b10000110101101100011110000110011 T
b100000 U
b11011111011000100011011110011110 F
b11011111011000100011011110011110 R
b10110100000011001010100100100000110100101101001 @
b1 )
b1 2
b1 :
b11111 ;
b10 6
b10100101 5
b100000100111011100100001100001 S
b110011 P
b110100101101001101001011001000000010101010001100110 J
b11001 I
1%
b100000 V
#700000
0%
#710000
b1111001010010011100001111001100 F
b1111001010010011100001111001100 R
b11010110110001111000011001100 T
b100000 U
b110101 P
b11010010110100110100101100100000001010101000110011010 J
b11010 I
b10000110101101100011110000110011 S
b11 6
b1 ,
b1 3
b1 C
b1 Q
b1101001 5
b11010000001100101010010010000011010010110100101 @
b100000 ;
1%
b100001 V
#720000
0%
#730000
b1100010111000011111100001011110 T
b100000 U
b11100101001001110000111100110011 F
b11100101001001110000111100110011 R
b101000000110010101001001000001101001011010010101 @
b100001 ;
b0 6
07
b1011010 4
b11010110110001111000011001100 S
b110111 P
b1101001011010011010010110010000000101010100011001101001 J
b11011 I
1%
b100010 V
#740000
0%
#750000
b10011101000111100000011110100001 F
b10011101000111100000011110100001 R
b10001011100001111110000101111000 T
b100000 U
b111001 P
b110100101101001101001011001000000010101010001100110100101 J
b1110101 N
b11100 I
b1100010111000011111100001011110 S
b1 6
b10 ,
b10 3
b10 C
b10 Q
b1010110 4
b100000011001010100100100000110100101101001010110 @
b10 )
b10 2
b10 :
b100010 ;
1%
b100011 V
#760000
0%
#770000
b100011010111001010001100111001 T
b100000 U
b1110100011110000001111010000111 F
b1110100011110000001111010000111 R
b1100101010010010000011010010110100101011010 @
b100011 ;
b10 6
b10010101 4
b10001011100001111110000101111000 S
b111011 P
b11010010110100110100101100100000001010101000110011010010110 J
b1011101 N
b11101 I
1%
b100100 V
#780000
0%
#790000
b11011100101000110101110011000110 F
b11011100101000110101110011000110 R
b10000100111100001011011110001010 T
b100000 U
b111101 P
b1101001011010011010010110010000000101010100011001101001011010 J
b1010111 N
b11110 I
b100011010111001010001100111001 S
b11 6
b1 ,
b1 3
b1 C
b1 Q
b10100101 4
b110010101001001000001101001011010010101101000 @
b0 )
b0 2
b0 :
b100100 ;
1%
b100101 V
#800000
0%
#810000
b11110100000011111100011110001 T
b100000 U
b1111011000011110100100001110101 F
b1111011000011110100100001110101 R
b11001010100100100000110100101101001010110100000 @
b100101 ;
b0 6
17
b10 ,
b10 3
b10 C
b10 Q
b11010 5
b10000100111100001011011110001010 S
b111111 P
b110100101101001101001011001000000010101010001100110100101101001 J
b11010101 N
b11 #
b11 *
b11 G
b11111 I
1%
b100110 V
#820000
0%
#830000
b1111110110001101111111001110011 T
b100000 U
b11100001011111100000011100001110 F
b11100001011111100000011100001110 R
b10 O
b1010010110100110100101100100000001010101000110011010010110100110 J
b1 #
b1 *
b1 G
b0 I
b11110100000011111100011110001 S
b1 6
b110 5
b100101010010010000011010010110100101011010000001 @
b1 )
b1 2
b1 :
b100110 ;
1%
b100111 V
#840000
0%
#850000
b11110110010110001101111100010101 T
b100000 U
b10000001001110010000000110001100 F
b10000001001110010000000110001100 R
b10101001001000001101001011010010101101000000110 @
b10 )
b10 2
b10 :
b100111 ;
b10 6
b1 ,
b1 3
b1 C
b1 Q
b1000001 5
b1111110110001101111111001110011 S
b1001011010011010010110010000000101010100011001101001011010011010 J
b10 #
b10 *
b10 G
1%
b101000 V
#860000
0%
#870000
b11011101101000100110000111100011 T
b100000 U
b1001101001110010000011101010 F
b1001101001110010000011101010 R
b101101001101001011001000000010101010001100110100101101001101001 J
b11110110010110001101111100010101 S
b11 6
b10010000 5
b10100100100000110100101101001010110100000011001 @
b1 )
b1 2
b1 :
b101000 ;
1%
b101001 V
#880000
0%
#890000
b1111111000010111011110011100010 T
b100000 U
b100010010111011001111000011100 F
b100010010111011001111000011100 R
b10010010000011010010110100101011010000001100101 @
b101001 ;
b0 6
07
b10 ,
b10 3
b10 C
b10 Q
b1101001 4
b11011101101000100110000111100011 S
b110100110100101100100000001010101000110011010010110100110100101 J
b1 #
b1 *
b1 G
1%
b101010 V
#900000
0%
#910000
b10000000111101000100001100011101 F
b10000000111101000100001100011101 R
b11110001011011011101010101010001 T
b100000 U
b1010011010010110010000000101010100011001101001011010011010010110 J
b1111111000010111011110011100010 S
b1 6
b1 ,
b1 3
b1 C
b1 Q
b1011010 4
b1001000001101001011010010101101000000110010101 @
b101010 ;
1%
b101011 V
#920000
0%
#930000
b11001000111101000111001110011101 T
b100000 U
b1110100100100010101010101110 F
b1110100100100010101010101110 R
b100100000110100101101001010110100000011001010100 @
b0 )
b0 2
b0 :
b101011 ;
b10 6
b0 ,
b0 3
b0 C
b0 Q
b1010110 4
b11110001011011011101010101010001 S
b1001101001011001000000010101010001100110100101101001101001011001 J
b10 #
b10 *
b10 G
1%
b101100 V
#940000
0%
#950000
b101110100100101110100010101101 T
b100000 U
b110111000010111000110001100010 F
b110111000010111000110001100010 R
b110100101100100000001010101000110011010010110100110100101100100 J
b11001000111101000111001110011101 S
b11 6
b10101 4
b10000011010010110100101011010000001100101010010 @
b10 )
b10 2
b10 :
b101100 ;
1%
b101101 V
#960000
0%
#970000
b10111010010010111010001010110100 T
b100000 U
b11010001011011010001011101010010 F
b11010001011011010001011101010010 R
b1101001011010010101101000000110010101001001 @
b1 )
b1 2
b1 :
b101101 ;
b0 6
17
b10100100 5
b101110100100101110100010101101 S
b1010010110010000000101010100011001101001011010011010010110010000 J
b1 #
b1 *
b1 G
1%
b101110 V
#980000
0%
#990000
b1000101101101000101110101001011 F
b1000101101101000101110101001011 R
b11101001001011101000101011010000 T
b100000 U
b1001011001000000010101010001100110100101101001101001011001000000 J
b10 #
b10 *
b10 G
b10111010010010111010001010110100 S
b1 6
b1 ,
b1 3
b1 C
b1 Q
b1101001 5
b110100101101001010110100000011001010100100100 @
b0 )
b0 2
b0 :
b101110 ;
1%
b101111 V
#1000000
0%
#1010000
b10100000011110110011011011110111 T
b100000 U
b10110110100010111010100101111 F
b10110110100010111010100101111 R
b11010010110100101011010000001100101010010010000 @
b101111 ;
b10 6
b11010 5
b11101001001011101000101011010000 S
b101100100000001010101000110011010010110100110100101100100000001 J
1%
b110000 V
#1020000
0%
#1030000
b10000001111011001101101111011100 T
b100000 U
b1011111100001001100100100001000 F
b1011111100001001100100100001000 R
b110010000000101010100011001101001011010011010010110010000000101 J
b1 #
b1 *
b1 G
b10100000011110110011011011110111 S
b11 6
b110 5
b10000000100 >
b110000 ;
1%
b110001 V
#1040000
0%
#1050000
b1110001100010101010000011110 T
b100000 U
b1111110000100110010010000100011 F
b1111110000100110010010000100011 R
b1000000010000 >
b110001 ;
b0 6
07
b0 ,
b0 3
b0 C
b0 Q
b101 4
b10000001111011001101101111011100 S
b1001000000010101010001100110100101101001101001011001000000010101 J
1%
b110010 V
#1060000
0%
#1070000
b111000110001010101000001111000 T
b100000 U
b11110001110011101010101111100001 F
b11110001110011101010101111100001 R
b100000001010101000110011010010110100110100101100100000001010100 J
b10 #
b10 *
b10 G
b1110001100010101010000011110 S
b1 6
b1 4
b100000001000000 >
b110010 ;
1%
b110011 V
#1080000
0%
#1090000
b11101010100101110111101010001110 T
b100000 U
b11000111001110101010111110000111 F
b11000111001110101010111110000111 R
b100000001 >
b1 )
b1 2
b1 :
b110011 ;
b10 6
b1 ,
b1 3
b1 C
b1 Q
b0 4
b111000110001010101000001111000 S
b101010100011001101001011010011010010110010000000101010000 J
b1 #
b1 *
b1 G
1%
b110100 V
#1100000
0%
#1110000
b10101011010001000010101110001 F
b10101011010001000010101110001 R
b10100011110111111101000101010110 T
b100000 U
b10101010001100110100101101001101001011001000000010101000001 J
b0 #
b0 *
b0 G
b11101010100101110111101010001110 S
b11 6
b10 ,
b10 3
b10 C
b10 Q
b1000000 4
b10000000100 >
b0 )
b0 2
b0 :
b110100 ;
1%
b110101 V
#1120000
0%
#1130000
b10001111011111110100010101011000 T
b100000 U
b1011100001000000010111010101001 F
b1011100001000000010111010101001 R
b1000000010000 >
b110101 ;
b0 6
17
b1 ,
b1 3
b1 C
b1 Q
b1 5
b10100011110111111101000101010110 S
b1010101000110011010010110100110100101100100000001010100000110 J
1%
b110110 V
#1140000
0%
#1150000
b1110000100000001011101010100111 F
b1110000100000001011101010100111 R
b110100011111110010111000001110 T
b100000 U
b101010100011001101001011010011010010110010000000101010000011001 J
b10001111011111110100010101011000 S
b1 6
b0 ,
b0 3
b0 C
b0 Q
b0 5
b100000001000000 >
b110110 ;
1%
b110111 V
#1160000
0%
#1170000
b11010001111111001011100000111000 T
b100000 U
b11001011100000001101000111110001 F
b11001011100000001101000111110001 R
b100000001 >
b1 )
b1 2
b1 :
b110111 ;
b10 6
b110100011111110010111000001110 S
b101010001100110100101101001101001011001000000010101000001100100 J
b1 #
b1 *
b1 G
1%
b111000 V
#1180000
0%
#1190000
b1001010101100011100011000111001 T
b100000 U
b101110000000110100011111000111 F
b101110000000110100011111000111 R
b101000110011010010110100110100101100100000001010100000110010000 J
b11010001111111001011100000111000 S
b11 6
b1000000 5
b11 A
b11101 B
b11 )
b11 2
b11 :
b111000 ;
1%
b111001 V
#1200000
0%
#1210000
b100111100001000011111000111101 T
b100000 U
b10110101010011100011100111000110 F
b10110101010011100011100111000110 R
b11011 B
b0 6
07
b1 ,
b1 3
b1 C
b1 Q
b11010000 4
b1001010101100011100011000111001 S
b100011001101001011010011010010110010000000101010000011001000000 J
1%
b111010 V
#1220000
0%
#1230000
b11011000011110111100000111000010 F
b11011000011110111100000111000010 R
b10011110000100001111100011110100 T
b100000 U
b1100110100101101001101001011001000000010101000001100100000001 J
b100111100001000011111000111101 S
b1 6
b0 ,
b0 3
b0 C
b0 Q
b11110100 4
b11001 B
1%
b111011 V
#1240000
0%
#1250000
b1110001110000011101100010111110 T
b100000 U
b1100001111011110000011100001011 F
b1100001111011110000011100001011 R
b10111 B
b10 )
b10 2
b10 :
b10 6
b11111101 4
b10011110000100001111100011110100 S
b110011010010110100110100101100100000001010100000110010000000100 J
b0 #
b0 *
b0 G
1%
b111100 V
#1260000
0%
#1270000
b11000011110001100111111101001111 T
b100000 U
b10001110001111100010011101000001 F
b10001110001111100010011101000001 R
b1001101001011010011010010110010000000101010000011001000000010000 J
b1 #
b1 *
b1 G
b1110001110000011101100010111110 S
b11 6
b10111111 4
b10101 B
b11 )
b11 2
b11 :
1%
b111101 V
#1280000
0%
#1290000
b110100110111100011001010010 T
b100000 U
b111100001110011000000010110000 F
b111100001110011000000010110000 R
b10011 B
b10 )
b10 2
b10 :
b0 6
17
b10 ,
b10 3
b10 C
b10 Q
b11010000 5
b11000011110001100111111101001111 S
b110100101101001101001011001000000010101000001100100000001000000 J
b10 #
b10 *
b10 G
1%
b111110 V
#1300000
0%
#1310000
b11111001011001000011100110101101 F
b11111001011001000011100110101101 R
b10111001011000011111110010001 T
b100000 U
b1010010110100110100101100100000001010100000110010000000100000010 J
b1 #
b1 *
b1 G
b110100110111100011001010010 S
b1 6
b11 ,
b11 3
b11 C
b11 Q
b10110100 5
b10001 B
b11 )
b11 2
b11 :
1%
b111111 V
#1320000
0%
#1330000
b1010001111100111101100010011101 T
b100000 U
b11101000110100111100000001101110 F
b11101000110100111100000001101110 R
b1111 B
b1 )
b1 2
b1 :
b10 6
b11101101 5
b10111001011000011111110010001 S
b1001011010011010010110010000000101010000011001000000010000001011 J
b10 #
b10 *
b10 G
1%
b1000000 V
#1340000
0%
#1350000
b1001110010011010101100100011010 T
b100000 U
b10101110000011000010011101100010 F
b10101110000011000010011101100010 R
b101101001101001011001000000010101000001100100000001000000101111 J
b1010001111100111101100010011101 S
b11 6
b1111011 5
b1101 B
b10 )
b10 2
b10 :
1%
b1000001 V
#1360000
0%
#1370000
b110100011101100100001010110001 T
b100000 U
b10110001101100101010011011100101 F
b10110001101100101010011011100101 R
b1011 B
b11 )
b11 2
b11 :
b0 6
07
b1 ,
b1 3
b1 C
b1 Q
b10101111 4
b1001110010011010101100100011010 S
b110100110100101100100000001010100000110010000000100000010111111 J
b1 #
b1 *
b1 G
1%
b1000010 V
#1380000
0%
#1390000
b11001011100010011011110101001110 F
b11001011100010011011110101001110 R
b11011100100110100010110000011101 T
b100000 U
b1010011010010110010000000101010000011001000000010000001011111101 J
b110100011101100100001010110001 S
b1 6
b11 ,
b11 3
b11 C
b11 Q
b11101011 4
b1001 B
1%
b1000011 V
#1400000
0%
#1410000
b1111011111010101000101100011010 T
b100000 U
b100011011001011101001111100010 F
b100011011001011101001111100010 R
b111 B
b10 )
b10 2
b10 :
b10 6
b10 ,
b10 3
b10 C
b10 Q
b11111010 4
b11011100100110100010110000011101 S
b1001101001011001000000010101000001100100000001000000101111110111 J
b10 #
b10 *
b10 G
1%
b1000100 V
#1420000
0%
#1430000
b10000100000101010111010011100101 F
b10000100000101010111010011100101 R
b11100110001010000001011100000110 T
b100000 U
b110100101100100000001010100000110010000000100000010111111011110 J
b1111011111010101000101100011010 S
b11 6
b11 ,
b11 3
b11 C
b11 Q
b10111110 4
b101 B
b11 )
b11 2
b11 :
1%
b1000101 V
#1440000
0%
#1450000
b10010001001000100110011101110110 T
b100000 U
b11001110101111110100011111001 F
b11001110101111110100011111001 R
b11 B
b10 )
b10 2
b10 :
b0 6
17
b10 ,
b10 3
b10 C
b10 Q
b11011110 5
b11100110001010000001011100000110 S
b1010010110010000000101010000011001000000010000001011111101111011 J
b1 #
b1 *
b1 G
1%
b1000110 V
#1460000
0%
#1470000
b1101110110111011001100010001001 F
b1101110110111011001100010001001 R
b1000000010010001000000001101111 T
b100000 U
b1001011001000000010101000001100100000001000000101111110111101110 J
b10 #
b10 *
b10 G
b10010001001000100110011101110110 S
b1 6
b11 ,
b11 3
b11 C
b11 Q
b10110111 5
b1 B
b11 )
b11 2
b11 :
1%
b1000111 V
#1480000
0%
#1490000
b1000101000000011101011010010 T
b100000 U
b10111111101101110111111110010000 F
b10111111101101110111111110010000 R
b11111111111111111111111111111111 B
b10 6
b11101101 5
b1000000010010001000000001101111 S
b101100100000001010100000110010000000100000010111111011110111011 J
1%
b1001000 V
#1500000
0%
#1510000
b11110111010111111100010100101101 F
b11110111010111111100010100101101 R
b100110010000011111011011111111 T
b100000 U
b110010000000101010000011001000000010000001011111101111011101111 J
b1 #
b1 *
b1 G
b1000101000000011101011010010 S
b11 6
b10 ,
b10 3
b10 C
b10 Q
b11111011 5
b0 A
b0 ;
b0 B
0(
1%
b1001001 V
#1520000
0%
