networking/obj/tether.vcd
$date
	Thu Dec  8 21:27:14 2022
$end
$version
	Icarus Verilog
$end
$timescale
	1ps
$end
$scope module tether_tb $end
$var wire 1 ! eth_txen $end
$var wire 2 " eth_txd [1:0] $end
$var reg 2 # axiid [1:0] $end
$var reg 1 $ axiiv $end
$var reg 1 % clk_in $end
$var reg 1 & rst_in $end
$scope module uut $end
$var wire 2 ' axiid [1:0] $end
$var wire 1 $ axiiv $end
$var wire 1 % clk $end
$var wire 1 ( crc_rst $end
$var wire 1 ) crcov $end
$var wire 1 & rst $end
$var wire 32 * crc_output [31:0] $end
$var reg 2 + axiod [1:0] $end
$var reg 1 ! axiov $end
$var reg 1 , checksum_collected $end
$var reg 5 - cycle_counter [4:0] $end
$var reg 64 . data_buf [63:0] $end
$var reg 32 / fcs_buf [31:0] $end
$var reg 1 0 manual_rst $end
$var reg 1 1 reading_data $end
$var reg 8 2 sfd [7:0] $end
$var reg 3 3 state [2:0] $end
$var integer 32 4 data_counter [31:0] $end
$scope module build_checksum $end
$var wire 2 5 axiid [1:0] $end
$var wire 1 $ axiiv $end
$var wire 32 6 axiod [31:0] $end
$var wire 1 ) axiov $end
$var wire 1 % clk $end
$var wire 1 ( rst $end
$var reg 32 7 caxiod [31:0] $end
$var reg 32 8 saxiod [31:0] $end
$var integer 32 9 i [31:0] $end
$upscope $end
$upscope $end
$scope begin $ivl_for_loop0 $end
$var integer 32 : i [31:0] $end
$upscope $end
$scope begin $ivl_for_loop1 $end
$var integer 32 ; i [31:0] $end
$upscope $end
$upscope $end
$enddefinitions $end
#0
$dumpvars
b0 ;
b0 :
bx 9
bx 8
bx 7
bx 6
bx 5
b0 4
bx 3
b11101010 2
x1
x0
bx /
bx .
bx -
x,
bx +
bx *
1)
x(
bx '
x&
0%
x$
bx #
bx "
x!
$end
#10000
0&
1%
#20000
0%
#30000
b1111xx1xxx1111xx11xxxxxxxxxxxxxx 8
b100000 9
b0 *
b0 6
b0 3
b0 -
b0 "
b0 +
0!
b11111111111111111111111111111111 7
0,
1(
1%
1&
#40000
0%
#50000
b11xxxxxxxx11xxxxxxxxxxxxxxxxxxxx 8
b100000 9
b0xx0xxx0000xx00xxxxxxxxxxxxxx *
b0xx0xxx0000xx00xxxxxxxxxxxxxx 6
b1111xx1xxx1111xx11xxxxxxxxxxxxxx 7
00
0(
1%
0&
#60000
0%
#70000
bx 8
b100000 9
b0xxxxxxxx00xxxxxxxxxxxxxxxxxxxx *
b0xxxxxxxx00xxxxxxxxxxxxxxxxxxxx 6
b11xxxxxxxx11xxxxxxxxxxxxxxxxxxxx 7
1%
#80000
0%
#90000
b100000 9
bx *
bx 6
bx 7
1%
#100000
0%
#110000
1%
#120000
0%
#130000
1%
#140000
0%
#150000
b1 3
b1 "
b1 +
b1 4
11
b10 .
1!
b100000 9
1%
b10 #
b10 '
b10 5
1$
#160000
0%
#170000
b11 4
b1001 .
b1 -
b100000 9
1%
b1 #
b1 '
b1 5
#180000
0%
#190000
01
1,
b10 -
b100000 9
1%
b0 #
b0 '
b0 5
0$
#200000
0%
#210000
b11 -
1%
#220000
0%
#230000
b100 -
1%
#240000
0%
#250000
b101 -
1%
#260000
0%
#270000
b110 -
1%
#280000
0%
#290000
b111 -
1%
#300000
0%
#310000
b1000 -
1%
#320000
0%
#330000
b1001 -
1%
#340000
0%
#350000
b1010 -
1%
#360000
0%
#370000
b1011 -
1%
#380000
0%
#390000
b1100 -
1%
#400000
0%
#410000
b1101 -
1%
#420000
0%
#430000
b1110 -
1%
#440000
0%
#450000
b1111 -
1%
#460000
0%
#470000
b10000 -
1%
#480000
0%
#490000
b10001 -
1%
#500000
0%
#510000
b10010 -
1%
#520000
0%
#530000
b10011 -
1%
#540000
0%
#550000
b10100 -
1%
#560000
0%
#570000
b10101 -
1%
#580000
0%
#590000
b10110 -
1%
#600000
0%
#610000
b10111 -
1%
#620000
0%
#630000
b11000 -
1%
#640000
0%
#650000
b11001 -
1%
#660000
0%
#670000
b11010 -
1%
#680000
0%
#690000
b11011 -
1%
#700000
0%
#710000
b10111010 2
b10 "
b10 +
b11100 -
1%
#720000
0%
#730000
b10101110 2
b11101 -
1%
#740000
0%
#750000
b10101011 2
b11110 -
1%
#760000
0%
#770000
b11101010 2
b11 "
b11 +
b11111 -
1%
#780000
0%
#790000
b11 3
b1 4
b10 "
b10 +
b0 -
1%
#800000
0%
#810000
b11111111111111111111111111111111 4
b1 "
b1 +
1%
#820000
0%
#830000
b100 3
b0 4
bx "
bx +
1%
#840000
0%
#850000
b1 -
1%
#860000
0%
#870000
b10 -
1%
#880000
0%
#890000
b11 -
1%
#900000
0%
#910000
b100 -
1%
#920000
0%
#930000
b101 -
1%
#940000
0%
#950000
b110 -
1%
#960000
0%
#970000
b111 -
1%
#980000
0%
#990000
b1000 -
1%
#1000000
0%
#1010000
b1001 -
1%
#1020000
0%
#1030000
b1010 -
1%
#1040000
0%
#1050000
b1011 -
1%
#1060000
0%
#1070000
b1100 -
1%
#1080000
0%
#1090000
b1101 -
1%
#1100000
0%
#1110000
b1110 -
1%
#1120000
0%
#1130000
b1111 -
1%
#1140000
0%
#1150000
1(
b0 3
10
0!
b10000 -
1%
#1160000
0%
#1170000
b11110010101111001101100100100101 8
b100000 9
b0 *
b0 6
0(
b11111111111111111111111111111111 7
00
1%
