networking/obj/tether.vcd
$date
	Wed Dec 14 10:25:54 2022
$end
$version
	Icarus Verilog
$end
$timescale
	1ps
$end
$scope module tether_tb $end
$var wire 1 ! eth_txen $end
$var wire 2 " eth_txd [1:0] $end
$var reg 2 # axiid [1:0] $end
$var reg 1 $ axiiv $end
$var reg 1 % clk_in $end
$var reg 1 & rst_in $end
$scope module uut $end
$var wire 2 ' axiid [1:0] $end
$var wire 1 $ axiiv $end
$var wire 1 % clk $end
$var wire 1 ( crc_rst $end
$var wire 1 ) crcov $end
$var wire 1 & rst $end
$var wire 32 * crc_output [31:0] $end
$var reg 2 + axiod [1:0] $end
$var reg 1 ! axiov $end
$var reg 1 , checksum_collected $end
$var reg 6 - cycle_counter [5:0] $end
$var reg 64 . data_buf [63:0] $end
$var reg 32 / fcs_buf [31:0] $end
$var reg 1 0 manual_rst $end
$var reg 1 1 reading_data $end
$var reg 8 2 sfd [7:0] $end
$var reg 3 3 state [2:0] $end
$var integer 32 4 data_counter [31:0] $end
$var integer 32 5 padding_counter [31:0] $end
$scope module build_checksum $end
$var wire 2 6 axiid [1:0] $end
$var wire 1 $ axiiv $end
$var wire 32 7 axiod [31:0] $end
$var wire 1 ) axiov $end
$var wire 1 % clk $end
$var wire 1 ( rst $end
$var reg 32 8 caxiod [31:0] $end
$var reg 32 9 saxiod [31:0] $end
$var integer 32 : i [31:0] $end
$upscope $end
$upscope $end
$scope begin $ivl_for_loop0 $end
$var integer 32 ; i [31:0] $end
$upscope $end
$scope begin $ivl_for_loop1 $end
$var integer 32 < i [31:0] $end
$upscope $end
$upscope $end
$enddefinitions $end
#0
$dumpvars
b0 <
b0 ;
bx :
bx 9
bx 8
bx 7
bx 6
b0 5
b0 4
bx 3
b11010101 2
x1
x0
bx /
bx .
bx -
x,
bx +
bx *
1)
x(
bx '
x&
0%
x$
bx #
bx "
x!
$end
#10000
0&
1%
#20000
0%
#30000
b1111xx1xxx1111xx11xxxxxxxxxxxxxx 9
b100000 :
b0 *
b0 7
b0 3
b0 -
b0 "
b0 +
0!
b11111111111111111111111111111111 8
0,
1(
1%
1&
#40000
0%
#50000
b11xxxxxxxx11xxxxxxxxxxxxxxxxxxxx 9
b100000 :
b0xx0xxx0000xx00xxxxxxxxxxxxxx *
b0xx0xxx0000xx00xxxxxxxxxxxxxx 7
b1111xx1xxx1111xx11xxxxxxxxxxxxxx 8
00
0(
1%
0&
#60000
0%
#70000
bx 9
b100000 :
b0xxxxxxxx00xxxxxxxxxxxxxxxxxxxx *
b0xxxxxxxx00xxxxxxxxxxxxxxxxxxxx 7
b11xxxxxxxx11xxxxxxxxxxxxxxxxxxxx 8
1%
#80000
0%
#90000
b100000 :
bx *
bx 7
bx 8
1%
#100000
0%
#110000
1%
#120000
0%
#130000
1%
#140000
0%
#150000
b1 3
b1 "
b1 +
b10110111 5
b1 4
11
b10 .
1!
b100000 :
1%
b10 #
b10 '
b10 6
1$
#160000
0%
#170000
b10110110 5
b11 4
b1001 .
b1 -
b100000 :
1%
b1 #
b1 '
b1 6
#180000
0%
#190000
01
1,
b10 -
b100000 :
1%
b0 #
b0 '
b0 6
0$
#200000
0%
#210000
b11 -
1%
#220000
0%
#230000
b100 -
1%
#240000
0%
#250000
b101 -
1%
#260000
0%
#270000
b110 -
1%
#280000
0%
#290000
b111 -
1%
#300000
0%
#310000
b1000 -
1%
#320000
0%
#330000
b1001 -
1%
#340000
0%
#350000
b1010 -
1%
#360000
0%
#370000
b1011 -
1%
#380000
0%
#390000
b1100 -
1%
#400000
0%
#410000
b1101 -
1%
#420000
0%
#430000
b1110 -
1%
#440000
0%
#450000
b1111 -
1%
#460000
0%
#470000
b10000 -
1%
#480000
0%
#490000
b10001 -
1%
#500000
0%
#510000
b10010 -
1%
#520000
0%
#530000
b10011 -
1%
#540000
0%
#550000
b10100 -
1%
#560000
0%
#570000
b10101 -
1%
#580000
0%
#590000
b10110 -
1%
#600000
0%
#610000
b10111 -
1%
#620000
0%
#630000
b11000 -
1%
#640000
0%
#650000
b11001 -
1%
#660000
0%
#670000
b11010 -
1%
#680000
0%
#690000
b11011 -
1%
#700000
0%
#710000
b1110101 2
b11100 -
1%
#720000
0%
#730000
b1011101 2
b11101 -
1%
#740000
0%
#750000
b1010111 2
b11110 -
1%
#760000
0%
#770000
b11010101 2
b11 "
b11 +
b11111 -
1%
#780000
0%
#790000
b11 3
b1 4
b10 "
b10 +
b100000 -
1%
#800000
0%
#810000
b11111111111111111111111111111111 4
b1 "
b1 +
1%
#820000
0%
#830000
b10110101 5
b0 "
b0 +
1%
#840000
0%
#850000
b10110100 5
1%
#860000
0%
#870000
b10110011 5
1%
#880000
0%
#890000
b10110010 5
1%
#900000
0%
#910000
b10110001 5
1%
#920000
0%
#930000
b10110000 5
1%
#940000
0%
#950000
b10101111 5
1%
#960000
0%
#970000
b10101110 5
1%
#980000
0%
#990000
b10101101 5
1%
#1000000
0%
#1010000
b10101100 5
1%
#1020000
0%
#1030000
b10101011 5
1%
#1040000
0%
#1050000
b10101010 5
1%
#1060000
0%
#1070000
b10101001 5
1%
#1080000
0%
#1090000
b10101000 5
1%
#1100000
0%
#1110000
b10100111 5
1%
#1120000
0%
#1130000
b10100110 5
1%
#1140000
0%
#1150000
b10100101 5
1%
#1160000
0%
#1170000
b10100100 5
1%
#1180000
0%
#1190000
b10100011 5
1%
#1200000
0%
#1210000
b10100010 5
1%
#1220000
0%
#1230000
b10100001 5
1%
#1240000
0%
#1250000
b10100000 5
1%
#1260000
0%
#1270000
b10011111 5
1%
#1280000
0%
#1290000
b10011110 5
1%
#1300000
0%
#1310000
b10011101 5
1%
#1320000
0%
#1330000
b10011100 5
1%
#1340000
0%
#1350000
b10011011 5
1%
#1360000
0%
#1370000
b10011010 5
1%
#1380000
0%
#1390000
b10011001 5
1%
#1400000
0%
#1410000
b10011000 5
1%
#1420000
0%
#1430000
b10010111 5
1%
#1440000
0%
#1450000
b10010110 5
1%
#1460000
0%
#1470000
b10010101 5
1%
#1480000
0%
#1490000
b10010100 5
1%
#1500000
0%
#1510000
b10010011 5
1%
#1520000
0%
#1530000
b10010010 5
1%
#1540000
0%
#1550000
b10010001 5
1%
#1560000
0%
#1570000
b10010000 5
1%
#1580000
0%
#1590000
b10001111 5
1%
#1600000
0%
#1610000
b10001110 5
1%
#1620000
0%
#1630000
b10001101 5
1%
#1640000
0%
#1650000
b10001100 5
1%
#1660000
0%
#1670000
b10001011 5
1%
#1680000
0%
#1690000
b10001010 5
1%
#1700000
0%
#1710000
b10001001 5
1%
#1720000
0%
#1730000
b10001000 5
1%
#1740000
0%
#1750000
b10000111 5
1%
#1760000
0%
#1770000
b10000110 5
1%
#1780000
0%
#1790000
b10000101 5
1%
#1800000
0%
#1810000
b10000100 5
1%
#1820000
0%
#1830000
b10000011 5
1%
#1840000
0%
#1850000
b10000010 5
1%
#1860000
0%
#1870000
b10000001 5
1%
#1880000
0%
#1890000
b10000000 5
1%
#1900000
0%
#1910000
b1111111 5
1%
#1920000
0%
#1930000
b1111110 5
1%
#1940000
0%
#1950000
b1111101 5
1%
#1960000
0%
#1970000
b1111100 5
1%
#1980000
0%
#1990000
b1111011 5
1%
#2000000
0%
#2010000
b1111010 5
1%
#2020000
0%
#2030000
b1111001 5
1%
#2040000
0%
#2050000
b1111000 5
1%
#2060000
0%
#2070000
b1110111 5
1%
#2080000
0%
#2090000
b1110110 5
1%
#2100000
0%
#2110000
b1110101 5
1%
#2120000
0%
#2130000
b1110100 5
1%
#2140000
0%
#2150000
b1110011 5
1%
#2160000
0%
#2170000
b1110010 5
1%
#2180000
0%
#2190000
b1110001 5
1%
#2200000
0%
#2210000
b1110000 5
1%
#2220000
0%
#2230000
b1101111 5
1%
#2240000
0%
#2250000
b1101110 5
1%
#2260000
0%
#2270000
b1101101 5
1%
#2280000
0%
#2290000
b1101100 5
1%
#2300000
0%
#2310000
b1101011 5
1%
#2320000
0%
#2330000
b1101010 5
1%
#2340000
0%
#2350000
b1101001 5
1%
#2360000
0%
#2370000
b1101000 5
1%
#2380000
0%
#2390000
b1100111 5
1%
#2400000
0%
#2410000
b1100110 5
1%
#2420000
0%
#2430000
b1100101 5
1%
#2440000
0%
#2450000
b1100100 5
1%
#2460000
0%
#2470000
b1100011 5
1%
#2480000
0%
#2490000
b1100010 5
1%
#2500000
0%
#2510000
b1100001 5
1%
#2520000
0%
#2530000
b1100000 5
1%
#2540000
0%
#2550000
b1011111 5
1%
#2560000
0%
#2570000
b1011110 5
1%
#2580000
0%
#2590000
b1011101 5
1%
#2600000
0%
#2610000
b1011100 5
1%
#2620000
0%
#2630000
b1011011 5
1%
#2640000
0%
#2650000
b1011010 5
1%
#2660000
0%
#2670000
b1011001 5
1%
#2680000
0%
#2690000
b1011000 5
1%
#2700000
0%
#2710000
b1010111 5
1%
#2720000
0%
#2730000
b1010110 5
1%
#2740000
0%
#2750000
b1010101 5
1%
#2760000
0%
#2770000
b1010100 5
1%
#2780000
0%
#2790000
b1010011 5
1%
#2800000
0%
#2810000
b1010010 5
1%
#2820000
0%
#2830000
b1010001 5
1%
#2840000
0%
#2850000
b1010000 5
1%
#2860000
0%
#2870000
b1001111 5
1%
#2880000
0%
#2890000
b1001110 5
1%
#2900000
0%
#2910000
b1001101 5
1%
#2920000
0%
#2930000
b1001100 5
1%
#2940000
0%
#2950000
b1001011 5
1%
#2960000
0%
#2970000
b1001010 5
1%
#2980000
0%
#2990000
b1001001 5
1%
#3000000
0%
#3010000
b1001000 5
1%
#3020000
0%
#3030000
b1000111 5
1%
#3040000
0%
#3050000
b1000110 5
1%
#3060000
0%
#3070000
b1000101 5
1%
#3080000
0%
#3090000
b1000100 5
1%
#3100000
0%
#3110000
b1000011 5
1%
#3120000
0%
#3130000
b1000010 5
1%
#3140000
0%
#3150000
b1000001 5
1%
#3160000
0%
#3170000
b1000000 5
1%
#3180000
0%
#3190000
b111111 5
1%
#3200000
0%
#3210000
b111110 5
1%
#3220000
0%
#3230000
b111101 5
1%
#3240000
0%
#3250000
b111100 5
1%
#3260000
0%
#3270000
b111011 5
1%
#3280000
0%
#3290000
b111010 5
1%
#3300000
0%
#3310000
b111001 5
1%
#3320000
0%
#3330000
b111000 5
1%
#3340000
0%
#3350000
b110111 5
1%
#3360000
0%
#3370000
b110110 5
1%
#3380000
0%
#3390000
b110101 5
1%
#3400000
0%
#3410000
b110100 5
1%
#3420000
0%
#3430000
b110011 5
1%
#3440000
0%
#3450000
b110010 5
1%
#3460000
0%
#3470000
b110001 5
1%
#3480000
0%
#3490000
b110000 5
1%
#3500000
0%
#3510000
b101111 5
1%
#3520000
0%
#3530000
b101110 5
1%
#3540000
0%
#3550000
b101101 5
1%
#3560000
0%
#3570000
b101100 5
1%
#3580000
0%
#3590000
b101011 5
1%
#3600000
0%
#3610000
b101010 5
1%
#3620000
0%
#3630000
b101001 5
1%
#3640000
0%
#3650000
b101000 5
1%
#3660000
0%
#3670000
b100111 5
1%
#3680000
0%
#3690000
b100110 5
1%
#3700000
0%
#3710000
b100101 5
1%
#3720000
0%
#3730000
b100100 5
1%
#3740000
0%
#3750000
b100011 5
1%
#3760000
0%
#3770000
b100010 5
1%
#3780000
0%
#3790000
b100001 5
1%
#3800000
0%
#3810000
b100000 5
1%
#3820000
0%
#3830000
b11111 5
1%
#3840000
0%
#3850000
b11110 5
1%
#3860000
0%
#3870000
b11101 5
1%
#3880000
0%
#3890000
b11100 5
1%
#3900000
0%
#3910000
b11011 5
1%
#3920000
0%
#3930000
b11010 5
1%
#3940000
0%
#3950000
b11001 5
1%
#3960000
0%
#3970000
b11000 5
1%
#3980000
0%
#3990000
b10111 5
1%
#4000000
0%
#4010000
b10110 5
1%
#4020000
0%
#4030000
b10101 5
1%
#4040000
0%
#4050000
b10100 5
1%
#4060000
0%
#4070000
b10011 5
1%
#4080000
0%
#4090000
b10010 5
1%
#4100000
0%
#4110000
b10001 5
1%
#4120000
0%
#4130000
b10000 5
1%
#4140000
0%
#4150000
b1111 5
1%
#4160000
0%
#4170000
b1110 5
1%
#4180000
0%
#4190000
b1101 5
1%
#4200000
0%
#4210000
b1100 5
1%
#4220000
0%
#4230000
b1011 5
1%
#4240000
0%
#4250000
b1010 5
1%
#4260000
0%
#4270000
b1001 5
1%
#4280000
0%
#4290000
b1000 5
1%
#4300000
0%
#4310000
b111 5
1%
#4320000
0%
#4330000
b110 5
1%
#4340000
0%
#4350000
b101 5
1%
#4360000
0%
#4370000
b100 5
1%
#4380000
0%
#4390000
b11 5
1%
#4400000
0%
#4410000
b10 5
1%
#4420000
0%
#4430000
b1 5
1%
#4440000
0%
#4450000
b0 5
1%
#4460000
0%
#4470000
b100 3
b0 -
b0 4
bx "
bx +
1%
#4480000
0%
#4490000
b1 -
1%
#4500000
0%
#4510000
b10 -
1%
#4520000
0%
#4530000
b11 -
1%
#4540000
0%
#4550000
b100 -
1%
#4560000
0%
#4570000
b101 -
1%
#4580000
0%
#4590000
b110 -
1%
#4600000
0%
#4610000
b111 -
1%
#4620000
0%
#4630000
b1000 -
1%
#4640000
0%
#4650000
b1001 -
1%
#4660000
0%
#4670000
b1010 -
1%
#4680000
0%
#4690000
b1011 -
1%
#4700000
0%
#4710000
b1100 -
1%
#4720000
0%
#4730000
b1101 -
1%
#4740000
0%
#4750000
b1110 -
1%
#4760000
0%
#4770000
b1111 -
1%
#4780000
0%
#4790000
1(
b0 3
10
b0 "
b0 +
0!
b10000 -
1%
#4800000
0%
#4810000
b11110010101111001101100100100101 9
b100000 :
b0 *
b0 7
0(
b11111111111111111111111111111111 8
00
1%
