networking/obj/top_level.vcd
$date
	Tue Dec  6 20:52:32 2022
$end
$version
	Icarus Verilog
$end
$timescale
	1ps
$end
$scope module top_level_tb $end
$var wire 1 ! rstn_out $end
$var wire 1 " refclk_out $end
$var wire 16 # led_out [15:0] $end
$var reg 32 $ checksum [31:0] $end
$var reg 1 % clk_in $end
$var reg 1 & crsdv_in $end
$var reg 48 ' destination [47:0] $end
$var reg 16 ( length [15:0] $end
$var reg 168 ) message [167:0] $end
$var reg 56 * preamble [55:0] $end
$var reg 1 + rst_in $end
$var reg 2 , rxd_in [1:0] $end
$var reg 8 - sfd [7:0] $end
$var reg 48 . source [47:0] $end
$scope module uut $end
$var wire 1 + btnc $end
$var wire 1 % clk $end
$var wire 1 & eth_crsdv $end
$var wire 1 ! eth_rstn $end
$var wire 2 / eth_rxd [1:0] $end
$var wire 1 0 sys_rst $end
$var wire 1 1 kill $end
$var wire 1 2 firewall_axiov $end
$var wire 2 3 firewall_axiod [1:0] $end
$var wire 1 4 eth_axiov $end
$var wire 2 5 eth_axiod [1:0] $end
$var wire 1 6 done $end
$var wire 1 7 bitorder_axiov $end
$var wire 2 8 bitorder_axiod [1:0] $end
$var reg 1 " eth_refclk $end
$var reg 16 9 led [15:0] $end
$var reg 1 : past_done $end
$scope module bit_reorder $end
$var wire 1 % clk $end
$var wire 1 0 rst $end
$var wire 1 4 axiiv $end
$var wire 2 ; axiid [1:0] $end
$var reg 2 < axiod [1:0] $end
$var reg 1 7 axiov $end
$var reg 8 = buf_a [7:0] $end
$var reg 8 > buf_b [7:0] $end
$var reg 2 ? buf_counter [1:0] $end
$var reg 1 @ read_buf $end
$var reg 2 A state [1:0] $end
$upscope $end
$scope module check_dest $end
$var wire 2 B axiid [1:0] $end
$var wire 1 7 axiiv $end
$var wire 1 % clk $end
$var wire 1 0 rst $end
$var reg 2 C axiod [1:0] $end
$var reg 1 2 axiov $end
$var reg 48 D broadcast_addr [47:0] $end
$var reg 6 E counter [5:0] $end
$var reg 48 F device_addr [47:0] $end
$var reg 48 G read_addr [47:0] $end
$var reg 3 H state [2:0] $end
$upscope $end
$scope module checksum $end
$var wire 1 % clk $end
$var wire 1 I crc_axiov $end
$var wire 1 J crc_rst $end
$var wire 1 0 rst $end
$var wire 32 K crc_axiod [31:0] $end
$var wire 1 4 axiiv $end
$var wire 2 L axiid [1:0] $end
$var reg 32 M checksum [31:0] $end
$var reg 1 6 done $end
$var reg 1 1 kill $end
$var reg 1 N manual_rst $end
$var reg 1 O state $end
$scope module mycrc $end
$var wire 32 P axiod [31:0] $end
$var wire 1 I axiov $end
$var wire 1 % clk $end
$var wire 1 J rst $end
$var wire 1 4 axiiv $end
$var wire 2 Q axiid [1:0] $end
$var reg 32 R caxiod [31:0] $end
$var reg 32 S saxiod [31:0] $end
$var integer 32 T i [31:0] $end
$upscope $end
$upscope $end
$scope module ethernet $end
$var wire 1 % clk $end
$var wire 1 & crsdv $end
$var wire 1 0 rst $end
$var wire 2 U rxd [1:0] $end
$var reg 2 V axiod [1:0] $end
$var reg 1 4 axiov $end
$var reg 5 W preamble_count [4:0] $end
$var reg 2 X sfd_count [1:0] $end
$var reg 3 Y state [2:0] $end
$upscope $end
$upscope $end
$scope begin $ivl_for_loop0 $end
$var integer 32 Z i [31:0] $end
$upscope $end
$scope begin $ivl_for_loop1 $end
$var integer 32 [ i [31:0] $end
$upscope $end
$scope begin $ivl_for_loop2 $end
$var integer 32 \ i [31:0] $end
$upscope $end
$scope begin $ivl_for_loop3 $end
$var integer 32 ] i [31:0] $end
$upscope $end
$scope begin $ivl_for_loop4 $end
$var integer 32 ^ i [31:0] $end
$upscope $end
$scope begin $ivl_for_loop5 $end
$var integer 32 _ i [31:0] $end
$upscope $end
$scope begin $ivl_for_loop6 $end
$var integer 32 ` i [31:0] $end
$upscope $end
$upscope $end
$enddefinitions $end
#0
$dumpvars
b0 `
b0 _
b0 ^
b0 ]
b0 \
b0 [
b0 Z
bx Y
bx X
bx W
bx V
bx U
bx T
bx S
bx R
bx Q
bx P
xO
xN
b111000111110110010001010000100 M
bx L
bx K
xJ
1I
bx H
bx G
b11010010110100101011010000001100101010010010001 F
bx E
b111111111111111111111111111111111111111111111111 D
bx C
bx B
bx A
x@
bx ?
bx >
bx =
bx <
bx ;
x:
bx 9
bx 8
x7
x6
bx 5
x4
bx 3
x2
x1
x0
bx /
b111111010111010100110000000010001100001010010110 .
b11101010 -
bx ,
x+
b1010101010101010101010101010101010101010101010101010101 *
b10000100110000101110010011100100111100100100001001000000100001001110010011001010110000101101011011001100110000101110011011101000010000001110100011010010110110101100101 )
b1010100000000 (
b111111111111111111111111111111111111111111111111 '
x&
0%
b10110101011111000000101001010100 $
bx #
x"
x!
$end
#10000
1!
00
0+
1%
#20000
0%
#30000
b1111xx1xxx1111xx11xxxxxxxxxxxxxx S
b100000 T
b0 K
b0 P
bx00000000000000 #
bx00000000000000 9
0O
01
06
b11111111111111111111111111111111 R
b0 H
b0 E
b0 G
b0 A
07
b0 >
b0 =
b0 ?
0@
04
b0 X
b0 W
b0 Y
0!
02
b0 3
b0 C
1J
1%
10
1+
#40000
0%
#50000
b0 8
b0 <
b0 B
0N
0:
b0 #
b0 9
1!
0J
1%
1&
00
0+
#60000
0%
#70000
b1 W
b1 Y
1%
b1 ,
b1 /
b1 U
#80000
0%
#90000
b10 W
1%
b1 Z
#100000
0%
#110000
b11 W
1%
b10 Z
#120000
0%
#130000
b100 W
1%
b11 Z
#140000
0%
#150000
b101 W
1%
b100 Z
#160000
0%
#170000
b110 W
1%
b101 Z
#180000
0%
#190000
b111 W
1%
b110 Z
#200000
0%
#210000
b1000 W
1%
b111 Z
#220000
0%
#230000
b1001 W
1%
b1000 Z
#240000
0%
#250000
b1010 W
1%
b1001 Z
#260000
0%
#270000
b1011 W
1%
b1010 Z
#280000
0%
#290000
b1100 W
1%
b1011 Z
#300000
0%
#310000
b1101 W
1%
b1100 Z
#320000
0%
#330000
b1110 W
1%
b1101 Z
#340000
0%
#350000
b1111 W
1%
b1110 Z
#360000
0%
#370000
b10000 W
1%
b1111 Z
#380000
0%
#390000
b10001 W
1%
b10000 Z
#400000
0%
#410000
b10010 W
1%
b10001 Z
#420000
0%
#430000
b10011 W
1%
b10010 Z
#440000
0%
#450000
b10100 W
1%
b10011 Z
#460000
0%
#470000
b10101 W
1%
b10100 Z
#480000
0%
#490000
b10110 W
1%
b10101 Z
#500000
0%
#510000
b10111 W
1%
b10110 Z
#520000
0%
#530000
b11000 W
1%
b10111 Z
#540000
0%
#550000
b11001 W
1%
b11000 Z
#560000
0%
#570000
b11010 W
1%
b11001 Z
#580000
0%
#590000
b11011 W
1%
b11010 Z
#600000
0%
#610000
b11100 W
1%
b11011 Z
#620000
0%
#630000
b1 X
1%
b11100 Z
#640000
0%
#650000
b10 X
1%
b1 [
#660000
0%
#670000
b11 X
1%
b10 [
#680000
0%
#690000
b10 Y
1%
b11 ,
b11 /
b11 U
b11 [
#700000
0%
#710000
b11111111111111111111111111111100 S
b100000 T
b11 5
b11 ;
b11 L
b11 Q
b11 V
14
1%
b100 [
#720000
0%
#730000
b11111111111111111111111111110000 S
b100000 T
b11 K
b11 P
b1 A
b11000000 =
b11111111111111111111111111111100 R
1O
1%
b1 \
#740000
0%
#750000
b11111111111111111111111111000000 S
b100000 T
b1111 K
b1111 P
b11111111111111111111111111110000 R
b1 ?
b11110000 =
1%
b10 \
#760000
0%
#770000
b11111111111111111111111100000000 S
b100000 T
b111111 K
b111111 P
b10 ?
b11111100 =
b11111111111111111111111111000000 R
1%
b11 \
#780000
0%
#790000
b11111111111111111111110000000000 S
b100000 T
b11111111 K
b11111111 P
b11111111111111111111111100000000 R
b11 ?
b11111111 =
1%
b100 \
#800000
0%
#810000
b11111111111111111111000000000000 S
b100000 T
b1111111111 K
b1111111111 P
b10 A
b0 ?
1@
17
b11 8
b11 <
b11 B
b11000000 >
b11111111111111111111110000000000 R
1%
b101 \
#820000
0%
#830000
b11111111111111111100000000000000 S
b100000 T
b111111111111 K
b111111111111 P
b11111111111111111111000000000000 R
b1 H
b11 G
b1 ?
b11110000 >
1%
b110 \
#840000
0%
#850000
b11111111111111110000000000000000 S
b100000 T
b11111111111111 K
b11111111111111 P
b10 ?
b11111100 >
b1 E
b1111 G
b11111111111111111100000000000000 R
1%
b111 \
#860000
0%
#870000
b11111111111111000000000000000000 S
b100000 T
b1111111111111111 K
b1111111111111111 P
b11111111111111110000000000000000 R
b10 E
b111111 G
b11 ?
b11111111 >
1%
b1000 \
#880000
0%
#890000
b11111111111100000000000000000000 S
b100000 T
b111111111111111111 K
b111111111111111111 P
b0 ?
0@
b11 E
b11111111 G
b11111111111111000000000000000000 R
1%
b1001 \
#900000
0%
#910000
b11111111110000000000000000000000 S
b100000 T
b11111111111111111111 K
b11111111111111111111 P
b11111111111100000000000000000000 R
b100 E
b1111111111 G
b1 ?
1%
b1010 \
#920000
0%
#930000
b11111111000000000000000000000000 S
b100000 T
b1111111111111111111111 K
b1111111111111111111111 P
b10 ?
b101 E
b111111111111 G
b11111111110000000000000000000000 R
1%
b1011 \
#940000
0%
#950000
b11111100000000000000000000000000 S
b100000 T
b111111111111111111111111 K
b111111111111111111111111 P
b11111111000000000000000000000000 R
b110 E
b11111111111111 G
b11 ?
1%
b1100 \
#960000
0%
#970000
b11110000000000000000000000000000 S
b100000 T
b11111111111111111111111111 K
b11111111111111111111111111 P
b0 ?
1@
b111 E
b1111111111111111 G
b11111100000000000000000000000000 R
1%
b1101 \
#980000
0%
#990000
b11000000000000000000000000000000 S
b100000 T
b1111111111111111111111111111 K
b1111111111111111111111111111 P
b11110000000000000000000000000000 R
b1000 E
b111111111111111111 G
b1 ?
1%
b1110 \
#1000000
0%
#1010000
b0 S
b100000 T
b111111111111111111111111111111 K
b111111111111111111111111111111 P
b10 ?
b1001 E
b11111111111111111111 G
b11000000000000000000000000000000 R
1%
b1111 \
#1020000
0%
#1030000
b1101010000110010011011011001 S
b100000 T
b11111111111111111111111111111111 K
b11111111111111111111111111111111 P
b0 R
b1010 E
b1111111111111111111111 G
b11 ?
1%
b10000 \
#1040000
0%
#1050000
b111000010011111011110110111101 S
b100000 T
b11110010101111001101100100100110 K
b11110010101111001101100100100110 P
b0 ?
0@
b1011 E
b111111111111111111111111 G
b1101010000110010011011011001 R
1%
b10001 \
#1060000
0%
#1070000
b11101100011111011101000000101101 S
b100000 T
b11000111101100000100001001000010 K
b11000111101100000100001001000010 P
b111000010011111011110110111101 R
b1100 E
b11111111111111111111111111 G
b1 ?
1%
b10010 \
#1080000
0%
#1090000
b10110001111101110100000010110100 S
b100000 T
b10011100000100010111111010010 K
b10011100000100010111111010010 P
b10 ?
b1101 E
b1111111111111111111111111111 G
b11101100011111011101000000101101 R
1%
b10011 \
#1100000
0%
#1110000
b11000011000111000001111101100111 S
b100000 T
b1001110000010001011111101001011 K
b1001110000010001011111101001011 P
b10110001111101110100000010110100 R
b1110 E
b111111111111111111111111111111 G
b11 ?
1%
b10100 \
#1120000
0%
#1130000
b1100011100000111110110011100 S
b100000 T
b111100111000111110000010011000 K
b111100111000111110000010011000 P
b0 ?
1@
b1111 E
b11111111111111111111111111111111 G
b11000011000111000001111101100111 R
1%
b10101 \
#1140000
0%
#1150000
b111100100000101101000010101001 S
b100000 T
b11110011100011111000001001100011 K
b11110011100011111000001001100011 P
b1100011100000111110110011100 R
b10000 E
b1111111111111111111111111111111111 G
b1 ?
1%
b10110 \
#1160000
0%
#1170000
b11111111010010000110010001111101 S
b100000 T
b11000011011111010010111101010110 K
b11000011011111010010111101010110 P
b10 ?
b10001 E
b111111111111111111111111111111111111 G
b111100100000101101000010101001 R
1%
b10111 \
#1180000
0%
#1190000
b101101111001101110000010 K
b101101111001101110000010 P
b11110100101000111010101010011010 S
b100000 T
b11111111010010000110010001111101 R
b10010 E
b11111111111111111111111111111111111111 G
b11 ?
b10 5
b10 ;
b10 L
b10 Q
b10 V
1%
b101111110101110101001100000000100011000010100101 .
b10 ,
b10 /
b10 U
b11000 \
#1200000
0%
#1210000
b11010110010011111011011111011111 S
b100000 T
b1011010111000101010101100101 K
b1011010111000101010101100101 P
b1 5
b1 ;
b1 L
b1 Q
b1 V
b0 ?
0@
b10111111 =
b10011 E
b1111111111111111111111111111111111111111 G
b11110100101000111010101010011010 R
1%
b11011111101011101010011000000001000110000101001 .
b1 ,
b1 /
b1 U
b1 ]
#1220000
0%
#1230000
b1011101111111111100001011001011 S
b100000 T
b101001101100000100100000100000 K
b101001101100000100100000100000 P
b11010110010011111011011111011111 R
b10100 E
b111111111111111111111111111111111111111111 G
b1 ?
b1101111 =
1%
b10110111111010111010100110000000010001100001010 .
b10 ]
#1240000
0%
#1250000
b1110111111111110000101100101100 S
b100000 T
b10100010000000000011110100110100 K
b10100010000000000011110100110100 P
b10 5
b10 ;
b10 L
b10 Q
b10 V
b10 ?
b1011011 =
b10101 E
b11111111111111111111111111111111111111111111 G
b1011101111111111100001011001011 R
1%
b100101101111110101110101001100000000100011000010 .
b10 ,
b10 /
b10 U
b11 ]
#1260000
0%
#1270000
b11011111111111000010110010110000 S
b100000 T
b10001000000000001111010011010011 K
b10001000000000001111010011010011 P
b1110111111111110000101100101100 R
b10110 E
b1111111111111111111111111111111111111111111111 G
b11 ?
b10010110 =
1%
b101001011011111101011101010011000000001000110000 .
b100 ]
#1280000
0%
#1290000
b1110010101100111001010000011001 S
b100000 T
b100000000000111101001101001111 K
b100000000000111101001101001111 P
b0 5
b0 ;
b0 L
b0 Q
b0 V
b0 ?
1@
b10 8
b10 <
b10 B
b10111111 >
b10111 E
b111111111111111111111111111111111111111111111111 G
b11011111111111000010110010110000 R
1%
b1010010110111111010111010100110000000010001100 .
b0 ,
b0 /
b0 U
b101 ]
#1300000
0%
#1310000
b11001110000011110100110111010011 S
b100000 T
b10001101010011000110101111100110 K
b10001101010011000110101111100110 P
b1110010101100111001010000011001 R
b10 H
b11000 E
b1 ?
b1 8
b1 <
b1 B
b101111 >
1%
b10100101101111110101110101001100000000100011 .
b110 ]
#1320000
0%
#1330000
b111000001111010011011101001100 S
b100000 T
b110001111100001011001000101100 K
b110001111100001011001000101100 P
b11 5
b11 ;
b11 L
b11 Q
b11 V
b10 ?
b1011 >
b11001 E
b11001110000011110100110111010011 R
1%
b110000101001011011111101011101010011000000001000 .
b11 ,
b11 /
b11 U
b111 ]
#1340000
0%
#1350000
b11000111110000101100100010110011 K
b11000111110000101100100010110011 P
b11100000111101001101110100110000 S
b100000 T
b111000001111010011011101001100 R
b11010 E
b11 ?
b10 8
b10 <
b10 B
b11000010 >
b0 5
b0 ;
b0 L
b0 Q
b0 V
1%
b1100001010010110111111010111010100110000000010 .
b0 ,
b0 /
b0 U
b1000 ]
#1360000
0%
#1370000
b10001010010100010100111110101110 S
b100000 T
b11111000010110010001011001111 K
b11111000010110010001011001111 P
b10 5
b10 ;
b10 L
b10 Q
b10 V
b0 ?
0@
b11 8
b11 <
b11 B
b100101 =
b11011 E
b11100000111101001101110100110000 R
1%
b100011000010100101101111110101110101001100000000 .
b10 ,
b10 /
b10 U
b1001 ]
#1380000
0%
#1390000
b1110101101011101011000001010001 K
b1110101101011101011000001010001 P
b100000110001110000010111010110 S
b100000 T
b10001010010100010100111110101110 R
b11100 E
b1 ?
b0 8
b0 <
b0 B
b10001001 =
b0 5
b0 ;
b0 L
b0 Q
b0 V
1%
b1000110000101001011011111101011101010011000000 .
b0 ,
b0 /
b0 U
b1010 ]
#1400000
0%
#1410000
b10000011000111000001011101011000 S
b100000 T
b11011111001110001111101000101001 K
b11011111001110001111101000101001 P
b10 ?
b100010 =
b11101 E
b100000110001110000010111010110 R
1%
b10001100001010010110111111010111010100110000 .
b1011 ]
#1420000
0%
#1430000
b101111100100110011000001110 S
b100000 T
b1111100111000111110100010100111 K
b1111100111000111110100010100111 P
b10000011000111000001011101011000 R
b11110 E
b11 ?
b10 8
b10 <
b10 B
b1000 =
1%
b100011000010100101101111110101110101001100 .
b1100 ]
#1440000
0%
#1450000
b10111110010011001100000111000 S
b100000 T
b11111010000011011001100111110001 K
b11111010000011011001100111110001 P
b0 ?
1@
b0 8
b0 <
b0 B
b110000 >
b11111 E
b101111100100110011000001110 R
1%
b1000110000101001011011111101011101010011 .
b1101 ]
#1460000
0%
#1470000
b11101000001101100110011111000111 K
b11101000001101100110011111000111 P
b1010010011001010100011000111001 S
b100000 T
b10111110010011001100000111000 R
b100000 E
b1 ?
b1100 >
b11 5
b11 ;
b11 L
b11 Q
b11 V
1%
b110000000010001100001010010110111111010111010100 .
b11 ,
b11 /
b11 U
b1110 ]
#1480000
0%
#1490000
b1001101010101000000010101010011 S
b100000 T
b10101101100110101011100111000110 K
b10101101100110101011100111000110 P
b0 5
b0 ;
b0 L
b0 Q
b0 V
b10 ?
b10 8
b10 <
b10 B
b11000011 >
b100001 E
b1010010011001010100011000111001 R
1%
b1100000000100011000010100101101111110101110101 .
b0 ,
b0 /
b0 U
b1111 ]
#1500000
0%
#1510000
b10110010101010111111101010101100 K
b10110010101010111111101010101100 P
b111000000100110011001110010101 S
b100000 T
b1001101010101000000010101010011 R
b100010 E
b11 ?
b0 8
b0 <
b0 B
b110000 >
b1 5
b1 ;
b1 L
b1 Q
b1 V
1%
b10011000000001000110000101001011011111101011101 .
b1 ,
b1 /
b1 U
b10000 ]
#1520000
0%
#1530000
b11101001110011101111010100111010 S
b100000 T
b11000111111011001100110001101010 K
b11000111111011001100110001101010 P
b0 ?
0@
b1000010 =
b100011 E
b111000000100110011001110010101 R
1%
b10100110000000010001100001010010110111111010111 .
b10001 ]
#1540000
0%
#1550000
b10110001100010000101011000101 K
b10110001100010000101011000101 P
b10100111001110111101010011101000 S
b100000 T
b11101001110011101111010100111010 R
b100100 E
b1 ?
b11 8
b11 <
b11 B
b1010000 =
b11 5
b11 ;
b11 L
b11 Q
b11 V
1%
b110101001100000000100011000010100101101111110101 .
b11 ,
b11 /
b11 U
b10010 ]
#1560000
0%
#1570000
b10011100111011110101001110100000 S
b100000 T
b1011000110001000010101100010111 K
b1011000110001000010101100010111 P
b1 5
b1 ;
b1 L
b1 Q
b1 V
b10 ?
b0 8
b0 <
b0 B
b11010100 =
b100101 E
b10100111001110111101010011101000 R
1%
b11101010011000000001000110000101001011011111101 .
b1 ,
b1 /
b1 U
b10011 ]
#1580000
0%
#1590000
b1110011101111010100111010000000 S
b100000 T
b1100011000100001010110001011111 K
b1100011000100001010110001011111 P
b10011100111011110101001110100000 R
b100110 E
b11 ?
b1110101 =
1%
b10111010100110000000010001100001010010110111111 .
b10100 ]
#1600000
0%
#1610000
b11000111011101110000000101101110 S
b100000 T
b10001100010000101011000101111111 K
b10001100010000101011000101111111 P
b11 5
b11 ;
b11 L
b11 Q
b11 V
b0 ?
1@
b1 8
b1 <
b1 B
b1001100 >
b100111 E
b1110011101111010100111010000000 R
1%
b110101110101001100000000100011000010100101101111 .
b11 ,
b11 /
b11 U
b10101 ]
#1620000
0%
#1630000
b11101110111000000010110111000 S
b100000 T
b111000100010001111111010010001 K
b111000100010001111111010010001 P
b11000111011101110000000101101110 R
b101000 E
b1 ?
b11 8
b11 <
b11 B
b11010011 >
1%
b111101011101010011000000001000110000101001011011 .
b10110 ]
#1640000
0%
#1650000
b1111010001100110011000000111001 S
b100000 T
b11100010001000111111101001000111 K
b11100010001000111111101001000111 P
b10 ?
b1 8
b1 <
b1 B
b11110100 >
b101001 E
b11101110111000000010110111000 R
1%
b111111010111010100110000000010001100001010010110 .
b10111 ]
#1660000
0%
#1670000
b10000101110011001100111111000110 K
b10000101110011001100111111000110 P
b11101100000011011101110101010011 S
b100000 T
b1111010001100110011000000111001 R
b101010 E
b11 ?
b11111101 >
b0 5
b0 ;
b0 L
b0 Q
b0 V
1%
b0 ,
b0 /
b0 U
b11000 ]
#1680000
0%
#1690000
b10111101011101000101001110010101 S
b100000 T
b10011111100100010001010101100 K
b10011111100100010001010101100 P
b0 ?
0@
b11 8
b11 <
b11 B
b11101 =
b101011 E
b11101100000011011101110101010011 R
1%
b1 ^
#1700000
0%
#1710000
b11111100010100110111010100111010 S
b100000 T
b1000010100010111010110001101010 K
b1000010100010111010110001101010 P
b10111101011101000101001110010101 R
b101100 E
b1 ?
b111 =
1%
b10 ^
#1720000
0%
#1730000
b11111100000011101111001000110001 S
b100000 T
b11101011001000101011000101 K
b11101011001000101011000101 P
b10 ?
b1 =
b101101 E
b11111100010100110111010100111010 R
1%
b11 ^
#1740000
0%
#1750000
b11111101011110001110111000011101 S
b100000 T
b11111100010000110111001110 K
b11111100010000110111001110 P
b11111100000011101111001000110001 R
b101110 E
b11 ?
b1 8
b1 <
b1 B
b0 =
1%
b100 ^
#1760000
0%
#1770000
b11110001001000101010010111000011 S
b100000 T
b10100001110001000111100010 K
b10100001110001000111100010 P
b1 5
b1 ;
b1 L
b1 Q
b1 V
b0 ?
1@
b0 8
b0 <
b0 B
b111111 >
b101111 E
b11111101011110001110111000011101 R
1%
b1 ,
b1 /
b1 U
b101 ^
#1780000
0%
#1790000
b11000000010010111000101010111011 S
b100000 T
b1110110111010101101000111100 K
b1110110111010101101000111100 P
b11110001001000101010010111000011 R
b110000 E
b1 ?
b1001111 >
1%
b110 ^
#1800000
0%
#1810000
b101111011110011011101011011 S
b100000 T
b111111101101000111010101000100 K
b111111101101000111010101000100 P
b10 ?
b1010011 >
b110001 E
b11000000010010111000101010111011 R
1%
b111 ^
#1820000
0%
#1830000
b11111010000100001100100010100100 K
b11111010000100001100100010100100 P
b10011011111011100000011011011 S
b100000 T
b101111011110011011101011011 R
b110010 E
b11 ?
b1010100 >
b10 5
b10 ;
b10 L
b10 Q
b10 V
1%
b10 ,
b10 /
b10 U
b10101000 _
b1000 ^
#1840000
0%
#1850000
b1001101111101110000001101101100 S
b100000 T
b11101100100000100011111100100100 K
b11101100100000100011111100100100 P
b0 5
b0 ;
b0 L
b0 Q
b0 V
b0 ?
0@
b1 8
b1 <
b1 B
b10000000 =
b110011 E
b10011011111011100000011011011 R
1%
b0 ,
b0 /
b0 U
b10100110 _
#1860000
0%
#1870000
b110011000111010001000000000111 S
b100000 T
b10110010000010001111110010010011 K
b10110010000010001111110010010011 P
b1001101111101110000001101101100 R
b110100 E
b1 ?
b100000 =
1%
b10100100 _
#1880000
0%
#1890000
b11000101111101100111101101110010 S
b100000 T
b11001100111000101110111111111000 K
b11001100111000101110111111111000 P
b1 5
b1 ;
b1 L
b1 Q
b1 V
b10 ?
b1000 =
b110101 E
b110011000111010001000000000111 R
1%
b1 ,
b1 /
b1 U
b10100010 _
#1900000
0%
#1910000
b111010000010011000010010001101 K
b111010000010011000010010001101 P
b11110010110111101011010100110 S
b100000 T
b11000101111101100111101101110010 R
b110110 E
b11 ?
b0 8
b0 <
b0 B
b1000010 =
b10 5
b10 ;
b10 L
b10 Q
b10 V
1%
b10 ,
b10 /
b10 U
b10100000 _
#1920000
0%
#1930000
12
b1 3
b1 C
b1110000111011010110000111110110 S
b100000 T
b11100001101001000010100101011001 K
b11100001101001000010100101011001 P
b1 5
b1 ;
b1 L
b1 Q
b1 V
b0 ?
1@
b1 8
b1 <
b1 B
b10010101 >
b110111 E
b11110010110111101011010100110 R
1%
b1 ,
b1 /
b1 U
b10011110 _
#1940000
0%
#1950000
b10001111000100101001111000001001 K
b10001111000100101001111000001001 P
b0 3
b0 C
b11000111011101001001101001101111 S
b100000 T
b1110000111011010110000111110110 R
b11 H
b1 ?
b0 8
b0 <
b0 B
b1100101 >
b0 5
b0 ;
b0 L
b0 Q
b0 V
1%
b0 ,
b0 /
b0 U
b10011100 _
#1960000
0%
#1970000
b10100010100000101001011010010 S
b100000 T
b111000100010110110010110010000 K
b111000100010110110010110010000 P
b10 5
b10 ;
b10 L
b10 Q
b10 V
b10 ?
b11001 >
b11000111011101001001101001101111 R
1%
b10 ,
b10 /
b10 U
b10011010 _
#1980000
0%
#1990000
b1010101100000000101011011111111 S
b100000 T
b11101011101011111010110100101101 K
b11101011101011111010110100101101 P
b10 3
b10 C
b10100010100000101001011010010 R
b11 ?
b10 8
b10 <
b10 B
b10000110 >
1%
b10011000 _
#2000000
0%
#2010000
b1011111100000110110000010010010 S
b100000 T
b10101010011111111010100100000000 K
b10101010011111111010100100000000 P
b11 5
b11 ;
b11 L
b11 Q
b11 V
b0 ?
0@
b10010000 =
b1010101100000000101011011111111 R
1%
b11 ,
b11 /
b11 U
b10010110 _
#2020000
0%
#2030000
b10100000011111001001111101101101 K
b10100000011111001001111101101101 P
b0 3
b0 C
b1111010110011001001111111111111 S
b100000 T
b1011111100000110110000010010010 R
b1 ?
b0 8
b0 <
b0 B
b11100100 =
b0 5
b0 ;
b0 L
b0 Q
b0 V
1%
b0 ,
b0 /
b0 U
b10010100 _
#2040000
0%
#2050000
b1 3
b1 C
b11100110011100010101100100100101 S
b100000 T
b10000101001100110110000000000000 K
b10000101001100110110000000000000 P
b1 5
b1 ;
b1 L
b1 Q
b1 V
b10 ?
b1 8
b1 <
b1 B
b111001 =
b1111010110011001001111111111111 R
1%
b1 ,
b1 /
b1 U
b10010010 _
#2060000
0%
#2070000
b11001100011101010011011011010 K
b11001100011101010011011011010 P
b10 3
b10 C
b10010000010001110101111111111010 S
b100000 T
b11100110011100010101100100100101 R
b11 ?
b10 8
b10 <
b10 B
b1001110 =
b10 5
b10 ;
b10 L
b10 Q
b10 V
1%
b10 ,
b10 /
b10 U
b10010000 _
#2080000
0%
#2090000
b1 3
b1 C
b1000101110111000110001001011111 S
b100000 T
b1101111101110001010000000000101 K
b1101111101110001010000000000101 P
b11 5
b11 ;
b11 L
b11 Q
b11 V
b0 ?
1@
b1 8
b1 <
b1 B
b10100001 >
b10010000010001110101111111111010 R
1%
b11 ,
b11 /
b11 U
b10001110 _
#2100000
0%
#2110000
b10111010001000111001110110100000 K
b10111010001000111001110110100000 P
b0 3
b0 C
b10011101100001001010011001011 S
b100000 T
b1000101110111000110001001011111 R
b1 ?
b0 8
b0 <
b0 B
b11101000 >
b0 5
b0 ;
b0 L
b0 Q
b0 V
1%
b0 ,
b0 /
b0 U
b10001100 _
#2120000
0%
#2130000
b11 3
b11 C
b1000111010000000110100001000010 S
b100000 T
b11101100010011110110101100110100 K
b11101100010011110110101100110100 P
b1 5
b1 ;
b1 L
b1 Q
b1 V
b10 ?
b11 8
b11 <
b11 B
b111010 >
b10011101100001001010011001011 R
1%
b1 ,
b1 /
b1 U
b10001010 _
#2140000
0%
#2150000
b10111000101111111001011110111101 K
b10111000101111111001011110111101 P
b10 3
b10 C
b11101000000011010000100001000 S
b100000 T
b1000111010000000110100001000010 R
b11 ?
b10 8
b10 <
b10 B
b1001110 >
b10 5
b10 ;
b10 L
b10 Q
b10 V
1%
b10 ,
b10 /
b10 U
b10001000 _
#2160000
0%
#2170000
b1 3
b1 C
b1111001010001011010001011111001 S
b100000 T
b11100010111111100101111011110111 K
b11100010111111100101111011110111 P
b11 5
b11 ;
b11 L
b11 Q
b11 V
b0 ?
0@
b1 8
b1 <
b1 B
b10010011 =
b11101000000011010000100001000 R
1%
b11 ,
b11 /
b11 U
b10000110 _
#2180000
0%
#2190000
b10000110101110100101110100000110 K
b10000110101110100101110100000110 P
b0 3
b0 C
b11101000010101011010110100111101 S
b100000 T
b1111001010001011010001011111001 R
b1 ?
b0 8
b0 <
b0 B
b11100100 =
b1 5
b1 ;
b1 L
b1 Q
b1 V
1%
b1 ,
b1 /
b1 U
b10000100 _
#2200000
0%
#2210000
b11 3
b11 C
b10101000110101001000111110011010 S
b100000 T
b10111101010100101001011000010 K
b10111101010100101001011000010 P
b10 5
b10 ;
b10 L
b10 Q
b10 V
b10 ?
b11 8
b11 <
b11 B
b1111001 =
b11101000010101011010110100111101 R
1%
b10 ,
b10 /
b10 U
b10000010 _
#2220000
0%
#2230000
b1010111001010110111000001100101 K
b1010111001010110111000001100101 P
b10 3
b10 C
b10101010110100000000010100000110 S
b100000 T
b10101000110101001000111110011010 R
b11 ?
b10 8
b10 <
b10 B
b10011110 =
b0 5
b0 ;
b0 L
b0 Q
b0 V
1%
b0 ,
b0 /
b0 U
b10000000 _
#2240000
0%
#2250000
b10101011010000000001010000011000 S
b100000 T
b1010101001011111111101011111001 K
b1010101001011111111101011111001 P
b1 5
b1 ;
b1 L
b1 Q
b1 V
b0 ?
1@
b10011 >
b10101010110100000000010100000110 R
1%
b1 ,
b1 /
b1 U
b1111110 _
#2260000
0%
#2270000
b1010100101111111110101111100111 K
b1010100101111111110101111100111 P
b1 3
b1 C
b10100100100000100110101100001110 S
b100000 T
b10101011010000000001010000011000 R
b1 ?
b1 8
b1 <
b1 B
b1000100 >
b0 5
b0 ;
b0 L
b0 Q
b0 V
1%
b0 ,
b0 /
b0 U
b1111100 _
#2280000
0%
#2290000
b11 3
b11 C
b10011111010010101000101011100001 S
b100000 T
b1011011011111011001010011110001 K
b1011011011111011001010011110001 P
b10 5
b10 ;
b10 L
b10 Q
b10 V
b10 ?
b11 8
b11 <
b11 B
b10001 >
b10100100100000100110101100001110 R
1%
b10 ,
b10 /
b10 U
b1111010 _
#2300000
0%
#2310000
b1100000101101010111010100011110 K
b1100000101101010111010100011110 P
b10 3
b10 C
b1110100101010000001000011101010 S
b100000 T
b10011111010010101000101011100001 R
b11 ?
b10 8
b10 <
b10 B
b10000100 >
b0 5
b0 ;
b0 L
b0 Q
b0 V
1%
b0 ,
b0 /
b0 U
b1111000 _
#2320000
0%
